^D:\USERS\STATSUSER\SOURCE\REPOS\OCRTEST\OCRTEST\SOURCE.CPP
D:\USERS\STATSUSER\SOURCE\REPOS\OCRTEST\OCRTEST\X64\RELEASE\VC142.PDB
D:\USERS\STATSUSER\SOURCE\REPOS\OCRTEST\OCRTEST\X64\RELEASE\SOURCE.OBJ
