^C:\USERS\STATSUSER\DESKTOP\SG_START_FRM_CNN\CODE\GENERATE_SG_START_FRMS_TRAINDATA\X64\RELEASE\GENERATE_SG_START_FRMS_TRAINDATA.OBJ
C:\USERS\STATSUSER\DESKTOP\SG_START_FRM_CNN\CODE\BUILD\X64\RELEASE\GENERATE_SG_START_FRMS_TRAINDATA.EXE
C:\USERS\STATSUSER\DESKTOP\SG_START_FRM_CNN\CODE\BUILD\X64\RELEASE\GENERATE_SG_START_FRMS_TRAINDATA.PDB
