^C:\USERS\STATSUSER\DESKTOP\SG_START_FRM_CNN\CODE\TRAIN_SG_START_FRM_CNN\TRAIN_SG_START_FRM_CNN.CPP
/c /I"C:\PROGRAM FILES\NVIDIA GPU COMPUTING TOOLKIT\CUDA\V10.1\INCLUDE" /I"T:\TOOLKITS\OPENCV-3.4.6\INCLUDE" /I"T:\TOOLKITS\BOOST-1.70.0" /IC:\USERS\STATSUSER\DESKTOP\SG_START_FRM_CNN\CODE\TRAIN_SG_START_FRM_CNN\..\..\INCLUDE /IC:\USERS\STATSUSER\DESKTOP\SG_START_FRM_CNN\CODE\TRAIN_SG_START_FRM_CNN\..\..\LIBRARIES /Zi /nologo /W3 /WX- /diagnostics:classic /sdl /O2 /Oi /GL /D _CRT_SECURE_NO_WARNINGS /D _SCL_SECURE_NO_WARNINGS /D WIN32 /D _WINDOWS /D NDEBUG /D "CAFFE_VERSION=1.0.0-rc4" /D USE_LMDB /D USE_OPENCV /D CMAKE_WINDOWS_BUILD /D GLOG_NO_ABBREVIATED_SEVERITIES /D "GOOGLE_GLOG_DLL_DECL=__declspec(dllexport)" /D "GOOGLE_GLOG_DLL_DECL_FOR_UNITTESTS=__declspec(dllimport)" /D H5_BUILT_AS_DYNAMIC_LIB=1 /D "CMAKE_INTDIR=\"Release\"" /D _MBCS /Gm- /EHsc /MD /GS /Gy /fp:precise /Zc:wchar_t /Zc:forScope /Zc:inline /openmp /Fo"X64\RELEASE\\" /Fd"X64\RELEASE\VC142.PDB" /Gd /TP /FC C:\USERS\STATSUSER\DESKTOP\SG_START_FRM_CNN\CODE\TRAIN_SG_START_FRM_CNN\TRAIN_SG_START_FRM_CNN.CPP
^T:\DESKTOP\SG_START_FRM_CNN\CODE\TRAIN_SG_START_FRM_CNN\TRAIN_SG_START_FRM_CNN.CPP
/c /I"C:\PROGRAM FILES\NVIDIA GPU COMPUTING TOOLKIT\CUDA\V10.1\INCLUDE" /I"T:\TOOLKITS\OPENCV-3.4.6\INCLUDE" /I"T:\TOOLKITS\BOOST-1.70.0" /IT:\DESKTOP\SG_START_FRM_CNN\CODE\TRAIN_SG_START_FRM_CNN\..\..\INCLUDE /IT:\DESKTOP\SG_START_FRM_CNN\CODE\TRAIN_SG_START_FRM_CNN\..\..\LIBRARIES /Zi /nologo /W3 /WX- /diagnostics:classic /sdl /O2 /Oi /GL /D _CRT_SECURE_NO_WARNINGS /D _SCL_SECURE_NO_WARNINGS /D WIN32 /D _WINDOWS /D NDEBUG /D "CAFFE_VERSION=1.0.0-rc4" /D USE_LMDB /D USE_OPENCV /D CMAKE_WINDOWS_BUILD /D GLOG_NO_ABBREVIATED_SEVERITIES /D "GOOGLE_GLOG_DLL_DECL=__declspec(dllexport)" /D "GOOGLE_GLOG_DLL_DECL_FOR_UNITTESTS=__declspec(dllimport)" /D H5_BUILT_AS_DYNAMIC_LIB=1 /D "CMAKE_INTDIR=\"Release\"" /D _MBCS /Gm- /EHsc /MD /GS /Gy /fp:precise /Zc:wchar_t /Zc:forScope /Zc:inline /openmp /Fo"X64\RELEASE\\" /Fd"X64\RELEASE\VC142.PDB" /Gd /TP /FC T:\DESKTOP\SG_START_FRM_CNN\CODE\TRAIN_SG_START_FRM_CNN\TRAIN_SG_START_FRM_CNN.CPP
