^C:\Users\statsuser\Desktop\SG_Start_Frm_CNN\CODE\train_SG_start_frm_CNN\train_SG_start_frm_CNN.vcxproj
C:\Users\statsuser\Desktop\SG_Start_Frm_CNN\CODE\build\x64\Release\train_SG_start_frm_CNN.ipdb
C:\Users\statsuser\Desktop\SG_Start_Frm_CNN\CODE\build\x64\Release\train_SG_start_frm_CNN.iobj
^C:\Users\statsuser\Desktop\SG_Start_Frm_CNN\CODE\train_SG_start_frm_CNN\train_SG_start_frm_CNN.vcxproj
C:\Users\statsuser\Desktop\SG_Start_Frm_CNN\CODE\build\x64\Release\train_SG_start_frm_CNN.ipdb
C:\Users\statsuser\Desktop\SG_Start_Frm_CNN\CODE\build\x64\Release\train_SG_start_frm_CNN.iobj
^C:\Users\statsuser\Desktop\SG_Start_Frm_CNN\CODE\train_SG_start_frm_CNN\train_SG_start_frm_CNN.vcxproj
C:\Users\statsuser\Desktop\SG_Start_Frm_CNN\CODE\build\x64\Release\train_SG_start_frm_CNN.ipdb
C:\Users\statsuser\Desktop\SG_Start_Frm_CNN\CODE\build\x64\Release\train_SG_start_frm_CNN.iobj
^C:\Users\statsuser\Desktop\SG_Start_Frm_CNN\CODE\train_SG_start_frm_CNN\train_SG_start_frm_CNN.vcxproj
C:\Users\statsuser\Desktop\SG_Start_Frm_CNN\CODE\build\x64\Release\train_SG_start_frm_CNN.ipdb
C:\Users\statsuser\Desktop\SG_Start_Frm_CNN\CODE\build\x64\Release\train_SG_start_frm_CNN.iobj
^C:\Users\statsuser\Desktop\SG_Start_Frm_CNN\CODE\train_SG_start_frm_CNN\train_SG_start_frm_CNN.vcxproj
C:\Users\statsuser\Desktop\SG_Start_Frm_CNN\CODE\build\x64\Release\train_SG_start_frm_CNN.ipdb
C:\Users\statsuser\Desktop\SG_Start_Frm_CNN\CODE\build\x64\Release\train_SG_start_frm_CNN.iobj
^C:\Users\statsuser\Desktop\SG_Start_Frm_CNN\CODE\train_SG_start_frm_CNN\train_SG_start_frm_CNN.vcxproj
C:\Users\statsuser\Desktop\SG_Start_Frm_CNN\CODE\build\x64\Release\train_SG_start_frm_CNN.ipdb
C:\Users\statsuser\Desktop\SG_Start_Frm_CNN\CODE\build\x64\Release\train_SG_start_frm_CNN.iobj
^C:\Users\statsuser\Desktop\SG_Start_Frm_CNN\CODE\train_SG_start_frm_CNN\train_SG_start_frm_CNN.vcxproj
C:\Users\statsuser\Desktop\SG_Start_Frm_CNN\CODE\build\x64\Release\train_SG_start_frm_CNN.ipdb
C:\Users\statsuser\Desktop\SG_Start_Frm_CNN\CODE\build\x64\Release\train_SG_start_frm_CNN.iobj
^C:\Users\statsuser\Desktop\SG_Start_Frm_CNN\CODE\train_SG_start_frm_CNN\train_SG_start_frm_CNN.vcxproj
C:\Users\statsuser\Desktop\SG_Start_Frm_CNN\CODE\build\x64\Release\train_SG_start_frm_CNN.ipdb
C:\Users\statsuser\Desktop\SG_Start_Frm_CNN\CODE\build\x64\Release\train_SG_start_frm_CNN.iobj
^C:\Users\statsuser\Desktop\SG_Start_Frm_CNN\CODE\train_SG_start_frm_CNN\train_SG_start_frm_CNN.vcxproj
C:\Users\statsuser\Desktop\SG_Start_Frm_CNN\CODE\build\x64\Release\train_SG_start_frm_CNN.ipdb
C:\Users\statsuser\Desktop\SG_Start_Frm_CNN\CODE\build\x64\Release\train_SG_start_frm_CNN.iobj
^C:\Users\statsuser\Desktop\SG_Start_Frm_CNN\CODE\train_SG_start_frm_CNN\train_SG_start_frm_CNN.vcxproj
C:\Users\statsuser\Desktop\SG_Start_Frm_CNN\CODE\build\x64\Release\train_SG_start_frm_CNN.ipdb
C:\Users\statsuser\Desktop\SG_Start_Frm_CNN\CODE\build\x64\Release\train_SG_start_frm_CNN.iobj
^C:\Users\statsuser\Desktop\SG_Start_Frm_CNN\CODE\train_SG_start_frm_CNN\train_SG_start_frm_CNN.vcxproj
C:\Users\statsuser\Desktop\SG_Start_Frm_CNN\CODE\build\x64\Release\train_SG_start_frm_CNN.ipdb
C:\Users\statsuser\Desktop\SG_Start_Frm_CNN\CODE\build\x64\Release\train_SG_start_frm_CNN.iobj
^C:\Users\statsuser\Desktop\SG_Start_Frm_CNN\CODE\train_SG_start_frm_CNN\train_SG_start_frm_CNN.vcxproj
C:\Users\statsuser\Desktop\SG_Start_Frm_CNN\CODE\build\x64\Release\train_SG_start_frm_CNN.ipdb
C:\Users\statsuser\Desktop\SG_Start_Frm_CNN\CODE\build\x64\Release\train_SG_start_frm_CNN.iobj
^C:\Users\statsuser\Desktop\SG_Start_Frm_CNN\CODE\train_SG_start_frm_CNN\train_SG_start_frm_CNN.vcxproj
C:\Users\statsuser\Desktop\SG_Start_Frm_CNN\CODE\build\x64\Release\train_SG_start_frm_CNN.ipdb
C:\Users\statsuser\Desktop\SG_Start_Frm_CNN\CODE\build\x64\Release\train_SG_start_frm_CNN.iobj
^C:\Users\statsuser\Desktop\SG_Start_Frm_CNN\CODE\train_SG_start_frm_CNN\train_SG_start_frm_CNN.vcxproj
C:\Users\statsuser\Desktop\SG_Start_Frm_CNN\CODE\build\x64\Release\train_SG_start_frm_CNN.ipdb
C:\Users\statsuser\Desktop\SG_Start_Frm_CNN\CODE\build\x64\Release\train_SG_start_frm_CNN.iobj
^C:\Users\statsuser\Desktop\SG_Start_Frm_CNN\CODE\train_SG_start_frm_CNN\train_SG_start_frm_CNN.vcxproj
C:\Users\statsuser\Desktop\SG_Start_Frm_CNN\CODE\build\x64\Release\train_SG_start_frm_CNN.ipdb
C:\Users\statsuser\Desktop\SG_Start_Frm_CNN\CODE\build\x64\Release\train_SG_start_frm_CNN.iobj
^C:\Users\statsuser\Desktop\SG_Start_Frm_CNN\CODE\train_SG_start_frm_CNN\train_SG_start_frm_CNN.vcxproj
C:\Users\statsuser\Desktop\SG_Start_Frm_CNN\CODE\build\x64\Release\train_SG_start_frm_CNN.ipdb
C:\Users\statsuser\Desktop\SG_Start_Frm_CNN\CODE\build\x64\Release\train_SG_start_frm_CNN.iobj
^C:\Users\statsuser\Desktop\SG_Start_Frm_CNN\CODE\train_SG_start_frm_CNN\train_SG_start_frm_CNN.vcxproj
C:\Users\statsuser\Desktop\SG_Start_Frm_CNN\CODE\build\x64\Release\train_SG_start_frm_CNN.ipdb
C:\Users\statsuser\Desktop\SG_Start_Frm_CNN\CODE\build\x64\Release\train_SG_start_frm_CNN.iobj
^C:\Users\statsuser\Desktop\SG_Start_Frm_CNN\CODE\train_SG_start_frm_CNN\train_SG_start_frm_CNN.vcxproj
C:\Users\statsuser\Desktop\SG_Start_Frm_CNN\CODE\build\x64\Release\train_SG_start_frm_CNN.ipdb
C:\Users\statsuser\Desktop\SG_Start_Frm_CNN\CODE\build\x64\Release\train_SG_start_frm_CNN.iobj
^C:\Users\statsuser\Desktop\SG_Start_Frm_CNN\CODE\train_SG_start_frm_CNN\train_SG_start_frm_CNN.vcxproj
C:\Users\statsuser\Desktop\SG_Start_Frm_CNN\CODE\build\x64\Release\train_SG_start_frm_CNN.ipdb
C:\Users\statsuser\Desktop\SG_Start_Frm_CNN\CODE\build\x64\Release\train_SG_start_frm_CNN.iobj
^C:\Users\statsuser\Desktop\SG_Start_Frm_CNN\CODE\train_SG_start_frm_CNN\train_SG_start_frm_CNN.vcxproj
C:\Users\statsuser\Desktop\SG_Start_Frm_CNN\CODE\build\x64\Release\train_SG_start_frm_CNN.ipdb
C:\Users\statsuser\Desktop\SG_Start_Frm_CNN\CODE\build\x64\Release\train_SG_start_frm_CNN.iobj
^C:\Users\statsuser\Desktop\SG_Start_Frm_CNN\CODE\train_SG_start_frm_CNN\train_SG_start_frm_CNN.vcxproj
C:\Users\statsuser\Desktop\SG_Start_Frm_CNN\CODE\build\x64\Release\train_SG_start_frm_CNN.ipdb
C:\Users\statsuser\Desktop\SG_Start_Frm_CNN\CODE\build\x64\Release\train_SG_start_frm_CNN.iobj
^C:\Users\statsuser\Desktop\SG_Start_Frm_CNN\CODE\train_SG_start_frm_CNN\train_SG_start_frm_CNN.vcxproj
C:\Users\statsuser\Desktop\SG_Start_Frm_CNN\CODE\build\x64\Release\train_SG_start_frm_CNN.ipdb
C:\Users\statsuser\Desktop\SG_Start_Frm_CNN\CODE\build\x64\Release\train_SG_start_frm_CNN.iobj
^C:\Users\statsuser\Desktop\SG_Start_Frm_CNN\CODE\train_SG_start_frm_CNN\train_SG_start_frm_CNN.vcxproj
C:\Users\statsuser\Desktop\SG_Start_Frm_CNN\CODE\build\x64\Release\train_SG_start_frm_CNN.ipdb
C:\Users\statsuser\Desktop\SG_Start_Frm_CNN\CODE\build\x64\Release\train_SG_start_frm_CNN.iobj
^C:\Users\statsuser\Desktop\SG_Start_Frm_CNN\CODE\train_SG_start_frm_CNN\train_SG_start_frm_CNN.vcxproj
C:\Users\statsuser\Desktop\SG_Start_Frm_CNN\CODE\build\x64\Release\train_SG_start_frm_CNN.ipdb
C:\Users\statsuser\Desktop\SG_Start_Frm_CNN\CODE\build\x64\Release\train_SG_start_frm_CNN.iobj
^C:\Users\statsuser\Desktop\SG_Start_Frm_CNN\CODE\train_SG_start_frm_CNN\train_SG_start_frm_CNN.vcxproj
C:\Users\statsuser\Desktop\SG_Start_Frm_CNN\CODE\build\x64\Release\train_SG_start_frm_CNN.ipdb
C:\Users\statsuser\Desktop\SG_Start_Frm_CNN\CODE\build\x64\Release\train_SG_start_frm_CNN.iobj
^C:\Users\statsuser\Desktop\SG_Start_Frm_CNN\CODE\train_SG_start_frm_CNN\train_SG_start_frm_CNN.vcxproj
C:\Users\statsuser\Desktop\SG_Start_Frm_CNN\CODE\build\x64\Release\train_SG_start_frm_CNN.ipdb
C:\Users\statsuser\Desktop\SG_Start_Frm_CNN\CODE\build\x64\Release\train_SG_start_frm_CNN.iobj
^C:\Users\statsuser\Desktop\SG_Start_Frm_CNN\CODE\train_SG_start_frm_CNN\train_SG_start_frm_CNN.vcxproj
C:\Users\statsuser\Desktop\SG_Start_Frm_CNN\CODE\build\x64\Release\train_SG_start_frm_CNN.ipdb
C:\Users\statsuser\Desktop\SG_Start_Frm_CNN\CODE\build\x64\Release\train_SG_start_frm_CNN.iobj
^C:\Users\statsuser\Desktop\SG_Start_Frm_CNN\CODE\train_SG_start_frm_CNN\train_SG_start_frm_CNN.vcxproj
C:\Users\statsuser\Desktop\SG_Start_Frm_CNN\CODE\build\x64\Release\train_SG_start_frm_CNN.ipdb
C:\Users\statsuser\Desktop\SG_Start_Frm_CNN\CODE\build\x64\Release\train_SG_start_frm_CNN.iobj
^C:\Users\statsuser\Desktop\SG_Start_Frm_CNN\CODE\train_SG_start_frm_CNN\train_SG_start_frm_CNN.vcxproj
C:\Users\statsuser\Desktop\SG_Start_Frm_CNN\CODE\build\x64\Release\train_SG_start_frm_CNN.ipdb
C:\Users\statsuser\Desktop\SG_Start_Frm_CNN\CODE\build\x64\Release\train_SG_start_frm_CNN.iobj
^C:\Users\statsuser\Desktop\SG_Start_Frm_CNN\CODE\train_SG_start_frm_CNN\train_SG_start_frm_CNN.vcxproj
C:\Users\statsuser\Desktop\SG_Start_Frm_CNN\CODE\build\x64\Release\train_SG_start_frm_CNN.ipdb
C:\Users\statsuser\Desktop\SG_Start_Frm_CNN\CODE\build\x64\Release\train_SG_start_frm_CNN.iobj
^C:\Users\statsuser\Desktop\SG_Start_Frm_CNN\CODE\train_SG_start_frm_CNN\train_SG_start_frm_CNN.vcxproj
C:\Users\statsuser\Desktop\SG_Start_Frm_CNN\CODE\build\x64\Release\train_SG_start_frm_CNN.ipdb
C:\Users\statsuser\Desktop\SG_Start_Frm_CNN\CODE\build\x64\Release\train_SG_start_frm_CNN.iobj
^C:\Users\statsuser\Desktop\SG_Start_Frm_CNN\CODE\train_SG_start_frm_CNN\train_SG_start_frm_CNN.vcxproj
C:\Users\statsuser\Desktop\SG_Start_Frm_CNN\CODE\build\x64\Release\train_SG_start_frm_CNN.ipdb
C:\Users\statsuser\Desktop\SG_Start_Frm_CNN\CODE\build\x64\Release\train_SG_start_frm_CNN.iobj
^C:\Users\statsuser\Desktop\SG_Start_Frm_CNN\CODE\train_SG_start_frm_CNN\train_SG_start_frm_CNN.vcxproj
C:\Users\statsuser\Desktop\SG_Start_Frm_CNN\CODE\build\x64\Release\train_SG_start_frm_CNN.ipdb
C:\Users\statsuser\Desktop\SG_Start_Frm_CNN\CODE\build\x64\Release\train_SG_start_frm_CNN.iobj
^C:\Users\statsuser\Desktop\SG_Start_Frm_CNN\CODE\train_SG_start_frm_CNN\train_SG_start_frm_CNN.vcxproj
C:\Users\statsuser\Desktop\SG_Start_Frm_CNN\CODE\build\x64\Release\train_SG_start_frm_CNN.ipdb
C:\Users\statsuser\Desktop\SG_Start_Frm_CNN\CODE\build\x64\Release\train_SG_start_frm_CNN.iobj
^C:\Users\statsuser\Desktop\SG_Start_Frm_CNN\CODE\train_SG_start_frm_CNN\train_SG_start_frm_CNN.vcxproj
C:\Users\statsuser\Desktop\SG_Start_Frm_CNN\CODE\build\x64\Release\train_SG_start_frm_CNN.ipdb
C:\Users\statsuser\Desktop\SG_Start_Frm_CNN\CODE\build\x64\Release\train_SG_start_frm_CNN.iobj
^C:\Users\statsuser\Desktop\SG_Start_Frm_CNN\CODE\train_SG_start_frm_CNN\train_SG_start_frm_CNN.vcxproj
C:\Users\statsuser\Desktop\SG_Start_Frm_CNN\CODE\build\x64\Release\train_SG_start_frm_CNN.ipdb
C:\Users\statsuser\Desktop\SG_Start_Frm_CNN\CODE\build\x64\Release\train_SG_start_frm_CNN.iobj
^C:\Users\statsuser\Desktop\SG_Start_Frm_CNN\CODE\train_SG_start_frm_CNN\train_SG_start_frm_CNN.vcxproj
C:\Users\statsuser\Desktop\SG_Start_Frm_CNN\CODE\build\x64\Release\train_SG_start_frm_CNN.ipdb
C:\Users\statsuser\Desktop\SG_Start_Frm_CNN\CODE\build\x64\Release\train_SG_start_frm_CNN.iobj
^C:\Users\statsuser\Desktop\SG_Start_Frm_CNN\CODE\train_SG_start_frm_CNN\train_SG_start_frm_CNN.vcxproj
C:\Users\statsuser\Desktop\SG_Start_Frm_CNN\CODE\build\x64\Release\train_SG_start_frm_CNN.ipdb
C:\Users\statsuser\Desktop\SG_Start_Frm_CNN\CODE\build\x64\Release\train_SG_start_frm_CNN.iobj
^C:\Users\statsuser\Desktop\SG_Start_Frm_CNN\CODE\train_SG_start_frm_CNN\train_SG_start_frm_CNN.vcxproj
C:\Users\statsuser\Desktop\SG_Start_Frm_CNN\CODE\build\x64\Release\train_SG_start_frm_CNN.ipdb
C:\Users\statsuser\Desktop\SG_Start_Frm_CNN\CODE\build\x64\Release\train_SG_start_frm_CNN.iobj
^C:\Users\statsuser\Desktop\SG_Start_Frm_CNN\CODE\train_SG_start_frm_CNN\train_SG_start_frm_CNN.vcxproj
C:\Users\statsuser\Desktop\SG_Start_Frm_CNN\CODE\build\x64\Release\train_SG_start_frm_CNN.ipdb
C:\Users\statsuser\Desktop\SG_Start_Frm_CNN\CODE\build\x64\Release\train_SG_start_frm_CNN.iobj
^C:\Users\statsuser\Desktop\SG_Start_Frm_CNN\CODE\train_SG_start_frm_CNN\train_SG_start_frm_CNN.vcxproj
C:\Users\statsuser\Desktop\SG_Start_Frm_CNN\CODE\build\x64\Release\train_SG_start_frm_CNN.ipdb
C:\Users\statsuser\Desktop\SG_Start_Frm_CNN\CODE\build\x64\Release\train_SG_start_frm_CNN.iobj
^C:\Users\statsuser\Desktop\SG_Start_Frm_CNN\CODE\train_SG_start_frm_CNN\train_SG_start_frm_CNN.vcxproj
C:\Users\statsuser\Desktop\SG_Start_Frm_CNN\CODE\build\x64\Release\train_SG_start_frm_CNN.ipdb
C:\Users\statsuser\Desktop\SG_Start_Frm_CNN\CODE\build\x64\Release\train_SG_start_frm_CNN.iobj
^C:\Users\statsuser\Desktop\SG_Start_Frm_CNN\CODE\train_SG_start_frm_CNN\train_SG_start_frm_CNN.vcxproj
C:\Users\statsuser\Desktop\SG_Start_Frm_CNN\CODE\build\x64\Release\train_SG_start_frm_CNN.ipdb
C:\Users\statsuser\Desktop\SG_Start_Frm_CNN\CODE\build\x64\Release\train_SG_start_frm_CNN.iobj
^C:\Users\statsuser\Desktop\SG_Start_Frm_CNN\CODE\train_SG_start_frm_CNN\train_SG_start_frm_CNN.vcxproj
C:\Users\statsuser\Desktop\SG_Start_Frm_CNN\CODE\build\x64\Release\train_SG_start_frm_CNN.ipdb
C:\Users\statsuser\Desktop\SG_Start_Frm_CNN\CODE\build\x64\Release\train_SG_start_frm_CNN.iobj
^C:\Users\statsuser\Desktop\SG_Start_Frm_CNN\CODE\train_SG_start_frm_CNN\train_SG_start_frm_CNN.vcxproj
C:\Users\statsuser\Desktop\SG_Start_Frm_CNN\CODE\build\x64\Release\train_SG_start_frm_CNN.ipdb
C:\Users\statsuser\Desktop\SG_Start_Frm_CNN\CODE\build\x64\Release\train_SG_start_frm_CNN.iobj
^C:\Users\statsuser\Desktop\SG_Start_Frm_CNN\CODE\train_SG_start_frm_CNN\train_SG_start_frm_CNN.vcxproj
C:\Users\statsuser\Desktop\SG_Start_Frm_CNN\CODE\build\x64\Release\train_SG_start_frm_CNN.ipdb
C:\Users\statsuser\Desktop\SG_Start_Frm_CNN\CODE\build\x64\Release\train_SG_start_frm_CNN.iobj
^C:\Users\statsuser\Desktop\SG_Start_Frm_CNN\CODE\train_SG_start_frm_CNN\train_SG_start_frm_CNN.vcxproj
C:\Users\statsuser\Desktop\SG_Start_Frm_CNN\CODE\build\x64\Release\train_SG_start_frm_CNN.ipdb
C:\Users\statsuser\Desktop\SG_Start_Frm_CNN\CODE\build\x64\Release\train_SG_start_frm_CNN.iobj
^C:\Users\statsuser\Desktop\SG_Start_Frm_CNN\CODE\train_SG_start_frm_CNN\train_SG_start_frm_CNN.vcxproj
C:\Users\statsuser\Desktop\SG_Start_Frm_CNN\CODE\build\x64\Release\train_SG_start_frm_CNN.ipdb
C:\Users\statsuser\Desktop\SG_Start_Frm_CNN\CODE\build\x64\Release\train_SG_start_frm_CNN.iobj
^C:\Users\statsuser\Desktop\SG_Start_Frm_CNN\CODE\train_SG_start_frm_CNN\train_SG_start_frm_CNN.vcxproj
C:\Users\statsuser\Desktop\SG_Start_Frm_CNN\CODE\build\x64\Release\train_SG_start_frm_CNN.ipdb
C:\Users\statsuser\Desktop\SG_Start_Frm_CNN\CODE\build\x64\Release\train_SG_start_frm_CNN.iobj
^C:\Users\statsuser\Desktop\SG_Start_Frm_CNN\CODE\train_SG_start_frm_CNN\train_SG_start_frm_CNN.vcxproj
C:\Users\statsuser\Desktop\SG_Start_Frm_CNN\CODE\build\x64\Release\train_SG_start_frm_CNN.ipdb
C:\Users\statsuser\Desktop\SG_Start_Frm_CNN\CODE\build\x64\Release\train_SG_start_frm_CNN.iobj
^C:\Users\statsuser\Desktop\SG_Start_Frm_CNN\CODE\train_SG_start_frm_CNN\train_SG_start_frm_CNN.vcxproj
C:\Users\statsuser\Desktop\SG_Start_Frm_CNN\CODE\build\x64\Release\train_SG_start_frm_CNN.ipdb
C:\Users\statsuser\Desktop\SG_Start_Frm_CNN\CODE\build\x64\Release\train_SG_start_frm_CNN.iobj
^C:\Users\statsuser\Desktop\SG_Start_Frm_CNN\CODE\train_SG_start_frm_CNN\train_SG_start_frm_CNN.vcxproj
C:\Users\statsuser\Desktop\SG_Start_Frm_CNN\CODE\build\x64\Release\train_SG_start_frm_CNN.ipdb
C:\Users\statsuser\Desktop\SG_Start_Frm_CNN\CODE\build\x64\Release\train_SG_start_frm_CNN.iobj
^C:\Users\statsuser\Desktop\SG_Start_Frm_CNN\CODE\train_SG_start_frm_CNN\train_SG_start_frm_CNN.vcxproj
C:\Users\statsuser\Desktop\SG_Start_Frm_CNN\CODE\build\x64\Release\train_SG_start_frm_CNN.ipdb
C:\Users\statsuser\Desktop\SG_Start_Frm_CNN\CODE\build\x64\Release\train_SG_start_frm_CNN.iobj
^C:\Users\statsuser\Desktop\SG_Start_Frm_CNN\CODE\train_SG_start_frm_CNN\train_SG_start_frm_CNN.vcxproj
C:\Users\statsuser\Desktop\SG_Start_Frm_CNN\CODE\build\x64\Release\train_SG_start_frm_CNN.ipdb
C:\Users\statsuser\Desktop\SG_Start_Frm_CNN\CODE\build\x64\Release\train_SG_start_frm_CNN.iobj
^C:\Users\statsuser\Desktop\SG_Start_Frm_CNN\CODE\train_SG_start_frm_CNN\train_SG_start_frm_CNN.vcxproj
C:\Users\statsuser\Desktop\SG_Start_Frm_CNN\CODE\build\x64\Release\train_SG_start_frm_CNN.ipdb
C:\Users\statsuser\Desktop\SG_Start_Frm_CNN\CODE\build\x64\Release\train_SG_start_frm_CNN.iobj
^C:\Users\statsuser\Desktop\SG_Start_Frm_CNN\CODE\train_SG_start_frm_CNN\train_SG_start_frm_CNN.vcxproj
C:\Users\statsuser\Desktop\SG_Start_Frm_CNN\CODE\build\x64\Release\train_SG_start_frm_CNN.ipdb
C:\Users\statsuser\Desktop\SG_Start_Frm_CNN\CODE\build\x64\Release\train_SG_start_frm_CNN.iobj
^T:\Desktop\SG_Start_Frm_CNN\CODE\train_SG_start_frm_CNN\train_SG_start_frm_CNN.vcxproj
T:\Desktop\SG_Start_Frm_CNN\CODE\build\x64\Release\train_SG_start_frm_CNN.ipdb
T:\Desktop\SG_Start_Frm_CNN\CODE\build\x64\Release\train_SG_start_frm_CNN.iobj
^T:\Desktop\SG_Start_Frm_CNN\CODE\train_SG_start_frm_CNN\train_SG_start_frm_CNN.vcxproj
T:\Desktop\SG_Start_Frm_CNN\CODE\build\x64\Release\train_SG_start_frm_CNN.ipdb
T:\Desktop\SG_Start_Frm_CNN\CODE\build\x64\Release\train_SG_start_frm_CNN.iobj
^T:\Desktop\SG_Start_Frm_CNN\CODE\train_SG_start_frm_CNN\train_SG_start_frm_CNN.vcxproj
T:\Desktop\SG_Start_Frm_CNN\CODE\build\x64\Release\train_SG_start_frm_CNN.ipdb
T:\Desktop\SG_Start_Frm_CNN\CODE\build\x64\Release\train_SG_start_frm_CNN.iobj
^T:\Desktop\SG_Start_Frm_CNN\CODE\train_SG_start_frm_CNN\train_SG_start_frm_CNN.vcxproj
T:\Desktop\SG_Start_Frm_CNN\CODE\build\x64\Release\train_SG_start_frm_CNN.ipdb
T:\Desktop\SG_Start_Frm_CNN\CODE\build\x64\Release\train_SG_start_frm_CNN.iobj
^T:\Desktop\SG_Start_Frm_CNN\CODE\train_SG_start_frm_CNN\train_SG_start_frm_CNN.vcxproj
T:\Desktop\SG_Start_Frm_CNN\CODE\build\x64\Release\train_SG_start_frm_CNN.ipdb
T:\Desktop\SG_Start_Frm_CNN\CODE\build\x64\Release\train_SG_start_frm_CNN.iobj
^T:\Desktop\SG_Start_Frm_CNN\CODE\train_SG_start_frm_CNN\train_SG_start_frm_CNN.vcxproj
T:\Desktop\SG_Start_Frm_CNN\CODE\build\x64\Release\train_SG_start_frm_CNN.ipdb
T:\Desktop\SG_Start_Frm_CNN\CODE\build\x64\Release\train_SG_start_frm_CNN.iobj
^T:\Desktop\SG_Start_Frm_CNN\CODE\train_SG_start_frm_CNN\train_SG_start_frm_CNN.vcxproj
T:\Desktop\SG_Start_Frm_CNN\CODE\build\x64\Release\train_SG_start_frm_CNN.ipdb
T:\Desktop\SG_Start_Frm_CNN\CODE\build\x64\Release\train_SG_start_frm_CNN.iobj
^T:\Desktop\SG_Start_Frm_CNN\CODE\train_SG_start_frm_CNN\train_SG_start_frm_CNN.vcxproj
T:\Desktop\SG_Start_Frm_CNN\CODE\build\x64\Release\train_SG_start_frm_CNN.ipdb
T:\Desktop\SG_Start_Frm_CNN\CODE\build\x64\Release\train_SG_start_frm_CNN.iobj
^T:\Desktop\SG_Start_Frm_CNN\CODE\train_SG_start_frm_CNN\train_SG_start_frm_CNN.vcxproj
T:\Desktop\SG_Start_Frm_CNN\CODE\build\x64\Release\train_SG_start_frm_CNN.ipdb
T:\Desktop\SG_Start_Frm_CNN\CODE\build\x64\Release\train_SG_start_frm_CNN.iobj
^T:\Desktop\SG_Start_Frm_CNN\CODE\train_SG_start_frm_CNN\train_SG_start_frm_CNN.vcxproj
T:\Desktop\SG_Start_Frm_CNN\CODE\build\x64\Release\train_SG_start_frm_CNN.ipdb
T:\Desktop\SG_Start_Frm_CNN\CODE\build\x64\Release\train_SG_start_frm_CNN.iobj
^T:\Desktop\SG_Start_Frm_CNN\CODE\train_SG_start_frm_CNN\train_SG_start_frm_CNN.vcxproj
T:\Desktop\SG_Start_Frm_CNN\CODE\build\x64\Release\train_SG_start_frm_CNN.ipdb
T:\Desktop\SG_Start_Frm_CNN\CODE\build\x64\Release\train_SG_start_frm_CNN.iobj
^T:\Desktop\SG_Start_Frm_CNN\CODE\train_SG_start_frm_CNN\train_SG_start_frm_CNN.vcxproj
T:\Desktop\SG_Start_Frm_CNN\CODE\build\x64\Release\train_SG_start_frm_CNN.ipdb
T:\Desktop\SG_Start_Frm_CNN\CODE\build\x64\Release\train_SG_start_frm_CNN.iobj
^T:\Desktop\SG_Start_Frm_CNN\CODE\train_SG_start_frm_CNN\train_SG_start_frm_CNN.vcxproj
T:\Desktop\SG_Start_Frm_CNN\CODE\build\x64\Release\train_SG_start_frm_CNN.ipdb
T:\Desktop\SG_Start_Frm_CNN\CODE\build\x64\Release\train_SG_start_frm_CNN.iobj
^T:\Desktop\SG_Start_Frm_CNN\CODE\train_SG_start_frm_CNN\train_SG_start_frm_CNN.vcxproj
T:\Desktop\SG_Start_Frm_CNN\CODE\build\x64\Release\train_SG_start_frm_CNN.ipdb
T:\Desktop\SG_Start_Frm_CNN\CODE\build\x64\Release\train_SG_start_frm_CNN.iobj
