^T:\DESKTOP\SG_START_FRM_CNN\CODE\OPTICALFLOWTEST\MAIN.CPP
C:\PROGRAM FILES (X86)\MICROSOFT VISUAL STUDIO\2019\PROFESSIONAL\VC\TOOLS\MSVC\14.20.27508\BIN\HOSTX86\X64\1033\CLUI.DLL
C:\WINDOWS\GLOBALIZATION\SORTING\SORTDEFAULT.NLS
C:\WINDOWS\SYSTEM32\TZRES.DLL
C:\PROGRAM FILES (X86)\MICROSOFT VISUAL STUDIO\2019\PROFESSIONAL\VC\TOOLS\MSVC\14.20.27508\INCLUDE\IOSTREAM
C:\PROGRAM FILES (X86)\MICROSOFT VISUAL STUDIO\2019\PROFESSIONAL\VC\TOOLS\MSVC\14.20.27508\INCLUDE\ISTREAM
C:\PROGRAM FILES (X86)\MICROSOFT VISUAL STUDIO\2019\PROFESSIONAL\VC\TOOLS\MSVC\14.20.27508\INCLUDE\OSTREAM
C:\PROGRAM FILES (X86)\MICROSOFT VISUAL STUDIO\2019\PROFESSIONAL\VC\TOOLS\MSVC\14.20.27508\INCLUDE\IOS
C:\PROGRAM FILES (X86)\MICROSOFT VISUAL STUDIO\2019\PROFESSIONAL\VC\TOOLS\MSVC\14.20.27508\INCLUDE\XLOCNUM
C:\PROGRAM FILES (X86)\MICROSOFT VISUAL STUDIO\2019\PROFESSIONAL\VC\TOOLS\MSVC\14.20.27508\INCLUDE\CLIMITS
C:\PROGRAM FILES (X86)\MICROSOFT VISUAL STUDIO\2019\PROFESSIONAL\VC\TOOLS\MSVC\14.20.27508\INCLUDE\YVALS_CORE.H
C:\PROGRAM FILES (X86)\MICROSOFT VISUAL STUDIO\2019\PROFESSIONAL\VC\TOOLS\MSVC\14.20.27508\INCLUDE\CRTDEFS.H
C:\PROGRAM FILES (X86)\MICROSOFT VISUAL STUDIO\2019\PROFESSIONAL\VC\TOOLS\MSVC\14.20.27508\INCLUDE\VCRUNTIME.H
C:\PROGRAM FILES (X86)\MICROSOFT VISUAL STUDIO\2019\PROFESSIONAL\VC\TOOLS\MSVC\14.20.27508\INCLUDE\SAL.H
C:\PROGRAM FILES (X86)\MICROSOFT VISUAL STUDIO\2019\PROFESSIONAL\VC\TOOLS\MSVC\14.20.27508\INCLUDE\CONCURRENCYSAL.H
C:\PROGRAM FILES (X86)\MICROSOFT VISUAL STUDIO\2019\PROFESSIONAL\VC\TOOLS\MSVC\14.20.27508\INCLUDE\VADEFS.H
C:\PROGRAM FILES (X86)\WINDOWS KITS\10\INCLUDE\10.0.17763.0\UCRT\CORECRT.H
C:\PROGRAM FILES (X86)\MICROSOFT VISUAL STUDIO\2019\PROFESSIONAL\VC\TOOLS\MSVC\14.20.27508\INCLUDE\XKEYCHECK.H
C:\PROGRAM FILES (X86)\MICROSOFT VISUAL STUDIO\2019\PROFESSIONAL\VC\TOOLS\MSVC\14.20.27508\INCLUDE\LIMITS.H
C:\PROGRAM FILES (X86)\MICROSOFT VISUAL STUDIO\2019\PROFESSIONAL\VC\TOOLS\MSVC\14.20.27508\INCLUDE\CMATH
C:\PROGRAM FILES (X86)\MICROSOFT VISUAL STUDIO\2019\PROFESSIONAL\VC\TOOLS\MSVC\14.20.27508\INCLUDE\YVALS.H
C:\PROGRAM FILES (X86)\WINDOWS KITS\10\INCLUDE\10.0.17763.0\UCRT\CRTDBG.H
C:\PROGRAM FILES (X86)\MICROSOFT VISUAL STUDIO\2019\PROFESSIONAL\VC\TOOLS\MSVC\14.20.27508\INCLUDE\VCRUNTIME_NEW_DEBUG.H
C:\PROGRAM FILES (X86)\MICROSOFT VISUAL STUDIO\2019\PROFESSIONAL\VC\TOOLS\MSVC\14.20.27508\INCLUDE\VCRUNTIME_NEW.H
C:\PROGRAM FILES (X86)\MICROSOFT VISUAL STUDIO\2019\PROFESSIONAL\VC\TOOLS\MSVC\14.20.27508\INCLUDE\USE_ANSI.H
C:\PROGRAM FILES (X86)\MICROSOFT VISUAL STUDIO\2019\PROFESSIONAL\VC\TOOLS\MSVC\14.20.27508\INCLUDE\CSTDLIB
C:\PROGRAM FILES (X86)\WINDOWS KITS\10\INCLUDE\10.0.17763.0\UCRT\MATH.H
C:\PROGRAM FILES (X86)\WINDOWS KITS\10\INCLUDE\10.0.17763.0\UCRT\CORECRT_MATH.H
C:\PROGRAM FILES (X86)\WINDOWS KITS\10\INCLUDE\10.0.17763.0\UCRT\STDLIB.H
C:\PROGRAM FILES (X86)\WINDOWS KITS\10\INCLUDE\10.0.17763.0\UCRT\CORECRT_MALLOC.H
C:\PROGRAM FILES (X86)\WINDOWS KITS\10\INCLUDE\10.0.17763.0\UCRT\CORECRT_SEARCH.H
C:\PROGRAM FILES (X86)\WINDOWS KITS\10\INCLUDE\10.0.17763.0\UCRT\STDDEF.H
C:\PROGRAM FILES (X86)\WINDOWS KITS\10\INCLUDE\10.0.17763.0\UCRT\CORECRT_WSTDLIB.H
C:\PROGRAM FILES (X86)\MICROSOFT VISUAL STUDIO\2019\PROFESSIONAL\VC\TOOLS\MSVC\14.20.27508\INCLUDE\XTGMATH.H
C:\PROGRAM FILES (X86)\MICROSOFT VISUAL STUDIO\2019\PROFESSIONAL\VC\TOOLS\MSVC\14.20.27508\INCLUDE\XTR1COMMON
C:\PROGRAM FILES (X86)\MICROSOFT VISUAL STUDIO\2019\PROFESSIONAL\VC\TOOLS\MSVC\14.20.27508\INCLUDE\CSTDIO
C:\PROGRAM FILES (X86)\WINDOWS KITS\10\INCLUDE\10.0.17763.0\UCRT\STDIO.H
C:\PROGRAM FILES (X86)\WINDOWS KITS\10\INCLUDE\10.0.17763.0\UCRT\CORECRT_WSTDIO.H
C:\PROGRAM FILES (X86)\WINDOWS KITS\10\INCLUDE\10.0.17763.0\UCRT\CORECRT_STDIO_CONFIG.H
C:\PROGRAM FILES (X86)\MICROSOFT VISUAL STUDIO\2019\PROFESSIONAL\VC\TOOLS\MSVC\14.20.27508\INCLUDE\STREAMBUF
C:\PROGRAM FILES (X86)\MICROSOFT VISUAL STUDIO\2019\PROFESSIONAL\VC\TOOLS\MSVC\14.20.27508\INCLUDE\XIOSBASE
C:\PROGRAM FILES (X86)\WINDOWS KITS\10\INCLUDE\10.0.17763.0\UCRT\SHARE.H
C:\PROGRAM FILES (X86)\WINDOWS KITS\10\INCLUDE\10.0.17763.0\UCRT\CORECRT_SHARE.H
C:\PROGRAM FILES (X86)\MICROSOFT VISUAL STUDIO\2019\PROFESSIONAL\VC\TOOLS\MSVC\14.20.27508\INCLUDE\SYSTEM_ERROR
C:\PROGRAM FILES (X86)\MICROSOFT VISUAL STUDIO\2019\PROFESSIONAL\VC\TOOLS\MSVC\14.20.27508\INCLUDE\CERRNO
C:\PROGRAM FILES (X86)\WINDOWS KITS\10\INCLUDE\10.0.17763.0\UCRT\ERRNO.H
C:\PROGRAM FILES (X86)\MICROSOFT VISUAL STUDIO\2019\PROFESSIONAL\VC\TOOLS\MSVC\14.20.27508\INCLUDE\STDEXCEPT
C:\PROGRAM FILES (X86)\MICROSOFT VISUAL STUDIO\2019\PROFESSIONAL\VC\TOOLS\MSVC\14.20.27508\INCLUDE\EXCEPTION
C:\PROGRAM FILES (X86)\MICROSOFT VISUAL STUDIO\2019\PROFESSIONAL\VC\TOOLS\MSVC\14.20.27508\INCLUDE\TYPE_TRAITS
C:\PROGRAM FILES (X86)\MICROSOFT VISUAL STUDIO\2019\PROFESSIONAL\VC\TOOLS\MSVC\14.20.27508\INCLUDE\XSTDDEF
C:\PROGRAM FILES (X86)\MICROSOFT VISUAL STUDIO\2019\PROFESSIONAL\VC\TOOLS\MSVC\14.20.27508\INCLUDE\CSTDDEF
C:\PROGRAM FILES (X86)\MICROSOFT VISUAL STUDIO\2019\PROFESSIONAL\VC\TOOLS\MSVC\14.20.27508\INCLUDE\INITIALIZER_LIST
C:\PROGRAM FILES (X86)\WINDOWS KITS\10\INCLUDE\10.0.17763.0\UCRT\MALLOC.H
C:\PROGRAM FILES (X86)\MICROSOFT VISUAL STUDIO\2019\PROFESSIONAL\VC\TOOLS\MSVC\14.20.27508\INCLUDE\VCRUNTIME_EXCEPTION.H
C:\PROGRAM FILES (X86)\MICROSOFT VISUAL STUDIO\2019\PROFESSIONAL\VC\TOOLS\MSVC\14.20.27508\INCLUDE\EH.H
C:\PROGRAM FILES (X86)\WINDOWS KITS\10\INCLUDE\10.0.17763.0\UCRT\CORECRT_TERMINATE.H
C:\PROGRAM FILES (X86)\MICROSOFT VISUAL STUDIO\2019\PROFESSIONAL\VC\TOOLS\MSVC\14.20.27508\INCLUDE\XSTRING
C:\PROGRAM FILES (X86)\MICROSOFT VISUAL STUDIO\2019\PROFESSIONAL\VC\TOOLS\MSVC\14.20.27508\INCLUDE\IOSFWD
C:\PROGRAM FILES (X86)\MICROSOFT VISUAL STUDIO\2019\PROFESSIONAL\VC\TOOLS\MSVC\14.20.27508\INCLUDE\CSTRING
C:\PROGRAM FILES (X86)\WINDOWS KITS\10\INCLUDE\10.0.17763.0\UCRT\STRING.H
C:\PROGRAM FILES (X86)\WINDOWS KITS\10\INCLUDE\10.0.17763.0\UCRT\CORECRT_MEMORY.H
C:\PROGRAM FILES (X86)\WINDOWS KITS\10\INCLUDE\10.0.17763.0\UCRT\CORECRT_MEMCPY_S.H
C:\PROGRAM FILES (X86)\MICROSOFT VISUAL STUDIO\2019\PROFESSIONAL\VC\TOOLS\MSVC\14.20.27508\INCLUDE\VCRUNTIME_STRING.H
C:\PROGRAM FILES (X86)\WINDOWS KITS\10\INCLUDE\10.0.17763.0\UCRT\CORECRT_WSTRING.H
C:\PROGRAM FILES (X86)\MICROSOFT VISUAL STUDIO\2019\PROFESSIONAL\VC\TOOLS\MSVC\14.20.27508\INCLUDE\CWCHAR
C:\PROGRAM FILES (X86)\WINDOWS KITS\10\INCLUDE\10.0.17763.0\UCRT\WCHAR.H
C:\PROGRAM FILES (X86)\WINDOWS KITS\10\INCLUDE\10.0.17763.0\UCRT\CORECRT_WCONIO.H
C:\PROGRAM FILES (X86)\WINDOWS KITS\10\INCLUDE\10.0.17763.0\UCRT\CORECRT_WCTYPE.H
C:\PROGRAM FILES (X86)\WINDOWS KITS\10\INCLUDE\10.0.17763.0\UCRT\CORECRT_WDIRECT.H
C:\PROGRAM FILES (X86)\WINDOWS KITS\10\INCLUDE\10.0.17763.0\UCRT\CORECRT_WIO.H
C:\PROGRAM FILES (X86)\WINDOWS KITS\10\INCLUDE\10.0.17763.0\UCRT\CORECRT_WPROCESS.H
C:\PROGRAM FILES (X86)\WINDOWS KITS\10\INCLUDE\10.0.17763.0\UCRT\CORECRT_WTIME.H
C:\PROGRAM FILES (X86)\WINDOWS KITS\10\INCLUDE\10.0.17763.0\UCRT\SYS\STAT.H
C:\PROGRAM FILES (X86)\WINDOWS KITS\10\INCLUDE\10.0.17763.0\UCRT\SYS\TYPES.H
C:\PROGRAM FILES (X86)\MICROSOFT VISUAL STUDIO\2019\PROFESSIONAL\VC\TOOLS\MSVC\14.20.27508\INCLUDE\XMEMORY0
C:\PROGRAM FILES (X86)\MICROSOFT VISUAL STUDIO\2019\PROFESSIONAL\VC\TOOLS\MSVC\14.20.27508\INCLUDE\CSTDINT
C:\PROGRAM FILES (X86)\MICROSOFT VISUAL STUDIO\2019\PROFESSIONAL\VC\TOOLS\MSVC\14.20.27508\INCLUDE\STDINT.H
C:\PROGRAM FILES (X86)\MICROSOFT VISUAL STUDIO\2019\PROFESSIONAL\VC\TOOLS\MSVC\14.20.27508\INCLUDE\LIMITS
C:\PROGRAM FILES (X86)\MICROSOFT VISUAL STUDIO\2019\PROFESSIONAL\VC\TOOLS\MSVC\14.20.27508\INCLUDE\CFLOAT
C:\PROGRAM FILES (X86)\WINDOWS KITS\10\INCLUDE\10.0.17763.0\UCRT\FLOAT.H
C:\PROGRAM FILES (X86)\MICROSOFT VISUAL STUDIO\2019\PROFESSIONAL\VC\TOOLS\MSVC\14.20.27508\INCLUDE\NEW
C:\PROGRAM FILES (X86)\MICROSOFT VISUAL STUDIO\2019\PROFESSIONAL\VC\TOOLS\MSVC\14.20.27508\INCLUDE\XUTILITY
C:\PROGRAM FILES (X86)\MICROSOFT VISUAL STUDIO\2019\PROFESSIONAL\VC\TOOLS\MSVC\14.20.27508\INCLUDE\UTILITY
C:\PROGRAM FILES (X86)\MICROSOFT VISUAL STUDIO\2019\PROFESSIONAL\VC\TOOLS\MSVC\14.20.27508\INCLUDE\XATOMIC0.H
C:\PROGRAM FILES (X86)\MICROSOFT VISUAL STUDIO\2019\PROFESSIONAL\VC\TOOLS\MSVC\14.20.27508\INCLUDE\INTRIN0.H
C:\PROGRAM FILES (X86)\MICROSOFT VISUAL STUDIO\2019\PROFESSIONAL\VC\TOOLS\MSVC\14.20.27508\INCLUDE\XCALL_ONCE.H
C:\PROGRAM FILES (X86)\MICROSOFT VISUAL STUDIO\2019\PROFESSIONAL\VC\TOOLS\MSVC\14.20.27508\INCLUDE\XERRC.H
C:\PROGRAM FILES (X86)\MICROSOFT VISUAL STUDIO\2019\PROFESSIONAL\VC\TOOLS\MSVC\14.20.27508\INCLUDE\XLOCALE
C:\PROGRAM FILES (X86)\MICROSOFT VISUAL STUDIO\2019\PROFESSIONAL\VC\TOOLS\MSVC\14.20.27508\INCLUDE\MEMORY
C:\PROGRAM FILES (X86)\MICROSOFT VISUAL STUDIO\2019\PROFESSIONAL\VC\TOOLS\MSVC\14.20.27508\INCLUDE\TYPEINFO
C:\PROGRAM FILES (X86)\MICROSOFT VISUAL STUDIO\2019\PROFESSIONAL\VC\TOOLS\MSVC\14.20.27508\INCLUDE\VCRUNTIME_TYPEINFO.H
C:\PROGRAM FILES (X86)\MICROSOFT VISUAL STUDIO\2019\PROFESSIONAL\VC\TOOLS\MSVC\14.20.27508\INCLUDE\XMEMORY
C:\PROGRAM FILES (X86)\MICROSOFT VISUAL STUDIO\2019\PROFESSIONAL\VC\TOOLS\MSVC\14.20.27508\INCLUDE\XFACET
C:\PROGRAM FILES (X86)\MICROSOFT VISUAL STUDIO\2019\PROFESSIONAL\VC\TOOLS\MSVC\14.20.27508\INCLUDE\XLOCINFO
C:\PROGRAM FILES (X86)\MICROSOFT VISUAL STUDIO\2019\PROFESSIONAL\VC\TOOLS\MSVC\14.20.27508\INCLUDE\XLOCINFO.H
C:\PROGRAM FILES (X86)\WINDOWS KITS\10\INCLUDE\10.0.17763.0\UCRT\CTYPE.H
C:\PROGRAM FILES (X86)\WINDOWS KITS\10\INCLUDE\10.0.17763.0\UCRT\LOCALE.H
T:\BITBUCKET\HORSERACING\VIDEOPROCESSOR\SPARSEOPTICALFLOW\SPARSEOPTICALFLOW.H
T:\TOOLKITS\OPENCV-3.4.6\INCLUDE\OPENCV2\OPENCV.HPP
T:\TOOLKITS\OPENCV-3.4.6\INCLUDE\OPENCV2\OPENCV_MODULES.HPP
T:\TOOLKITS\OPENCV-3.4.6\INCLUDE\OPENCV2\CORE.HPP
T:\TOOLKITS\OPENCV-3.4.6\INCLUDE\OPENCV2\CORE\CVDEF.H
T:\TOOLKITS\OPENCV-3.4.6\INCLUDE\OPENCV2\CORE\HAL\INTERFACE.H
T:\TOOLKITS\OPENCV-3.4.6\INCLUDE\OPENCV2\CORE\CV_CPU_DISPATCH.H
C:\PROGRAM FILES (X86)\MICROSOFT VISUAL STUDIO\2019\PROFESSIONAL\VC\TOOLS\MSVC\14.20.27508\INCLUDE\EMMINTRIN.H
C:\PROGRAM FILES (X86)\MICROSOFT VISUAL STUDIO\2019\PROFESSIONAL\VC\TOOLS\MSVC\14.20.27508\INCLUDE\XMMINTRIN.H
C:\PROGRAM FILES (X86)\MICROSOFT VISUAL STUDIO\2019\PROFESSIONAL\VC\TOOLS\MSVC\14.20.27508\INCLUDE\MMINTRIN.H
C:\PROGRAM FILES (X86)\MICROSOFT VISUAL STUDIO\2019\PROFESSIONAL\VC\TOOLS\MSVC\14.20.27508\INCLUDE\INTRIN.H
C:\PROGRAM FILES (X86)\MICROSOFT VISUAL STUDIO\2019\PROFESSIONAL\VC\TOOLS\MSVC\14.20.27508\INCLUDE\SETJMP.H
C:\PROGRAM FILES (X86)\MICROSOFT VISUAL STUDIO\2019\PROFESSIONAL\VC\TOOLS\MSVC\14.20.27508\INCLUDE\IMMINTRIN.H
C:\PROGRAM FILES (X86)\MICROSOFT VISUAL STUDIO\2019\PROFESSIONAL\VC\TOOLS\MSVC\14.20.27508\INCLUDE\WMMINTRIN.H
C:\PROGRAM FILES (X86)\MICROSOFT VISUAL STUDIO\2019\PROFESSIONAL\VC\TOOLS\MSVC\14.20.27508\INCLUDE\NMMINTRIN.H
C:\PROGRAM FILES (X86)\MICROSOFT VISUAL STUDIO\2019\PROFESSIONAL\VC\TOOLS\MSVC\14.20.27508\INCLUDE\SMMINTRIN.H
C:\PROGRAM FILES (X86)\MICROSOFT VISUAL STUDIO\2019\PROFESSIONAL\VC\TOOLS\MSVC\14.20.27508\INCLUDE\TMMINTRIN.H
C:\PROGRAM FILES (X86)\MICROSOFT VISUAL STUDIO\2019\PROFESSIONAL\VC\TOOLS\MSVC\14.20.27508\INCLUDE\PMMINTRIN.H
C:\PROGRAM FILES (X86)\MICROSOFT VISUAL STUDIO\2019\PROFESSIONAL\VC\TOOLS\MSVC\14.20.27508\INCLUDE\ZMMINTRIN.H
C:\PROGRAM FILES (X86)\MICROSOFT VISUAL STUDIO\2019\PROFESSIONAL\VC\TOOLS\MSVC\14.20.27508\INCLUDE\AMMINTRIN.H
C:\PROGRAM FILES (X86)\MICROSOFT VISUAL STUDIO\2019\PROFESSIONAL\VC\TOOLS\MSVC\14.20.27508\INCLUDE\ARRAY
C:\PROGRAM FILES (X86)\MICROSOFT VISUAL STUDIO\2019\PROFESSIONAL\VC\TOOLS\MSVC\14.20.27508\INCLUDE\ALGORITHM
C:\PROGRAM FILES (X86)\MICROSOFT VISUAL STUDIO\2019\PROFESSIONAL\VC\TOOLS\MSVC\14.20.27508\INCLUDE\ITERATOR
C:\PROGRAM FILES (X86)\MICROSOFT VISUAL STUDIO\2019\PROFESSIONAL\VC\TOOLS\MSVC\14.20.27508\INCLUDE\TUPLE
T:\TOOLKITS\OPENCV-3.4.6\INCLUDE\OPENCV2\CORE\VERSION.HPP
T:\TOOLKITS\OPENCV-3.4.6\INCLUDE\OPENCV2\CORE\BASE.HPP
T:\TOOLKITS\OPENCV-3.4.6\INCLUDE\OPENCV2\CORE\CVSTD.HPP
C:\PROGRAM FILES (X86)\MICROSOFT VISUAL STUDIO\2019\PROFESSIONAL\VC\TOOLS\MSVC\14.20.27508\INCLUDE\CCTYPE
C:\PROGRAM FILES (X86)\MICROSOFT VISUAL STUDIO\2019\PROFESSIONAL\VC\TOOLS\MSVC\14.20.27508\INCLUDE\STRING
T:\TOOLKITS\OPENCV-3.4.6\INCLUDE\OPENCV2\CORE\PTR.INL.HPP
T:\TOOLKITS\OPENCV-3.4.6\INCLUDE\OPENCV2\CORE\NEON_UTILS.HPP
T:\TOOLKITS\OPENCV-3.4.6\INCLUDE\OPENCV2\CORE\VSX_UTILS.HPP
C:\PROGRAM FILES (X86)\WINDOWS KITS\10\INCLUDE\10.0.17763.0\UCRT\ASSERT.H
T:\TOOLKITS\OPENCV-3.4.6\INCLUDE\OPENCV2\CORE\CHECK.HPP
T:\TOOLKITS\OPENCV-3.4.6\INCLUDE\OPENCV2\CORE\TRAITS.HPP
T:\TOOLKITS\OPENCV-3.4.6\INCLUDE\OPENCV2\CORE\MATX.HPP
T:\TOOLKITS\OPENCV-3.4.6\INCLUDE\OPENCV2\CORE\SATURATE.HPP
T:\TOOLKITS\OPENCV-3.4.6\INCLUDE\OPENCV2\CORE\FAST_MATH.HPP
T:\TOOLKITS\OPENCV-3.4.6\INCLUDE\OPENCV2\CORE\TYPES.HPP
C:\PROGRAM FILES (X86)\MICROSOFT VISUAL STUDIO\2019\PROFESSIONAL\VC\TOOLS\MSVC\14.20.27508\INCLUDE\VECTOR
T:\TOOLKITS\OPENCV-3.4.6\INCLUDE\OPENCV2\CORE\MAT.HPP
T:\TOOLKITS\OPENCV-3.4.6\INCLUDE\OPENCV2\CORE\BUFFERPOOL.HPP
T:\TOOLKITS\OPENCV-3.4.6\INCLUDE\OPENCV2\CORE\MAT.INL.HPP
T:\TOOLKITS\OPENCV-3.4.6\INCLUDE\OPENCV2\CORE\PERSISTENCE.HPP
T:\TOOLKITS\OPENCV-3.4.6\INCLUDE\OPENCV2\CORE\OPERATIONS.HPP
T:\TOOLKITS\OPENCV-3.4.6\INCLUDE\OPENCV2\CORE\CVSTD.INL.HPP
C:\PROGRAM FILES (X86)\MICROSOFT VISUAL STUDIO\2019\PROFESSIONAL\VC\TOOLS\MSVC\14.20.27508\INCLUDE\COMPLEX
C:\PROGRAM FILES (X86)\MICROSOFT VISUAL STUDIO\2019\PROFESSIONAL\VC\TOOLS\MSVC\14.20.27508\INCLUDE\SSTREAM
C:\PROGRAM FILES (X86)\MICROSOFT VISUAL STUDIO\2019\PROFESSIONAL\VC\TOOLS\MSVC\14.20.27508\INCLUDE\YMATH.H
T:\TOOLKITS\OPENCV-3.4.6\INCLUDE\OPENCV2\CORE\UTILITY.HPP
C:\PROGRAM FILES (X86)\MICROSOFT VISUAL STUDIO\2019\PROFESSIONAL\VC\TOOLS\MSVC\14.20.27508\INCLUDE\FUNCTIONAL
T:\TOOLKITS\OPENCV-3.4.6\INCLUDE\OPENCV2\CORE\CORE_C.H
T:\TOOLKITS\OPENCV-3.4.6\INCLUDE\OPENCV2\CORE\TYPES_C.H
T:\TOOLKITS\OPENCV-3.4.6\INCLUDE\OPENCV2\CORE\OPTIM.HPP
T:\TOOLKITS\OPENCV-3.4.6\INCLUDE\OPENCV2\CORE\OVX.HPP
T:\TOOLKITS\OPENCV-3.4.6\INCLUDE\OPENCV2\CALIB3D.HPP
T:\TOOLKITS\OPENCV-3.4.6\INCLUDE\OPENCV2\FEATURES2D.HPP
T:\TOOLKITS\OPENCV-3.4.6\INCLUDE\OPENCV2\FLANN\MINIFLANN.HPP
T:\TOOLKITS\OPENCV-3.4.6\INCLUDE\OPENCV2\FLANN\DEFINES.H
T:\TOOLKITS\OPENCV-3.4.6\INCLUDE\OPENCV2\FLANN\CONFIG.H
T:\TOOLKITS\OPENCV-3.4.6\INCLUDE\OPENCV2\CORE\AFFINE.HPP
T:\TOOLKITS\OPENCV-3.4.6\INCLUDE\OPENCV2\CALIB3D\CALIB3D_C.H
T:\TOOLKITS\OPENCV-3.4.6\INCLUDE\OPENCV2\DNN.HPP
T:\TOOLKITS\OPENCV-3.4.6\INCLUDE\OPENCV2\DNN\DNN.HPP
T:\TOOLKITS\OPENCV-3.4.6\INCLUDE\OPENCV2\DNN\DICT.HPP
C:\PROGRAM FILES (X86)\MICROSOFT VISUAL STUDIO\2019\PROFESSIONAL\VC\TOOLS\MSVC\14.20.27508\INCLUDE\MAP
C:\PROGRAM FILES (X86)\MICROSOFT VISUAL STUDIO\2019\PROFESSIONAL\VC\TOOLS\MSVC\14.20.27508\INCLUDE\XTREE
T:\TOOLKITS\OPENCV-3.4.6\INCLUDE\OPENCV2\DNN\LAYER.HPP
T:\TOOLKITS\OPENCV-3.4.6\INCLUDE\OPENCV2\DNN\DNN.INL.HPP
T:\TOOLKITS\OPENCV-3.4.6\INCLUDE\OPENCV2\DNN\UTILS\INFERENCE_ENGINE.HPP
T:\TOOLKITS\OPENCV-3.4.6\INCLUDE\OPENCV2\FLANN.HPP
T:\TOOLKITS\OPENCV-3.4.6\INCLUDE\OPENCV2\FLANN\FLANN_BASE.HPP
C:\PROGRAM FILES (X86)\MICROSOFT VISUAL STUDIO\2019\PROFESSIONAL\VC\TOOLS\MSVC\14.20.27508\INCLUDE\CASSERT
T:\TOOLKITS\OPENCV-3.4.6\INCLUDE\OPENCV2\FLANN\GENERAL.H
T:\TOOLKITS\OPENCV-3.4.6\INCLUDE\OPENCV2\FLANN\MATRIX.H
T:\TOOLKITS\OPENCV-3.4.6\INCLUDE\OPENCV2\FLANN\PARAMS.H
T:\TOOLKITS\OPENCV-3.4.6\INCLUDE\OPENCV2\FLANN\ANY.H
T:\TOOLKITS\OPENCV-3.4.6\INCLUDE\OPENCV2\FLANN\SAVING.H
T:\TOOLKITS\OPENCV-3.4.6\INCLUDE\OPENCV2\FLANN\NN_INDEX.H
T:\TOOLKITS\OPENCV-3.4.6\INCLUDE\OPENCV2\FLANN\RESULT_SET.H
C:\PROGRAM FILES (X86)\MICROSOFT VISUAL STUDIO\2019\PROFESSIONAL\VC\TOOLS\MSVC\14.20.27508\INCLUDE\SET
T:\TOOLKITS\OPENCV-3.4.6\INCLUDE\OPENCV2\FLANN\ALL_INDICES.H
T:\TOOLKITS\OPENCV-3.4.6\INCLUDE\OPENCV2\FLANN\KDTREE_INDEX.H
T:\TOOLKITS\OPENCV-3.4.6\INCLUDE\OPENCV2\FLANN\DYNAMIC_BITSET.H
T:\TOOLKITS\OPENCV-3.4.6\INCLUDE\OPENCV2\FLANN\DIST.H
T:\TOOLKITS\OPENCV-3.4.6\INCLUDE\OPENCV2\FLANN\HEAP.H
T:\TOOLKITS\OPENCV-3.4.6\INCLUDE\OPENCV2\FLANN\ALLOCATOR.H
T:\TOOLKITS\OPENCV-3.4.6\INCLUDE\OPENCV2\FLANN\RANDOM.H
T:\TOOLKITS\OPENCV-3.4.6\INCLUDE\OPENCV2\FLANN\KDTREE_SINGLE_INDEX.H
T:\TOOLKITS\OPENCV-3.4.6\INCLUDE\OPENCV2\FLANN\KMEANS_INDEX.H
T:\TOOLKITS\OPENCV-3.4.6\INCLUDE\OPENCV2\FLANN\LOGGER.H
C:\PROGRAM FILES (X86)\MICROSOFT VISUAL STUDIO\2019\PROFESSIONAL\VC\TOOLS\MSVC\14.20.27508\INCLUDE\STDARG.H
T:\TOOLKITS\OPENCV-3.4.6\INCLUDE\OPENCV2\FLANN\COMPOSITE_INDEX.H
T:\TOOLKITS\OPENCV-3.4.6\INCLUDE\OPENCV2\FLANN\LINEAR_INDEX.H
T:\TOOLKITS\OPENCV-3.4.6\INCLUDE\OPENCV2\FLANN\HIERARCHICAL_CLUSTERING_INDEX.H
T:\TOOLKITS\OPENCV-3.4.6\INCLUDE\OPENCV2\FLANN\LSH_INDEX.H
T:\TOOLKITS\OPENCV-3.4.6\INCLUDE\OPENCV2\FLANN\LSH_TABLE.H
C:\PROGRAM FILES (X86)\MICROSOFT VISUAL STUDIO\2019\PROFESSIONAL\VC\TOOLS\MSVC\14.20.27508\INCLUDE\IOMANIP
C:\PROGRAM FILES (X86)\MICROSOFT VISUAL STUDIO\2019\PROFESSIONAL\VC\TOOLS\MSVC\14.20.27508\INCLUDE\XLOCMON
C:\PROGRAM FILES (X86)\MICROSOFT VISUAL STUDIO\2019\PROFESSIONAL\VC\TOOLS\MSVC\14.20.27508\INCLUDE\XLOCTIME
C:\PROGRAM FILES (X86)\MICROSOFT VISUAL STUDIO\2019\PROFESSIONAL\VC\TOOLS\MSVC\14.20.27508\INCLUDE\CTIME
C:\PROGRAM FILES (X86)\WINDOWS KITS\10\INCLUDE\10.0.17763.0\UCRT\TIME.H
T:\TOOLKITS\OPENCV-3.4.6\INCLUDE\OPENCV2\FLANN\AUTOTUNED_INDEX.H
T:\TOOLKITS\OPENCV-3.4.6\INCLUDE\OPENCV2\FLANN\GROUND_TRUTH.H
T:\TOOLKITS\OPENCV-3.4.6\INCLUDE\OPENCV2\FLANN\INDEX_TESTING.H
T:\TOOLKITS\OPENCV-3.4.6\INCLUDE\OPENCV2\FLANN\TIMER.H
T:\TOOLKITS\OPENCV-3.4.6\INCLUDE\OPENCV2\FLANN\SAMPLING.H
T:\TOOLKITS\OPENCV-3.4.6\INCLUDE\OPENCV2\HIGHGUI.HPP
T:\TOOLKITS\OPENCV-3.4.6\INCLUDE\OPENCV2\IMGCODECS.HPP
T:\TOOLKITS\OPENCV-3.4.6\INCLUDE\OPENCV2\VIDEOIO.HPP
T:\TOOLKITS\OPENCV-3.4.6\INCLUDE\OPENCV2\HIGHGUI\HIGHGUI_C.H
T:\TOOLKITS\OPENCV-3.4.6\INCLUDE\OPENCV2\IMGPROC\IMGPROC_C.H
T:\TOOLKITS\OPENCV-3.4.6\INCLUDE\OPENCV2\IMGPROC\TYPES_C.H
T:\TOOLKITS\OPENCV-3.4.6\INCLUDE\OPENCV2\IMGCODECS\IMGCODECS_C.H
T:\TOOLKITS\OPENCV-3.4.6\INCLUDE\OPENCV2\VIDEOIO\VIDEOIO_C.H
T:\TOOLKITS\OPENCV-3.4.6\INCLUDE\OPENCV2\IMGPROC.HPP
T:\TOOLKITS\OPENCV-3.4.6\INCLUDE\OPENCV2\ML.HPP
T:\TOOLKITS\OPENCV-3.4.6\INCLUDE\OPENCV2\ML\ML.INL.HPP
T:\TOOLKITS\OPENCV-3.4.6\INCLUDE\OPENCV2\OBJDETECT.HPP
T:\TOOLKITS\OPENCV-3.4.6\INCLUDE\OPENCV2\OBJDETECT\DETECTION_BASED_TRACKER.HPP
T:\TOOLKITS\OPENCV-3.4.6\INCLUDE\OPENCV2\OBJDETECT\OBJDETECT_C.H
C:\PROGRAM FILES (X86)\MICROSOFT VISUAL STUDIO\2019\PROFESSIONAL\VC\TOOLS\MSVC\14.20.27508\INCLUDE\DEQUE
T:\TOOLKITS\OPENCV-3.4.6\INCLUDE\OPENCV2\PHOTO.HPP
T:\TOOLKITS\OPENCV-3.4.6\INCLUDE\OPENCV2\PHOTO\PHOTO_C.H
T:\TOOLKITS\OPENCV-3.4.6\INCLUDE\OPENCV2\SHAPE.HPP
T:\TOOLKITS\OPENCV-3.4.6\INCLUDE\OPENCV2\SHAPE\EMDL1.HPP
T:\TOOLKITS\OPENCV-3.4.6\INCLUDE\OPENCV2\SHAPE\SHAPE_TRANSFORMER.HPP
T:\TOOLKITS\OPENCV-3.4.6\INCLUDE\OPENCV2\SHAPE\HIST_COST.HPP
T:\TOOLKITS\OPENCV-3.4.6\INCLUDE\OPENCV2\SHAPE\SHAPE_DISTANCE.HPP
T:\TOOLKITS\OPENCV-3.4.6\INCLUDE\OPENCV2\STITCHING.HPP
T:\TOOLKITS\OPENCV-3.4.6\INCLUDE\OPENCV2\STITCHING\WARPERS.HPP
T:\TOOLKITS\OPENCV-3.4.6\INCLUDE\OPENCV2\STITCHING\DETAIL\WARPERS.HPP
T:\TOOLKITS\OPENCV-3.4.6\INCLUDE\OPENCV2\CORE\CUDA.HPP
T:\TOOLKITS\OPENCV-3.4.6\INCLUDE\OPENCV2\CORE\CUDA_TYPES.HPP
T:\TOOLKITS\OPENCV-3.4.6\INCLUDE\OPENCV2\CORE\CUDA.INL.HPP
T:\TOOLKITS\OPENCV-3.4.6\INCLUDE\OPENCV2\STITCHING\DETAIL\WARPERS_INL.HPP
T:\TOOLKITS\OPENCV-3.4.6\INCLUDE\OPENCV2\STITCHING\DETAIL\MATCHERS.HPP
T:\TOOLKITS\OPENCV-3.4.6\INCLUDE\OPENCV2\STITCHING\DETAIL\MOTION_ESTIMATORS.HPP
T:\TOOLKITS\OPENCV-3.4.6\INCLUDE\OPENCV2\STITCHING\DETAIL\UTIL.HPP
C:\PROGRAM FILES (X86)\MICROSOFT VISUAL STUDIO\2019\PROFESSIONAL\VC\TOOLS\MSVC\14.20.27508\INCLUDE\LIST
T:\TOOLKITS\OPENCV-3.4.6\INCLUDE\OPENCV2\STITCHING\DETAIL\UTIL_INL.HPP
C:\PROGRAM FILES (X86)\MICROSOFT VISUAL STUDIO\2019\PROFESSIONAL\VC\TOOLS\MSVC\14.20.27508\INCLUDE\QUEUE
T:\TOOLKITS\OPENCV-3.4.6\INCLUDE\OPENCV2\STITCHING\DETAIL\CAMERA.HPP
T:\TOOLKITS\OPENCV-3.4.6\INCLUDE\OPENCV2\STITCHING\DETAIL\EXPOSURE_COMPENSATE.HPP
T:\TOOLKITS\OPENCV-3.4.6\INCLUDE\OPENCV2\STITCHING\DETAIL\SEAM_FINDERS.HPP
T:\TOOLKITS\OPENCV-3.4.6\INCLUDE\OPENCV2\STITCHING\DETAIL\BLENDERS.HPP
T:\TOOLKITS\OPENCV-3.4.6\INCLUDE\OPENCV2\SUPERRES.HPP
T:\TOOLKITS\OPENCV-3.4.6\INCLUDE\OPENCV2\SUPERRES\OPTICAL_FLOW.HPP
T:\TOOLKITS\OPENCV-3.4.6\INCLUDE\OPENCV2\VIDEO.HPP
T:\TOOLKITS\OPENCV-3.4.6\INCLUDE\OPENCV2\VIDEO\TRACKING.HPP
T:\TOOLKITS\OPENCV-3.4.6\INCLUDE\OPENCV2\VIDEO\BACKGROUND_SEGM.HPP
T:\TOOLKITS\OPENCV-3.4.6\INCLUDE\OPENCV2\VIDEO\TRACKING_C.H
T:\TOOLKITS\OPENCV-3.4.6\INCLUDE\OPENCV2\VIDEOSTAB.HPP
T:\TOOLKITS\OPENCV-3.4.6\INCLUDE\OPENCV2\VIDEOSTAB\STABILIZER.HPP
T:\TOOLKITS\OPENCV-3.4.6\INCLUDE\OPENCV2\VIDEOSTAB\GLOBAL_MOTION.HPP
C:\PROGRAM FILES (X86)\MICROSOFT VISUAL STUDIO\2019\PROFESSIONAL\VC\TOOLS\MSVC\14.20.27508\INCLUDE\FSTREAM
T:\TOOLKITS\OPENCV-3.4.6\INCLUDE\OPENCV2\VIDEOSTAB\OPTICAL_FLOW.HPP
T:\TOOLKITS\OPENCV-3.4.6\INCLUDE\OPENCV2\VIDEOSTAB\MOTION_CORE.HPP
T:\TOOLKITS\OPENCV-3.4.6\INCLUDE\OPENCV2\VIDEOSTAB\OUTLIER_REJECTION.HPP
T:\TOOLKITS\OPENCV-3.4.6\INCLUDE\OPENCV2\VIDEOSTAB\MOTION_STABILIZING.HPP
T:\TOOLKITS\OPENCV-3.4.6\INCLUDE\OPENCV2\VIDEOSTAB\FRAME_SOURCE.HPP
T:\TOOLKITS\OPENCV-3.4.6\INCLUDE\OPENCV2\VIDEOSTAB\LOG.HPP
T:\TOOLKITS\OPENCV-3.4.6\INCLUDE\OPENCV2\VIDEOSTAB\INPAINTING.HPP
T:\TOOLKITS\OPENCV-3.4.6\INCLUDE\OPENCV2\VIDEOSTAB\FAST_MARCHING.HPP
T:\TOOLKITS\OPENCV-3.4.6\INCLUDE\OPENCV2\VIDEOSTAB\FAST_MARCHING_INL.HPP
T:\TOOLKITS\OPENCV-3.4.6\INCLUDE\OPENCV2\VIDEOSTAB\DEBLURRING.HPP
T:\TOOLKITS\OPENCV-3.4.6\INCLUDE\OPENCV2\VIDEOSTAB\WOBBLE_SUPPRESSION.HPP
T:\TOOLKITS\OPENCV-3.4.6\INCLUDE\OPENCV2\VIDEOSTAB\RING_BUFFER.HPP
T:\TOOLKITS\OPENCV-3.4.6\INCLUDE\OPENCV2\CORE\CORE.HPP
T:\TOOLKITS\BOOST-1.70.0\BOOST\FILESYSTEM.HPP
T:\TOOLKITS\BOOST-1.70.0\BOOST\FILESYSTEM\CONFIG.HPP
T:\TOOLKITS\BOOST-1.70.0\BOOST\CONFIG.HPP
T:\TOOLKITS\BOOST-1.70.0\BOOST\CONFIG\USER.HPP
T:\TOOLKITS\BOOST-1.70.0\BOOST\CONFIG\DETAIL\SELECT_COMPILER_CONFIG.HPP
T:\TOOLKITS\BOOST-1.70.0\BOOST\CONFIG\COMPILER\VISUALC.HPP
T:\TOOLKITS\BOOST-1.70.0\BOOST\CONFIG\PRAGMA_MESSAGE.HPP
T:\TOOLKITS\BOOST-1.70.0\BOOST\CONFIG\HELPER_MACROS.HPP
T:\TOOLKITS\BOOST-1.70.0\BOOST\CONFIG\DETAIL\SELECT_STDLIB_CONFIG.HPP
T:\TOOLKITS\BOOST-1.70.0\BOOST\CONFIG\STDLIB\DINKUMWARE.HPP
T:\TOOLKITS\BOOST-1.70.0\BOOST\CONFIG\DETAIL\SELECT_PLATFORM_CONFIG.HPP
T:\TOOLKITS\BOOST-1.70.0\BOOST\CONFIG\PLATFORM\WIN32.HPP
T:\TOOLKITS\BOOST-1.70.0\BOOST\CONFIG\DETAIL\SUFFIX.HPP
T:\TOOLKITS\BOOST-1.70.0\BOOST\SYSTEM\API_CONFIG.HPP
T:\TOOLKITS\BOOST-1.70.0\BOOST\DETAIL\WORKAROUND.HPP
T:\TOOLKITS\BOOST-1.70.0\BOOST\CONFIG\WORKAROUND.HPP
T:\TOOLKITS\BOOST-1.70.0\BOOST\CONFIG\AUTO_LINK.HPP
T:\TOOLKITS\BOOST-1.70.0\BOOST\VERSION.HPP
T:\TOOLKITS\BOOST-1.70.0\BOOST\FILESYSTEM\PATH.HPP
T:\TOOLKITS\BOOST-1.70.0\BOOST\ASSERT.HPP
T:\TOOLKITS\BOOST-1.70.0\BOOST\FILESYSTEM\PATH_TRAITS.HPP
T:\TOOLKITS\BOOST-1.70.0\BOOST\TYPE_TRAITS\IS_ARRAY.HPP
T:\TOOLKITS\BOOST-1.70.0\BOOST\TYPE_TRAITS\INTEGRAL_CONSTANT.HPP
T:\TOOLKITS\BOOST-1.70.0\BOOST\TYPE_TRAITS\DECAY.HPP
T:\TOOLKITS\BOOST-1.70.0\BOOST\TYPE_TRAITS\IS_FUNCTION.HPP
T:\TOOLKITS\BOOST-1.70.0\BOOST\TYPE_TRAITS\DETAIL\CONFIG.HPP
T:\TOOLKITS\BOOST-1.70.0\BOOST\TYPE_TRAITS\DETAIL\IS_FUNCTION_CXX_11.HPP
T:\TOOLKITS\BOOST-1.70.0\BOOST\TYPE_TRAITS\REMOVE_BOUNDS.HPP
T:\TOOLKITS\BOOST-1.70.0\BOOST\TYPE_TRAITS\REMOVE_EXTENT.HPP
T:\TOOLKITS\BOOST-1.70.0\BOOST\TYPE_TRAITS\ADD_POINTER.HPP
T:\TOOLKITS\BOOST-1.70.0\BOOST\TYPE_TRAITS\REMOVE_REFERENCE.HPP
T:\TOOLKITS\BOOST-1.70.0\BOOST\TYPE_TRAITS\REMOVE_CV.HPP
T:\TOOLKITS\BOOST-1.70.0\BOOST\SYSTEM\ERROR_CODE.HPP
T:\TOOLKITS\BOOST-1.70.0\BOOST\SYSTEM\DETAIL\CONFIG.HPP
T:\TOOLKITS\BOOST-1.70.0\BOOST\CSTDINT.HPP
T:\TOOLKITS\BOOST-1.70.0\BOOST\CERRNO.HPP
T:\TOOLKITS\BOOST-1.70.0\BOOST\SYSTEM\DETAIL\GENERIC_CATEGORY.HPP
T:\TOOLKITS\BOOST-1.70.0\BOOST\SYSTEM\DETAIL\SYSTEM_CATEGORY_WIN32.HPP
T:\TOOLKITS\BOOST-1.70.0\BOOST\WINAPI\ERROR_CODES.HPP
T:\TOOLKITS\BOOST-1.70.0\BOOST\WINAPI\BASIC_TYPES.HPP
T:\TOOLKITS\BOOST-1.70.0\BOOST\WINAPI\CONFIG.HPP
T:\TOOLKITS\BOOST-1.70.0\BOOST\PREDEF\VERSION_NUMBER.H
T:\TOOLKITS\BOOST-1.70.0\BOOST\PREDEF\PLATFORM.H
T:\TOOLKITS\BOOST-1.70.0\BOOST\PREDEF\PLATFORM\ANDROID.H
T:\TOOLKITS\BOOST-1.70.0\BOOST\PREDEF\MAKE.H
T:\TOOLKITS\BOOST-1.70.0\BOOST\PREDEF\DETAIL\TEST.H
T:\TOOLKITS\BOOST-1.70.0\BOOST\PREDEF\PLATFORM\CLOUDABI.H
T:\TOOLKITS\BOOST-1.70.0\BOOST\PREDEF\PLATFORM\MINGW.H
T:\TOOLKITS\BOOST-1.70.0\BOOST\PREDEF\PLATFORM\MINGW32.H
T:\TOOLKITS\BOOST-1.70.0\BOOST\PREDEF\PLATFORM\MINGW64.H
T:\TOOLKITS\BOOST-1.70.0\BOOST\PREDEF\PLATFORM\WINDOWS_UWP.H
T:\TOOLKITS\BOOST-1.70.0\BOOST\PREDEF\OS\WINDOWS.H
T:\TOOLKITS\BOOST-1.70.0\BOOST\PREDEF\DETAIL\OS_DETECTED.H
C:\PROGRAM FILES (X86)\WINDOWS KITS\10\INCLUDE\10.0.17763.0\SHARED\NTVERP.H
C:\PROGRAM FILES (X86)\WINDOWS KITS\10\INCLUDE\10.0.17763.0\SHARED\NTVERP.VER
T:\TOOLKITS\BOOST-1.70.0\BOOST\PREDEF\DETAIL\PLATFORM_DETECTED.H
C:\PROGRAM FILES (X86)\WINDOWS KITS\10\INCLUDE\10.0.17763.0\SHARED\WINAPIFAMILY.H
C:\PROGRAM FILES (X86)\WINDOWS KITS\10\INCLUDE\10.0.17763.0\SHARED\WINPACKAGEFAMILY.H
T:\TOOLKITS\BOOST-1.70.0\BOOST\PREDEF\PLATFORM\WINDOWS_DESKTOP.H
T:\TOOLKITS\BOOST-1.70.0\BOOST\PREDEF\PLATFORM\WINDOWS_PHONE.H
T:\TOOLKITS\BOOST-1.70.0\BOOST\PREDEF\PLATFORM\WINDOWS_SERVER.H
T:\TOOLKITS\BOOST-1.70.0\BOOST\PREDEF\PLATFORM\WINDOWS_STORE.H
T:\TOOLKITS\BOOST-1.70.0\BOOST\PREDEF\PLATFORM\WINDOWS_SYSTEM.H
T:\TOOLKITS\BOOST-1.70.0\BOOST\PREDEF\PLATFORM\WINDOWS_RUNTIME.H
T:\TOOLKITS\BOOST-1.70.0\BOOST\PREDEF\PLATFORM\IOS.H
T:\TOOLKITS\BOOST-1.70.0\BOOST\PREDEF\OS\IOS.H
C:\PROGRAM FILES (X86)\WINDOWS KITS\10\INCLUDE\10.0.17763.0\SHARED\WINERROR.H
C:\PROGRAM FILES (X86)\WINDOWS KITS\10\INCLUDE\10.0.17763.0\SHARED\SPECSTRINGS.H
C:\PROGRAM FILES (X86)\WINDOWS KITS\10\INCLUDE\10.0.17763.0\SHARED\SPECSTRINGS_STRICT.H
C:\PROGRAM FILES (X86)\WINDOWS KITS\10\INCLUDE\10.0.17763.0\SHARED\SPECSTRINGS_UNDEF.H
C:\PROGRAM FILES (X86)\WINDOWS KITS\10\INCLUDE\10.0.17763.0\SHARED\DRIVERSPECS.H
C:\PROGRAM FILES (X86)\WINDOWS KITS\10\INCLUDE\10.0.17763.0\SHARED\SDV_DRIVERSPECS.H
T:\TOOLKITS\BOOST-1.70.0\BOOST\WINAPI\ERROR_HANDLING.HPP
T:\TOOLKITS\BOOST-1.70.0\BOOST\WINAPI\GET_LAST_ERROR.HPP
T:\TOOLKITS\BOOST-1.70.0\BOOST\WINAPI\CHARACTER_CODE_CONVERSION.HPP
T:\TOOLKITS\BOOST-1.70.0\BOOST\WINAPI\LOCAL_MEMORY.HPP
T:\TOOLKITS\BOOST-1.70.0\BOOST\SYSTEM\DETAIL\STD_INTEROPERABILITY.HPP
T:\TOOLKITS\BOOST-1.70.0\BOOST\CORE\ENABLE_IF.HPP
C:\PROGRAM FILES (X86)\MICROSOFT VISUAL STUDIO\2019\PROFESSIONAL\VC\TOOLS\MSVC\14.20.27508\INCLUDE\LOCALE
C:\PROGRAM FILES (X86)\MICROSOFT VISUAL STUDIO\2019\PROFESSIONAL\VC\TOOLS\MSVC\14.20.27508\INCLUDE\XLOCBUF
C:\PROGRAM FILES (X86)\MICROSOFT VISUAL STUDIO\2019\PROFESSIONAL\VC\TOOLS\MSVC\14.20.27508\INCLUDE\XLOCMES
T:\TOOLKITS\BOOST-1.70.0\BOOST\CONFIG\ABI_PREFIX.HPP
T:\TOOLKITS\BOOST-1.70.0\BOOST\CONFIG\ABI\MSVC_PREFIX.HPP
T:\TOOLKITS\BOOST-1.70.0\BOOST\CONFIG\ABI_SUFFIX.HPP
T:\TOOLKITS\BOOST-1.70.0\BOOST\CONFIG\ABI\MSVC_SUFFIX.HPP
T:\TOOLKITS\BOOST-1.70.0\BOOST\SYSTEM\SYSTEM_ERROR.HPP
T:\TOOLKITS\BOOST-1.70.0\BOOST\ITERATOR\ITERATOR_FACADE.HPP
T:\TOOLKITS\BOOST-1.70.0\BOOST\ITERATOR\INTEROPERABLE.HPP
T:\TOOLKITS\BOOST-1.70.0\BOOST\MPL\BOOL.HPP
T:\TOOLKITS\BOOST-1.70.0\BOOST\MPL\BOOL_FWD.HPP
T:\TOOLKITS\BOOST-1.70.0\BOOST\MPL\AUX_\ADL_BARRIER.HPP
T:\TOOLKITS\BOOST-1.70.0\BOOST\MPL\AUX_\CONFIG\ADL.HPP
T:\TOOLKITS\BOOST-1.70.0\BOOST\MPL\AUX_\CONFIG\MSVC.HPP
T:\TOOLKITS\BOOST-1.70.0\BOOST\MPL\AUX_\CONFIG\INTEL.HPP
T:\TOOLKITS\BOOST-1.70.0\BOOST\MPL\AUX_\CONFIG\GCC.HPP
T:\TOOLKITS\BOOST-1.70.0\BOOST\MPL\AUX_\CONFIG\WORKAROUND.HPP
T:\TOOLKITS\BOOST-1.70.0\BOOST\MPL\INTEGRAL_C_TAG.HPP
T:\TOOLKITS\BOOST-1.70.0\BOOST\MPL\AUX_\CONFIG\STATIC_CONSTANT.HPP
T:\TOOLKITS\BOOST-1.70.0\BOOST\MPL\OR.HPP
T:\TOOLKITS\BOOST-1.70.0\BOOST\MPL\AUX_\CONFIG\USE_PREPROCESSED.HPP
T:\TOOLKITS\BOOST-1.70.0\BOOST\MPL\AUX_\NESTED_TYPE_WKND.HPP
T:\TOOLKITS\BOOST-1.70.0\BOOST\MPL\AUX_\NA_SPEC.HPP
T:\TOOLKITS\BOOST-1.70.0\BOOST\MPL\LAMBDA_FWD.HPP
T:\TOOLKITS\BOOST-1.70.0\BOOST\MPL\VOID_FWD.HPP
T:\TOOLKITS\BOOST-1.70.0\BOOST\MPL\AUX_\NA.HPP
T:\TOOLKITS\BOOST-1.70.0\BOOST\MPL\AUX_\NA_FWD.HPP
T:\TOOLKITS\BOOST-1.70.0\BOOST\MPL\AUX_\CONFIG\CTPS.HPP
T:\TOOLKITS\BOOST-1.70.0\BOOST\MPL\AUX_\CONFIG\LAMBDA.HPP
T:\TOOLKITS\BOOST-1.70.0\BOOST\MPL\AUX_\CONFIG\TTP.HPP
T:\TOOLKITS\BOOST-1.70.0\BOOST\MPL\INT.HPP
T:\TOOLKITS\BOOST-1.70.0\BOOST\MPL\INT_FWD.HPP
T:\TOOLKITS\BOOST-1.70.0\BOOST\MPL\AUX_\NTTP_DECL.HPP
T:\TOOLKITS\BOOST-1.70.0\BOOST\MPL\AUX_\CONFIG\NTTP.HPP
T:\TOOLKITS\BOOST-1.70.0\BOOST\MPL\AUX_\INTEGRAL_WRAPPER.HPP
T:\TOOLKITS\BOOST-1.70.0\BOOST\MPL\AUX_\STATIC_CAST.HPP
T:\TOOLKITS\BOOST-1.70.0\BOOST\PREPROCESSOR\CAT.HPP
T:\TOOLKITS\BOOST-1.70.0\BOOST\PREPROCESSOR\CONFIG\CONFIG.HPP
T:\TOOLKITS\BOOST-1.70.0\BOOST\MPL\AUX_\LAMBDA_ARITY_PARAM.HPP
T:\TOOLKITS\BOOST-1.70.0\BOOST\MPL\AUX_\TEMPLATE_ARITY_FWD.HPP
T:\TOOLKITS\BOOST-1.70.0\BOOST\MPL\AUX_\ARITY.HPP
T:\TOOLKITS\BOOST-1.70.0\BOOST\MPL\AUX_\CONFIG\DTP.HPP
T:\TOOLKITS\BOOST-1.70.0\BOOST\MPL\AUX_\PREPROCESSOR\PARAMS.HPP
T:\TOOLKITS\BOOST-1.70.0\BOOST\MPL\AUX_\CONFIG\PREPROCESSOR.HPP
T:\TOOLKITS\BOOST-1.70.0\BOOST\PREPROCESSOR\COMMA_IF.HPP
T:\TOOLKITS\BOOST-1.70.0\BOOST\PREPROCESSOR\PUNCTUATION\COMMA_IF.HPP
T:\TOOLKITS\BOOST-1.70.0\BOOST\PREPROCESSOR\CONTROL\IF.HPP
T:\TOOLKITS\BOOST-1.70.0\BOOST\PREPROCESSOR\CONTROL\IIF.HPP
T:\TOOLKITS\BOOST-1.70.0\BOOST\PREPROCESSOR\LOGICAL\BOOL.HPP
T:\TOOLKITS\BOOST-1.70.0\BOOST\PREPROCESSOR\FACILITIES\EMPTY.HPP
T:\TOOLKITS\BOOST-1.70.0\BOOST\PREPROCESSOR\PUNCTUATION\COMMA.HPP
T:\TOOLKITS\BOOST-1.70.0\BOOST\PREPROCESSOR\REPEAT.HPP
T:\TOOLKITS\BOOST-1.70.0\BOOST\PREPROCESSOR\REPETITION\REPEAT.HPP
T:\TOOLKITS\BOOST-1.70.0\BOOST\PREPROCESSOR\DEBUG\ERROR.HPP
T:\TOOLKITS\BOOST-1.70.0\BOOST\PREPROCESSOR\DETAIL\AUTO_REC.HPP
T:\TOOLKITS\BOOST-1.70.0\BOOST\PREPROCESSOR\TUPLE\EAT.HPP
T:\TOOLKITS\BOOST-1.70.0\BOOST\PREPROCESSOR\INC.HPP
T:\TOOLKITS\BOOST-1.70.0\BOOST\PREPROCESSOR\ARITHMETIC\INC.HPP
T:\TOOLKITS\BOOST-1.70.0\BOOST\MPL\AUX_\PREPROCESSOR\ENUM.HPP
T:\TOOLKITS\BOOST-1.70.0\BOOST\MPL\AUX_\PREPROCESSOR\DEF_PARAMS_TAIL.HPP
T:\TOOLKITS\BOOST-1.70.0\BOOST\MPL\LIMITS\ARITY.HPP
T:\TOOLKITS\BOOST-1.70.0\BOOST\PREPROCESSOR\LOGICAL\AND.HPP
T:\TOOLKITS\BOOST-1.70.0\BOOST\PREPROCESSOR\LOGICAL\BITAND.HPP
T:\TOOLKITS\BOOST-1.70.0\BOOST\PREPROCESSOR\IDENTITY.HPP
T:\TOOLKITS\BOOST-1.70.0\BOOST\PREPROCESSOR\FACILITIES\IDENTITY.HPP
T:\TOOLKITS\BOOST-1.70.0\BOOST\PREPROCESSOR\EMPTY.HPP
T:\TOOLKITS\BOOST-1.70.0\BOOST\PREPROCESSOR\ARITHMETIC\ADD.HPP
T:\TOOLKITS\BOOST-1.70.0\BOOST\PREPROCESSOR\ARITHMETIC\DEC.HPP
T:\TOOLKITS\BOOST-1.70.0\BOOST\PREPROCESSOR\CONTROL\WHILE.HPP
T:\TOOLKITS\BOOST-1.70.0\BOOST\PREPROCESSOR\LIST\FOLD_LEFT.HPP
T:\TOOLKITS\BOOST-1.70.0\BOOST\PREPROCESSOR\LIST\DETAIL\FOLD_LEFT.HPP
T:\TOOLKITS\BOOST-1.70.0\BOOST\PREPROCESSOR\CONTROL\EXPR_IIF.HPP
T:\TOOLKITS\BOOST-1.70.0\BOOST\PREPROCESSOR\LIST\ADT.HPP
T:\TOOLKITS\BOOST-1.70.0\BOOST\PREPROCESSOR\DETAIL\IS_BINARY.HPP
T:\TOOLKITS\BOOST-1.70.0\BOOST\PREPROCESSOR\DETAIL\CHECK.HPP
T:\TOOLKITS\BOOST-1.70.0\BOOST\PREPROCESSOR\LOGICAL\COMPL.HPP
T:\TOOLKITS\BOOST-1.70.0\BOOST\PREPROCESSOR\LIST\FOLD_RIGHT.HPP
T:\TOOLKITS\BOOST-1.70.0\BOOST\PREPROCESSOR\LIST\DETAIL\FOLD_RIGHT.HPP
T:\TOOLKITS\BOOST-1.70.0\BOOST\PREPROCESSOR\LIST\REVERSE.HPP
T:\TOOLKITS\BOOST-1.70.0\BOOST\PREPROCESSOR\CONTROL\DETAIL\MSVC\WHILE.HPP
T:\TOOLKITS\BOOST-1.70.0\BOOST\PREPROCESSOR\TUPLE\ELEM.HPP
T:\TOOLKITS\BOOST-1.70.0\BOOST\PREPROCESSOR\FACILITIES\EXPAND.HPP
T:\TOOLKITS\BOOST-1.70.0\BOOST\PREPROCESSOR\FACILITIES\OVERLOAD.HPP
T:\TOOLKITS\BOOST-1.70.0\BOOST\PREPROCESSOR\VARIADIC\SIZE.HPP
T:\TOOLKITS\BOOST-1.70.0\BOOST\PREPROCESSOR\TUPLE\REM.HPP
T:\TOOLKITS\BOOST-1.70.0\BOOST\PREPROCESSOR\TUPLE\DETAIL\IS_SINGLE_RETURN.HPP
T:\TOOLKITS\BOOST-1.70.0\BOOST\PREPROCESSOR\FACILITIES\IS_1.HPP
T:\TOOLKITS\BOOST-1.70.0\BOOST\PREPROCESSOR\FACILITIES\IS_EMPTY.HPP
T:\TOOLKITS\BOOST-1.70.0\BOOST\PREPROCESSOR\FACILITIES\IS_EMPTY_VARIADIC.HPP
T:\TOOLKITS\BOOST-1.70.0\BOOST\PREPROCESSOR\PUNCTUATION\IS_BEGIN_PARENS.HPP
T:\TOOLKITS\BOOST-1.70.0\BOOST\PREPROCESSOR\PUNCTUATION\DETAIL\IS_BEGIN_PARENS.HPP
T:\TOOLKITS\BOOST-1.70.0\BOOST\PREPROCESSOR\FACILITIES\DETAIL\IS_EMPTY.HPP
T:\TOOLKITS\BOOST-1.70.0\BOOST\PREPROCESSOR\TUPLE\SIZE.HPP
T:\TOOLKITS\BOOST-1.70.0\BOOST\PREPROCESSOR\VARIADIC\ELEM.HPP
T:\TOOLKITS\BOOST-1.70.0\BOOST\PREPROCESSOR\ARITHMETIC\SUB.HPP
T:\TOOLKITS\BOOST-1.70.0\BOOST\MPL\AUX_\CONFIG\ETI.HPP
T:\TOOLKITS\BOOST-1.70.0\BOOST\MPL\AUX_\CONFIG\OVERLOAD_RESOLUTION.HPP
T:\TOOLKITS\BOOST-1.70.0\BOOST\MPL\AUX_\LAMBDA_SUPPORT.HPP
T:\TOOLKITS\BOOST-1.70.0\BOOST\MPL\AUX_\INCLUDE_PREPROCESSED.HPP
T:\TOOLKITS\BOOST-1.70.0\BOOST\MPL\AUX_\CONFIG\COMPILER.HPP
T:\TOOLKITS\BOOST-1.70.0\BOOST\PREPROCESSOR\STRINGIZE.HPP
T:\TOOLKITS\BOOST-1.70.0\BOOST\MPL\AUX_\PREPROCESSED\PLAIN\OR.HPP
T:\TOOLKITS\BOOST-1.70.0\BOOST\TYPE_TRAITS\IS_CONVERTIBLE.HPP
T:\TOOLKITS\BOOST-1.70.0\BOOST\TYPE_TRAITS\INTRINSICS.HPP
T:\TOOLKITS\BOOST-1.70.0\BOOST\TYPE_TRAITS\IS_COMPLETE.HPP
T:\TOOLKITS\BOOST-1.70.0\BOOST\TYPE_TRAITS\DECLVAL.HPP
T:\TOOLKITS\BOOST-1.70.0\BOOST\TYPE_TRAITS\ADD_RVALUE_REFERENCE.HPP
T:\TOOLKITS\BOOST-1.70.0\BOOST\TYPE_TRAITS\IS_VOID.HPP
T:\TOOLKITS\BOOST-1.70.0\BOOST\TYPE_TRAITS\IS_REFERENCE.HPP
T:\TOOLKITS\BOOST-1.70.0\BOOST\TYPE_TRAITS\IS_LVALUE_REFERENCE.HPP
T:\TOOLKITS\BOOST-1.70.0\BOOST\TYPE_TRAITS\IS_RVALUE_REFERENCE.HPP
T:\TOOLKITS\BOOST-1.70.0\BOOST\TYPE_TRAITS\DETAIL\YES_NO_TYPE.HPP
T:\TOOLKITS\BOOST-1.70.0\BOOST\STATIC_ASSERT.HPP
T:\TOOLKITS\BOOST-1.70.0\BOOST\TYPE_TRAITS\IS_SAME.HPP
T:\TOOLKITS\BOOST-1.70.0\BOOST\ITERATOR\DETAIL\CONFIG_DEF.HPP
T:\TOOLKITS\BOOST-1.70.0\BOOST\ITERATOR\DETAIL\CONFIG_UNDEF.HPP
T:\TOOLKITS\BOOST-1.70.0\BOOST\ITERATOR\ITERATOR_TRAITS.HPP
T:\TOOLKITS\BOOST-1.70.0\BOOST\ITERATOR\ITERATOR_CATEGORIES.HPP
T:\TOOLKITS\BOOST-1.70.0\BOOST\MPL\EVAL_IF.HPP
T:\TOOLKITS\BOOST-1.70.0\BOOST\MPL\IF.HPP
T:\TOOLKITS\BOOST-1.70.0\BOOST\MPL\AUX_\VALUE_WKND.HPP
T:\TOOLKITS\BOOST-1.70.0\BOOST\MPL\AUX_\CONFIG\INTEGRAL.HPP
T:\TOOLKITS\BOOST-1.70.0\BOOST\MPL\IDENTITY.HPP
T:\TOOLKITS\BOOST-1.70.0\BOOST\MPL\PLACEHOLDERS.HPP
T:\TOOLKITS\BOOST-1.70.0\BOOST\MPL\ARG.HPP
T:\TOOLKITS\BOOST-1.70.0\BOOST\MPL\ARG_FWD.HPP
T:\TOOLKITS\BOOST-1.70.0\BOOST\MPL\AUX_\NA_ASSERT.HPP
T:\TOOLKITS\BOOST-1.70.0\BOOST\MPL\ASSERT.HPP
T:\TOOLKITS\BOOST-1.70.0\BOOST\MPL\NOT.HPP
T:\TOOLKITS\BOOST-1.70.0\BOOST\MPL\AUX_\YES_NO.HPP
T:\TOOLKITS\BOOST-1.70.0\BOOST\MPL\AUX_\CONFIG\ARRAYS.HPP
T:\TOOLKITS\BOOST-1.70.0\BOOST\MPL\AUX_\CONFIG\GPU.HPP
T:\TOOLKITS\BOOST-1.70.0\BOOST\MPL\AUX_\CONFIG\PP_COUNTER.HPP
T:\TOOLKITS\BOOST-1.70.0\BOOST\MPL\AUX_\ARITY_SPEC.HPP
T:\TOOLKITS\BOOST-1.70.0\BOOST\MPL\AUX_\ARG_TYPEDEF.HPP
T:\TOOLKITS\BOOST-1.70.0\BOOST\MPL\AUX_\PREPROCESSED\PLAIN\ARG.HPP
T:\TOOLKITS\BOOST-1.70.0\BOOST\MPL\AUX_\PREPROCESSED\PLAIN\PLACEHOLDERS.HPP
T:\TOOLKITS\BOOST-1.70.0\BOOST\ITERATOR\DETAIL\FACADE_ITERATOR_CATEGORY.HPP
T:\TOOLKITS\BOOST-1.70.0\BOOST\CORE\USE_DEFAULT.HPP
T:\TOOLKITS\BOOST-1.70.0\BOOST\MPL\AND.HPP
T:\TOOLKITS\BOOST-1.70.0\BOOST\MPL\AUX_\PREPROCESSED\PLAIN\AND.HPP
T:\TOOLKITS\BOOST-1.70.0\BOOST\TYPE_TRAITS\IS_CONST.HPP
T:\TOOLKITS\BOOST-1.70.0\BOOST\DETAIL\INDIRECT_TRAITS.HPP
T:\TOOLKITS\BOOST-1.70.0\BOOST\TYPE_TRAITS\IS_POINTER.HPP
T:\TOOLKITS\BOOST-1.70.0\BOOST\TYPE_TRAITS\IS_CLASS.HPP
T:\TOOLKITS\BOOST-1.70.0\BOOST\TYPE_TRAITS\IS_VOLATILE.HPP
T:\TOOLKITS\BOOST-1.70.0\BOOST\TYPE_TRAITS\IS_MEMBER_FUNCTION_POINTER.HPP
T:\TOOLKITS\BOOST-1.70.0\BOOST\TYPE_TRAITS\DETAIL\IS_MEMBER_FUNCTION_POINTER_CXX_11.HPP
T:\TOOLKITS\BOOST-1.70.0\BOOST\TYPE_TRAITS\IS_MEMBER_POINTER.HPP
T:\TOOLKITS\BOOST-1.70.0\BOOST\TYPE_TRAITS\REMOVE_POINTER.HPP
T:\TOOLKITS\BOOST-1.70.0\BOOST\DETAIL\SELECT_TYPE.HPP
T:\TOOLKITS\BOOST-1.70.0\BOOST\ITERATOR\DETAIL\ENABLE_IF.HPP
T:\TOOLKITS\BOOST-1.70.0\BOOST\CORE\ADDRESSOF.HPP
T:\TOOLKITS\BOOST-1.70.0\BOOST\TYPE_TRAITS\ADD_CONST.HPP
T:\TOOLKITS\BOOST-1.70.0\BOOST\TYPE_TRAITS\ADD_LVALUE_REFERENCE.HPP
T:\TOOLKITS\BOOST-1.70.0\BOOST\TYPE_TRAITS\ADD_REFERENCE.HPP
T:\TOOLKITS\BOOST-1.70.0\BOOST\TYPE_TRAITS\REMOVE_CONST.HPP
T:\TOOLKITS\BOOST-1.70.0\BOOST\TYPE_TRAITS\IS_POD.HPP
T:\TOOLKITS\BOOST-1.70.0\BOOST\TYPE_TRAITS\IS_SCALAR.HPP
T:\TOOLKITS\BOOST-1.70.0\BOOST\TYPE_TRAITS\IS_ARITHMETIC.HPP
T:\TOOLKITS\BOOST-1.70.0\BOOST\TYPE_TRAITS\IS_INTEGRAL.HPP
T:\TOOLKITS\BOOST-1.70.0\BOOST\TYPE_TRAITS\IS_FLOATING_POINT.HPP
T:\TOOLKITS\BOOST-1.70.0\BOOST\TYPE_TRAITS\IS_ENUM.HPP
T:\TOOLKITS\BOOST-1.70.0\BOOST\MPL\ALWAYS.HPP
T:\TOOLKITS\BOOST-1.70.0\BOOST\MPL\AUX_\PREPROCESSOR\DEFAULT_PARAMS.HPP
T:\TOOLKITS\BOOST-1.70.0\BOOST\MPL\APPLY.HPP
T:\TOOLKITS\BOOST-1.70.0\BOOST\MPL\APPLY_FWD.HPP
T:\TOOLKITS\BOOST-1.70.0\BOOST\MPL\AUX_\PREPROCESSED\PLAIN\APPLY_FWD.HPP
T:\TOOLKITS\BOOST-1.70.0\BOOST\MPL\APPLY_WRAP.HPP
T:\TOOLKITS\BOOST-1.70.0\BOOST\MPL\AUX_\HAS_APPLY.HPP
T:\TOOLKITS\BOOST-1.70.0\BOOST\MPL\HAS_XXX.HPP
T:\TOOLKITS\BOOST-1.70.0\BOOST\MPL\AUX_\TYPE_WRAPPER.HPP
T:\TOOLKITS\BOOST-1.70.0\BOOST\MPL\AUX_\CONFIG\HAS_XXX.HPP
T:\TOOLKITS\BOOST-1.70.0\BOOST\MPL\AUX_\CONFIG\MSVC_TYPENAME.HPP
T:\TOOLKITS\BOOST-1.70.0\BOOST\PREPROCESSOR\ARRAY\ELEM.HPP
T:\TOOLKITS\BOOST-1.70.0\BOOST\PREPROCESSOR\ARRAY\DATA.HPP
T:\TOOLKITS\BOOST-1.70.0\BOOST\PREPROCESSOR\ARRAY\SIZE.HPP
T:\TOOLKITS\BOOST-1.70.0\BOOST\PREPROCESSOR\REPETITION\ENUM_PARAMS.HPP
T:\TOOLKITS\BOOST-1.70.0\BOOST\PREPROCESSOR\REPETITION\ENUM_TRAILING_PARAMS.HPP
T:\TOOLKITS\BOOST-1.70.0\BOOST\MPL\AUX_\CONFIG\HAS_APPLY.HPP
T:\TOOLKITS\BOOST-1.70.0\BOOST\MPL\AUX_\MSVC_NEVER_TRUE.HPP
T:\TOOLKITS\BOOST-1.70.0\BOOST\MPL\AUX_\PREPROCESSED\PLAIN\APPLY_WRAP.HPP
T:\TOOLKITS\BOOST-1.70.0\BOOST\MPL\LAMBDA.HPP
T:\TOOLKITS\BOOST-1.70.0\BOOST\MPL\BIND.HPP
T:\TOOLKITS\BOOST-1.70.0\BOOST\MPL\BIND_FWD.HPP
T:\TOOLKITS\BOOST-1.70.0\BOOST\MPL\AUX_\CONFIG\BIND.HPP
T:\TOOLKITS\BOOST-1.70.0\BOOST\MPL\AUX_\PREPROCESSED\PLAIN\BIND_FWD.HPP
T:\TOOLKITS\BOOST-1.70.0\BOOST\MPL\NEXT.HPP
T:\TOOLKITS\BOOST-1.70.0\BOOST\MPL\NEXT_PRIOR.HPP
T:\TOOLKITS\BOOST-1.70.0\BOOST\MPL\AUX_\COMMON_NAME_WKND.HPP
T:\TOOLKITS\BOOST-1.70.0\BOOST\MPL\PROTECT.HPP
T:\TOOLKITS\BOOST-1.70.0\BOOST\MPL\AUX_\PREPROCESSED\PLAIN\BIND.HPP
T:\TOOLKITS\BOOST-1.70.0\BOOST\MPL\AUX_\FULL_LAMBDA.HPP
T:\TOOLKITS\BOOST-1.70.0\BOOST\MPL\QUOTE.HPP
T:\TOOLKITS\BOOST-1.70.0\BOOST\MPL\VOID.HPP
T:\TOOLKITS\BOOST-1.70.0\BOOST\MPL\AUX_\HAS_TYPE.HPP
T:\TOOLKITS\BOOST-1.70.0\BOOST\MPL\AUX_\CONFIG\BCC.HPP
T:\TOOLKITS\BOOST-1.70.0\BOOST\MPL\AUX_\PREPROCESSED\PLAIN\QUOTE.HPP
T:\TOOLKITS\BOOST-1.70.0\BOOST\MPL\AUX_\TEMPLATE_ARITY.HPP
T:\TOOLKITS\BOOST-1.70.0\BOOST\MPL\AUX_\PREPROCESSED\PLAIN\TEMPLATE_ARITY.HPP
T:\TOOLKITS\BOOST-1.70.0\BOOST\MPL\AUX_\PREPROCESSED\PLAIN\FULL_LAMBDA.HPP
T:\TOOLKITS\BOOST-1.70.0\BOOST\MPL\AUX_\PREPROCESSED\PLAIN\APPLY.HPP
T:\TOOLKITS\BOOST-1.70.0\BOOST\IO\DETAIL\QUOTED_MANIP.HPP
T:\TOOLKITS\BOOST-1.70.0\BOOST\IO\IOS_STATE.HPP
T:\TOOLKITS\BOOST-1.70.0\BOOST\IO_FWD.HPP
T:\TOOLKITS\BOOST-1.70.0\BOOST\FUNCTIONAL\HASH_FWD.HPP
T:\TOOLKITS\BOOST-1.70.0\BOOST\CONTAINER_HASH\HASH_FWD.HPP
T:\TOOLKITS\BOOST-1.70.0\BOOST\FILESYSTEM\OPERATIONS.HPP
T:\TOOLKITS\BOOST-1.70.0\BOOST\CORE\SCOPED_ENUM.HPP
T:\TOOLKITS\BOOST-1.70.0\BOOST\DETAIL\BITMASK.HPP
T:\TOOLKITS\BOOST-1.70.0\BOOST\SMART_PTR\INTRUSIVE_PTR.HPP
T:\TOOLKITS\BOOST-1.70.0\BOOST\SMART_PTR\DETAIL\SP_CONVERTIBLE.HPP
T:\TOOLKITS\BOOST-1.70.0\BOOST\SMART_PTR\DETAIL\SP_NULLPTR_T.HPP
T:\TOOLKITS\BOOST-1.70.0\BOOST\SMART_PTR\DETAIL\SP_NOEXCEPT.HPP
T:\TOOLKITS\BOOST-1.70.0\BOOST\CONFIG\NO_TR1\FUNCTIONAL.HPP
T:\TOOLKITS\BOOST-1.70.0\BOOST\SMART_PTR\DETAIL\OPERATOR_BOOL.HPP
T:\TOOLKITS\BOOST-1.70.0\BOOST\SMART_PTR\INTRUSIVE_REF_COUNTER.HPP
T:\TOOLKITS\BOOST-1.70.0\BOOST\SMART_PTR\DETAIL\ATOMIC_COUNT.HPP
T:\TOOLKITS\BOOST-1.70.0\BOOST\SMART_PTR\DETAIL\SP_HAS_SYNC.HPP
T:\TOOLKITS\BOOST-1.70.0\BOOST\SMART_PTR\DETAIL\ATOMIC_COUNT_STD_ATOMIC.HPP
C:\PROGRAM FILES (X86)\MICROSOFT VISUAL STUDIO\2019\PROFESSIONAL\VC\TOOLS\MSVC\14.20.27508\INCLUDE\ATOMIC
C:\PROGRAM FILES (X86)\MICROSOFT VISUAL STUDIO\2019\PROFESSIONAL\VC\TOOLS\MSVC\14.20.27508\INCLUDE\XATOMIC.H
C:\PROGRAM FILES (X86)\MICROSOFT VISUAL STUDIO\2019\PROFESSIONAL\VC\TOOLS\MSVC\14.20.27508\INCLUDE\XXATOMIC
C:\PROGRAM FILES (X86)\MICROSOFT VISUAL STUDIO\2019\PROFESSIONAL\VC\TOOLS\MSVC\14.20.27508\INCLUDE\STACK
T:\TOOLKITS\BOOST-1.70.0\BOOST\FILESYSTEM\CONVENIENCE.HPP
T:\TOOLKITS\BOOST-1.70.0\BOOST\FILESYSTEM\STRING_FILE.HPP
T:\TOOLKITS\BOOST-1.70.0\BOOST\FILESYSTEM\FSTREAM.HPP
