^C:\USERS\STATSUSER\DESKTOP\SG_START_FRM_CNN\CODE\TEST_SG_START_FRMS_CNN\TEST_SG_START_FRMS_CNN.CPP
C:\PROGRAM FILES (X86)\MICROSOFT VISUAL STUDIO\2019\PROFESSIONAL\VC\TOOLS\MSVC\14.20.27508\BIN\HOSTX86\X64\1033\CLUI.DLL
C:\WINDOWS\GLOBALIZATION\SORTING\SORTDEFAULT.NLS
C:\WINDOWS\SYSTEM32\TZRES.DLL
C:\USERS\STATSUSER\DESKTOP\SG_START_FRM_CNN\INCLUDE\CAFFE\CAFFE.HPP
C:\USERS\STATSUSER\DESKTOP\SG_START_FRM_CNN\INCLUDE\CAFFE\BLOB.HPP
C:\PROGRAM FILES (X86)\MICROSOFT VISUAL STUDIO\2019\PROFESSIONAL\VC\TOOLS\MSVC\14.20.27508\INCLUDE\ALGORITHM
C:\PROGRAM FILES (X86)\MICROSOFT VISUAL STUDIO\2019\PROFESSIONAL\VC\TOOLS\MSVC\14.20.27508\INCLUDE\XMEMORY
C:\PROGRAM FILES (X86)\MICROSOFT VISUAL STUDIO\2019\PROFESSIONAL\VC\TOOLS\MSVC\14.20.27508\INCLUDE\XMEMORY0
C:\PROGRAM FILES (X86)\MICROSOFT VISUAL STUDIO\2019\PROFESSIONAL\VC\TOOLS\MSVC\14.20.27508\INCLUDE\CSTDINT
C:\PROGRAM FILES (X86)\MICROSOFT VISUAL STUDIO\2019\PROFESSIONAL\VC\TOOLS\MSVC\14.20.27508\INCLUDE\YVALS.H
C:\PROGRAM FILES (X86)\MICROSOFT VISUAL STUDIO\2019\PROFESSIONAL\VC\TOOLS\MSVC\14.20.27508\INCLUDE\YVALS_CORE.H
C:\PROGRAM FILES (X86)\MICROSOFT VISUAL STUDIO\2019\PROFESSIONAL\VC\TOOLS\MSVC\14.20.27508\INCLUDE\CRTDEFS.H
C:\PROGRAM FILES (X86)\MICROSOFT VISUAL STUDIO\2019\PROFESSIONAL\VC\TOOLS\MSVC\14.20.27508\INCLUDE\VCRUNTIME.H
C:\PROGRAM FILES (X86)\MICROSOFT VISUAL STUDIO\2019\PROFESSIONAL\VC\TOOLS\MSVC\14.20.27508\INCLUDE\SAL.H
C:\PROGRAM FILES (X86)\MICROSOFT VISUAL STUDIO\2019\PROFESSIONAL\VC\TOOLS\MSVC\14.20.27508\INCLUDE\CONCURRENCYSAL.H
C:\PROGRAM FILES (X86)\MICROSOFT VISUAL STUDIO\2019\PROFESSIONAL\VC\TOOLS\MSVC\14.20.27508\INCLUDE\VADEFS.H
C:\PROGRAM FILES (X86)\WINDOWS KITS\10\INCLUDE\10.0.17763.0\UCRT\CORECRT.H
C:\PROGRAM FILES (X86)\MICROSOFT VISUAL STUDIO\2019\PROFESSIONAL\VC\TOOLS\MSVC\14.20.27508\INCLUDE\XKEYCHECK.H
C:\PROGRAM FILES (X86)\WINDOWS KITS\10\INCLUDE\10.0.17763.0\UCRT\CRTDBG.H
C:\PROGRAM FILES (X86)\MICROSOFT VISUAL STUDIO\2019\PROFESSIONAL\VC\TOOLS\MSVC\14.20.27508\INCLUDE\VCRUNTIME_NEW_DEBUG.H
C:\PROGRAM FILES (X86)\MICROSOFT VISUAL STUDIO\2019\PROFESSIONAL\VC\TOOLS\MSVC\14.20.27508\INCLUDE\VCRUNTIME_NEW.H
C:\PROGRAM FILES (X86)\MICROSOFT VISUAL STUDIO\2019\PROFESSIONAL\VC\TOOLS\MSVC\14.20.27508\INCLUDE\USE_ANSI.H
C:\PROGRAM FILES (X86)\MICROSOFT VISUAL STUDIO\2019\PROFESSIONAL\VC\TOOLS\MSVC\14.20.27508\INCLUDE\STDINT.H
C:\PROGRAM FILES (X86)\MICROSOFT VISUAL STUDIO\2019\PROFESSIONAL\VC\TOOLS\MSVC\14.20.27508\INCLUDE\CSTDLIB
C:\PROGRAM FILES (X86)\WINDOWS KITS\10\INCLUDE\10.0.17763.0\UCRT\MATH.H
C:\PROGRAM FILES (X86)\WINDOWS KITS\10\INCLUDE\10.0.17763.0\UCRT\CORECRT_MATH.H
C:\PROGRAM FILES (X86)\WINDOWS KITS\10\INCLUDE\10.0.17763.0\UCRT\STDLIB.H
C:\PROGRAM FILES (X86)\WINDOWS KITS\10\INCLUDE\10.0.17763.0\UCRT\CORECRT_MALLOC.H
C:\PROGRAM FILES (X86)\WINDOWS KITS\10\INCLUDE\10.0.17763.0\UCRT\CORECRT_SEARCH.H
C:\PROGRAM FILES (X86)\WINDOWS KITS\10\INCLUDE\10.0.17763.0\UCRT\STDDEF.H
C:\PROGRAM FILES (X86)\WINDOWS KITS\10\INCLUDE\10.0.17763.0\UCRT\CORECRT_WSTDLIB.H
C:\PROGRAM FILES (X86)\MICROSOFT VISUAL STUDIO\2019\PROFESSIONAL\VC\TOOLS\MSVC\14.20.27508\INCLUDE\LIMITS.H
C:\PROGRAM FILES (X86)\MICROSOFT VISUAL STUDIO\2019\PROFESSIONAL\VC\TOOLS\MSVC\14.20.27508\INCLUDE\LIMITS
C:\PROGRAM FILES (X86)\MICROSOFT VISUAL STUDIO\2019\PROFESSIONAL\VC\TOOLS\MSVC\14.20.27508\INCLUDE\CFLOAT
C:\PROGRAM FILES (X86)\WINDOWS KITS\10\INCLUDE\10.0.17763.0\UCRT\FLOAT.H
C:\PROGRAM FILES (X86)\MICROSOFT VISUAL STUDIO\2019\PROFESSIONAL\VC\TOOLS\MSVC\14.20.27508\INCLUDE\CLIMITS
C:\PROGRAM FILES (X86)\MICROSOFT VISUAL STUDIO\2019\PROFESSIONAL\VC\TOOLS\MSVC\14.20.27508\INCLUDE\CWCHAR
C:\PROGRAM FILES (X86)\MICROSOFT VISUAL STUDIO\2019\PROFESSIONAL\VC\TOOLS\MSVC\14.20.27508\INCLUDE\CSTDIO
C:\PROGRAM FILES (X86)\WINDOWS KITS\10\INCLUDE\10.0.17763.0\UCRT\STDIO.H
C:\PROGRAM FILES (X86)\WINDOWS KITS\10\INCLUDE\10.0.17763.0\UCRT\CORECRT_WSTDIO.H
C:\PROGRAM FILES (X86)\WINDOWS KITS\10\INCLUDE\10.0.17763.0\UCRT\CORECRT_STDIO_CONFIG.H
C:\PROGRAM FILES (X86)\WINDOWS KITS\10\INCLUDE\10.0.17763.0\UCRT\WCHAR.H
C:\PROGRAM FILES (X86)\WINDOWS KITS\10\INCLUDE\10.0.17763.0\UCRT\CORECRT_MEMCPY_S.H
C:\PROGRAM FILES (X86)\WINDOWS KITS\10\INCLUDE\10.0.17763.0\UCRT\ERRNO.H
C:\PROGRAM FILES (X86)\MICROSOFT VISUAL STUDIO\2019\PROFESSIONAL\VC\TOOLS\MSVC\14.20.27508\INCLUDE\VCRUNTIME_STRING.H
C:\PROGRAM FILES (X86)\WINDOWS KITS\10\INCLUDE\10.0.17763.0\UCRT\CORECRT_WCONIO.H
C:\PROGRAM FILES (X86)\WINDOWS KITS\10\INCLUDE\10.0.17763.0\UCRT\CORECRT_WCTYPE.H
C:\PROGRAM FILES (X86)\WINDOWS KITS\10\INCLUDE\10.0.17763.0\UCRT\CORECRT_WDIRECT.H
C:\PROGRAM FILES (X86)\WINDOWS KITS\10\INCLUDE\10.0.17763.0\UCRT\CORECRT_WIO.H
C:\PROGRAM FILES (X86)\WINDOWS KITS\10\INCLUDE\10.0.17763.0\UCRT\CORECRT_SHARE.H
C:\PROGRAM FILES (X86)\WINDOWS KITS\10\INCLUDE\10.0.17763.0\UCRT\CORECRT_WPROCESS.H
C:\PROGRAM FILES (X86)\WINDOWS KITS\10\INCLUDE\10.0.17763.0\UCRT\CORECRT_WSTRING.H
C:\PROGRAM FILES (X86)\WINDOWS KITS\10\INCLUDE\10.0.17763.0\UCRT\CORECRT_WTIME.H
C:\PROGRAM FILES (X86)\WINDOWS KITS\10\INCLUDE\10.0.17763.0\UCRT\SYS\STAT.H
C:\PROGRAM FILES (X86)\WINDOWS KITS\10\INCLUDE\10.0.17763.0\UCRT\SYS\TYPES.H
C:\PROGRAM FILES (X86)\MICROSOFT VISUAL STUDIO\2019\PROFESSIONAL\VC\TOOLS\MSVC\14.20.27508\INCLUDE\XSTDDEF
C:\PROGRAM FILES (X86)\MICROSOFT VISUAL STUDIO\2019\PROFESSIONAL\VC\TOOLS\MSVC\14.20.27508\INCLUDE\CSTDDEF
C:\PROGRAM FILES (X86)\MICROSOFT VISUAL STUDIO\2019\PROFESSIONAL\VC\TOOLS\MSVC\14.20.27508\INCLUDE\XTR1COMMON
C:\PROGRAM FILES (X86)\MICROSOFT VISUAL STUDIO\2019\PROFESSIONAL\VC\TOOLS\MSVC\14.20.27508\INCLUDE\INITIALIZER_LIST
C:\PROGRAM FILES (X86)\MICROSOFT VISUAL STUDIO\2019\PROFESSIONAL\VC\TOOLS\MSVC\14.20.27508\INCLUDE\NEW
C:\PROGRAM FILES (X86)\MICROSOFT VISUAL STUDIO\2019\PROFESSIONAL\VC\TOOLS\MSVC\14.20.27508\INCLUDE\EXCEPTION
C:\PROGRAM FILES (X86)\MICROSOFT VISUAL STUDIO\2019\PROFESSIONAL\VC\TOOLS\MSVC\14.20.27508\INCLUDE\TYPE_TRAITS
C:\PROGRAM FILES (X86)\WINDOWS KITS\10\INCLUDE\10.0.17763.0\UCRT\MALLOC.H
C:\PROGRAM FILES (X86)\MICROSOFT VISUAL STUDIO\2019\PROFESSIONAL\VC\TOOLS\MSVC\14.20.27508\INCLUDE\VCRUNTIME_EXCEPTION.H
C:\PROGRAM FILES (X86)\MICROSOFT VISUAL STUDIO\2019\PROFESSIONAL\VC\TOOLS\MSVC\14.20.27508\INCLUDE\EH.H
C:\PROGRAM FILES (X86)\WINDOWS KITS\10\INCLUDE\10.0.17763.0\UCRT\CORECRT_TERMINATE.H
C:\PROGRAM FILES (X86)\MICROSOFT VISUAL STUDIO\2019\PROFESSIONAL\VC\TOOLS\MSVC\14.20.27508\INCLUDE\XUTILITY
C:\PROGRAM FILES (X86)\MICROSOFT VISUAL STUDIO\2019\PROFESSIONAL\VC\TOOLS\MSVC\14.20.27508\INCLUDE\CSTRING
C:\PROGRAM FILES (X86)\WINDOWS KITS\10\INCLUDE\10.0.17763.0\UCRT\STRING.H
C:\PROGRAM FILES (X86)\WINDOWS KITS\10\INCLUDE\10.0.17763.0\UCRT\CORECRT_MEMORY.H
C:\PROGRAM FILES (X86)\MICROSOFT VISUAL STUDIO\2019\PROFESSIONAL\VC\TOOLS\MSVC\14.20.27508\INCLUDE\UTILITY
C:\PROGRAM FILES (X86)\MICROSOFT VISUAL STUDIO\2019\PROFESSIONAL\VC\TOOLS\MSVC\14.20.27508\INCLUDE\XATOMIC0.H
C:\PROGRAM FILES (X86)\MICROSOFT VISUAL STUDIO\2019\PROFESSIONAL\VC\TOOLS\MSVC\14.20.27508\INCLUDE\INTRIN0.H
C:\PROGRAM FILES (X86)\MICROSOFT VISUAL STUDIO\2019\PROFESSIONAL\VC\TOOLS\MSVC\14.20.27508\INCLUDE\STRING
C:\PROGRAM FILES (X86)\MICROSOFT VISUAL STUDIO\2019\PROFESSIONAL\VC\TOOLS\MSVC\14.20.27508\INCLUDE\XSTRING
C:\PROGRAM FILES (X86)\MICROSOFT VISUAL STUDIO\2019\PROFESSIONAL\VC\TOOLS\MSVC\14.20.27508\INCLUDE\IOSFWD
C:\PROGRAM FILES (X86)\MICROSOFT VISUAL STUDIO\2019\PROFESSIONAL\VC\TOOLS\MSVC\14.20.27508\INCLUDE\CCTYPE
C:\PROGRAM FILES (X86)\WINDOWS KITS\10\INCLUDE\10.0.17763.0\UCRT\CTYPE.H
C:\PROGRAM FILES (X86)\MICROSOFT VISUAL STUDIO\2019\PROFESSIONAL\VC\TOOLS\MSVC\14.20.27508\INCLUDE\VECTOR
C:\USERS\STATSUSER\DESKTOP\SG_START_FRM_CNN\INCLUDE\CAFFE\COMMON.HPP
T:\TOOLKITS\BOOST-1.70.0\BOOST\SHARED_PTR.HPP
T:\TOOLKITS\BOOST-1.70.0\BOOST\SMART_PTR\SHARED_PTR.HPP
T:\TOOLKITS\BOOST-1.70.0\BOOST\CONFIG.HPP
T:\TOOLKITS\BOOST-1.70.0\BOOST\CONFIG\USER.HPP
T:\TOOLKITS\BOOST-1.70.0\BOOST\CONFIG\DETAIL\SELECT_COMPILER_CONFIG.HPP
T:\TOOLKITS\BOOST-1.70.0\BOOST\CONFIG\COMPILER\VISUALC.HPP
T:\TOOLKITS\BOOST-1.70.0\BOOST\CONFIG\PRAGMA_MESSAGE.HPP
T:\TOOLKITS\BOOST-1.70.0\BOOST\CONFIG\HELPER_MACROS.HPP
T:\TOOLKITS\BOOST-1.70.0\BOOST\CONFIG\DETAIL\SELECT_STDLIB_CONFIG.HPP
T:\TOOLKITS\BOOST-1.70.0\BOOST\CONFIG\STDLIB\DINKUMWARE.HPP
C:\PROGRAM FILES (X86)\MICROSOFT VISUAL STUDIO\2019\PROFESSIONAL\VC\TOOLS\MSVC\14.20.27508\INCLUDE\TYPEINFO
C:\PROGRAM FILES (X86)\MICROSOFT VISUAL STUDIO\2019\PROFESSIONAL\VC\TOOLS\MSVC\14.20.27508\INCLUDE\VCRUNTIME_TYPEINFO.H
T:\TOOLKITS\BOOST-1.70.0\BOOST\CONFIG\DETAIL\SELECT_PLATFORM_CONFIG.HPP
T:\TOOLKITS\BOOST-1.70.0\BOOST\CONFIG\PLATFORM\WIN32.HPP
T:\TOOLKITS\BOOST-1.70.0\BOOST\CONFIG\DETAIL\SUFFIX.HPP
T:\TOOLKITS\BOOST-1.70.0\BOOST\CONFIG\NO_TR1\MEMORY.HPP
C:\PROGRAM FILES (X86)\MICROSOFT VISUAL STUDIO\2019\PROFESSIONAL\VC\TOOLS\MSVC\14.20.27508\INCLUDE\MEMORY
T:\TOOLKITS\BOOST-1.70.0\BOOST\ASSERT.HPP
C:\PROGRAM FILES (X86)\WINDOWS KITS\10\INCLUDE\10.0.17763.0\UCRT\ASSERT.H
T:\TOOLKITS\BOOST-1.70.0\BOOST\CHECKED_DELETE.HPP
T:\TOOLKITS\BOOST-1.70.0\BOOST\CORE\CHECKED_DELETE.HPP
T:\TOOLKITS\BOOST-1.70.0\BOOST\THROW_EXCEPTION.HPP
T:\TOOLKITS\BOOST-1.70.0\BOOST\DETAIL\WORKAROUND.HPP
T:\TOOLKITS\BOOST-1.70.0\BOOST\CONFIG\WORKAROUND.HPP
T:\TOOLKITS\BOOST-1.70.0\BOOST\EXCEPTION\EXCEPTION.HPP
T:\TOOLKITS\BOOST-1.70.0\BOOST\CURRENT_FUNCTION.HPP
T:\TOOLKITS\BOOST-1.70.0\BOOST\SMART_PTR\DETAIL\SHARED_COUNT.HPP
T:\TOOLKITS\BOOST-1.70.0\BOOST\SMART_PTR\BAD_WEAK_PTR.HPP
T:\TOOLKITS\BOOST-1.70.0\BOOST\SMART_PTR\DETAIL\SP_COUNTED_BASE.HPP
T:\TOOLKITS\BOOST-1.70.0\BOOST\SMART_PTR\DETAIL\SP_HAS_SYNC.HPP
T:\TOOLKITS\BOOST-1.70.0\BOOST\SMART_PTR\DETAIL\SP_COUNTED_BASE_STD_ATOMIC.HPP
T:\TOOLKITS\BOOST-1.70.0\BOOST\DETAIL\SP_TYPEINFO.HPP
T:\TOOLKITS\BOOST-1.70.0\BOOST\CORE\TYPEINFO.HPP
T:\TOOLKITS\BOOST-1.70.0\BOOST\CORE\DEMANGLE.HPP
T:\TOOLKITS\BOOST-1.70.0\BOOST\SMART_PTR\DETAIL\SP_NOEXCEPT.HPP
C:\PROGRAM FILES (X86)\MICROSOFT VISUAL STUDIO\2019\PROFESSIONAL\VC\TOOLS\MSVC\14.20.27508\INCLUDE\ATOMIC
C:\PROGRAM FILES (X86)\MICROSOFT VISUAL STUDIO\2019\PROFESSIONAL\VC\TOOLS\MSVC\14.20.27508\INCLUDE\XATOMIC.H
C:\PROGRAM FILES (X86)\MICROSOFT VISUAL STUDIO\2019\PROFESSIONAL\VC\TOOLS\MSVC\14.20.27508\INCLUDE\XXATOMIC
T:\TOOLKITS\BOOST-1.70.0\BOOST\SMART_PTR\DETAIL\SP_COUNTED_IMPL.HPP
T:\TOOLKITS\BOOST-1.70.0\BOOST\CORE\ADDRESSOF.HPP
T:\TOOLKITS\BOOST-1.70.0\BOOST\SMART_PTR\DETAIL\SP_DISABLE_DEPRECATED.HPP
C:\PROGRAM FILES (X86)\MICROSOFT VISUAL STUDIO\2019\PROFESSIONAL\VC\TOOLS\MSVC\14.20.27508\INCLUDE\FUNCTIONAL
C:\PROGRAM FILES (X86)\MICROSOFT VISUAL STUDIO\2019\PROFESSIONAL\VC\TOOLS\MSVC\14.20.27508\INCLUDE\TUPLE
T:\TOOLKITS\BOOST-1.70.0\BOOST\SMART_PTR\DETAIL\SP_CONVERTIBLE.HPP
T:\TOOLKITS\BOOST-1.70.0\BOOST\SMART_PTR\DETAIL\SP_NULLPTR_T.HPP
T:\TOOLKITS\BOOST-1.70.0\BOOST\SMART_PTR\DETAIL\SPINLOCK_POOL.HPP
T:\TOOLKITS\BOOST-1.70.0\BOOST\SMART_PTR\DETAIL\SPINLOCK.HPP
T:\TOOLKITS\BOOST-1.70.0\BOOST\SMART_PTR\DETAIL\SPINLOCK_STD_ATOMIC.HPP
T:\TOOLKITS\BOOST-1.70.0\BOOST\SMART_PTR\DETAIL\YIELD_K.HPP
T:\TOOLKITS\BOOST-1.70.0\BOOST\PREDEF\PLATFORM\WINDOWS_RUNTIME.H
T:\TOOLKITS\BOOST-1.70.0\BOOST\PREDEF\MAKE.H
T:\TOOLKITS\BOOST-1.70.0\BOOST\PREDEF\DETAIL\TEST.H
T:\TOOLKITS\BOOST-1.70.0\BOOST\PREDEF\OS\WINDOWS.H
T:\TOOLKITS\BOOST-1.70.0\BOOST\PREDEF\VERSION_NUMBER.H
T:\TOOLKITS\BOOST-1.70.0\BOOST\PREDEF\DETAIL\OS_DETECTED.H
T:\TOOLKITS\BOOST-1.70.0\BOOST\PREDEF\PLATFORM\WINDOWS_PHONE.H
T:\TOOLKITS\BOOST-1.70.0\BOOST\PREDEF\PLATFORM\WINDOWS_UWP.H
C:\PROGRAM FILES (X86)\WINDOWS KITS\10\INCLUDE\10.0.17763.0\SHARED\NTVERP.H
C:\PROGRAM FILES (X86)\WINDOWS KITS\10\INCLUDE\10.0.17763.0\SHARED\NTVERP.VER
T:\TOOLKITS\BOOST-1.70.0\BOOST\PREDEF\DETAIL\PLATFORM_DETECTED.H
C:\PROGRAM FILES (X86)\WINDOWS KITS\10\INCLUDE\10.0.17763.0\SHARED\WINAPIFAMILY.H
C:\PROGRAM FILES (X86)\WINDOWS KITS\10\INCLUDE\10.0.17763.0\SHARED\WINPACKAGEFAMILY.H
T:\TOOLKITS\BOOST-1.70.0\BOOST\PREDEF\PLATFORM\WINDOWS_STORE.H
T:\TOOLKITS\BOOST-1.70.0\BOOST\SMART_PTR\DETAIL\OPERATOR_BOOL.HPP
T:\TOOLKITS\BOOST-1.70.0\BOOST\SMART_PTR\DETAIL\LOCAL_SP_DELETER.HPP
T:\TOOLKITS\BOOST-1.70.0\BOOST\SMART_PTR\DETAIL\LOCAL_COUNTED_BASE.HPP
C:\USERS\STATSUSER\DESKTOP\SG_START_FRM_CNN\INCLUDE\GFLAGS\GFLAGS.H
C:\USERS\STATSUSER\DESKTOP\SG_START_FRM_CNN\INCLUDE\GFLAGS\GFLAGS_DECLARE.H
C:\USERS\STATSUSER\DESKTOP\SG_START_FRM_CNN\INCLUDE\GFLAGS\GFLAGS_GFLAGS.H
C:\USERS\STATSUSER\DESKTOP\SG_START_FRM_CNN\INCLUDE\GLOG\LOGGING.H
C:\PROGRAM FILES (X86)\WINDOWS KITS\10\INCLUDE\10.0.17763.0\UCRT\TIME.H
C:\PROGRAM FILES (X86)\MICROSOFT VISUAL STUDIO\2019\PROFESSIONAL\VC\TOOLS\MSVC\14.20.27508\INCLUDE\OSTREAM
C:\PROGRAM FILES (X86)\MICROSOFT VISUAL STUDIO\2019\PROFESSIONAL\VC\TOOLS\MSVC\14.20.27508\INCLUDE\IOS
C:\PROGRAM FILES (X86)\MICROSOFT VISUAL STUDIO\2019\PROFESSIONAL\VC\TOOLS\MSVC\14.20.27508\INCLUDE\XLOCNUM
C:\PROGRAM FILES (X86)\MICROSOFT VISUAL STUDIO\2019\PROFESSIONAL\VC\TOOLS\MSVC\14.20.27508\INCLUDE\CMATH
C:\PROGRAM FILES (X86)\MICROSOFT VISUAL STUDIO\2019\PROFESSIONAL\VC\TOOLS\MSVC\14.20.27508\INCLUDE\XTGMATH.H
C:\PROGRAM FILES (X86)\MICROSOFT VISUAL STUDIO\2019\PROFESSIONAL\VC\TOOLS\MSVC\14.20.27508\INCLUDE\STREAMBUF
C:\PROGRAM FILES (X86)\MICROSOFT VISUAL STUDIO\2019\PROFESSIONAL\VC\TOOLS\MSVC\14.20.27508\INCLUDE\XIOSBASE
C:\PROGRAM FILES (X86)\WINDOWS KITS\10\INCLUDE\10.0.17763.0\UCRT\SHARE.H
C:\PROGRAM FILES (X86)\MICROSOFT VISUAL STUDIO\2019\PROFESSIONAL\VC\TOOLS\MSVC\14.20.27508\INCLUDE\SYSTEM_ERROR
C:\PROGRAM FILES (X86)\MICROSOFT VISUAL STUDIO\2019\PROFESSIONAL\VC\TOOLS\MSVC\14.20.27508\INCLUDE\CERRNO
C:\PROGRAM FILES (X86)\MICROSOFT VISUAL STUDIO\2019\PROFESSIONAL\VC\TOOLS\MSVC\14.20.27508\INCLUDE\STDEXCEPT
C:\PROGRAM FILES (X86)\MICROSOFT VISUAL STUDIO\2019\PROFESSIONAL\VC\TOOLS\MSVC\14.20.27508\INCLUDE\XCALL_ONCE.H
C:\PROGRAM FILES (X86)\MICROSOFT VISUAL STUDIO\2019\PROFESSIONAL\VC\TOOLS\MSVC\14.20.27508\INCLUDE\XERRC.H
C:\PROGRAM FILES (X86)\MICROSOFT VISUAL STUDIO\2019\PROFESSIONAL\VC\TOOLS\MSVC\14.20.27508\INCLUDE\XLOCALE
C:\PROGRAM FILES (X86)\MICROSOFT VISUAL STUDIO\2019\PROFESSIONAL\VC\TOOLS\MSVC\14.20.27508\INCLUDE\XFACET
C:\PROGRAM FILES (X86)\MICROSOFT VISUAL STUDIO\2019\PROFESSIONAL\VC\TOOLS\MSVC\14.20.27508\INCLUDE\XLOCINFO
C:\PROGRAM FILES (X86)\MICROSOFT VISUAL STUDIO\2019\PROFESSIONAL\VC\TOOLS\MSVC\14.20.27508\INCLUDE\XLOCINFO.H
C:\PROGRAM FILES (X86)\WINDOWS KITS\10\INCLUDE\10.0.17763.0\UCRT\LOCALE.H
C:\PROGRAM FILES (X86)\MICROSOFT VISUAL STUDIO\2019\PROFESSIONAL\VC\TOOLS\MSVC\14.20.27508\INCLUDE\SSTREAM
C:\PROGRAM FILES (X86)\MICROSOFT VISUAL STUDIO\2019\PROFESSIONAL\VC\TOOLS\MSVC\14.20.27508\INCLUDE\ISTREAM
C:\PROGRAM FILES (X86)\WINDOWS KITS\10\INCLUDE\10.0.17763.0\UCRT\INTTYPES.H
C:\USERS\STATSUSER\DESKTOP\SG_START_FRM_CNN\INCLUDE\GLOG\LOG_SEVERITY.H
C:\USERS\STATSUSER\DESKTOP\SG_START_FRM_CNN\INCLUDE\GLOG\VLOG_IS_ON.H
C:\PROGRAM FILES (X86)\MICROSOFT VISUAL STUDIO\2019\PROFESSIONAL\VC\TOOLS\MSVC\14.20.27508\INCLUDE\FSTREAM
C:\PROGRAM FILES (X86)\MICROSOFT VISUAL STUDIO\2019\PROFESSIONAL\VC\TOOLS\MSVC\14.20.27508\INCLUDE\IOSTREAM
C:\PROGRAM FILES (X86)\MICROSOFT VISUAL STUDIO\2019\PROFESSIONAL\VC\TOOLS\MSVC\14.20.27508\INCLUDE\MAP
C:\PROGRAM FILES (X86)\MICROSOFT VISUAL STUDIO\2019\PROFESSIONAL\VC\TOOLS\MSVC\14.20.27508\INCLUDE\XTREE
C:\PROGRAM FILES (X86)\MICROSOFT VISUAL STUDIO\2019\PROFESSIONAL\VC\TOOLS\MSVC\14.20.27508\INCLUDE\SET
C:\USERS\STATSUSER\DESKTOP\SG_START_FRM_CNN\INCLUDE\CAFFE\EXPORT.HPP
C:\USERS\STATSUSER\DESKTOP\SG_START_FRM_CNN\INCLUDE\CAFFE\INCLUDE_SYMBOLS.HPP
C:\USERS\STATSUSER\DESKTOP\SG_START_FRM_CNN\INCLUDE\CAFFE\UTIL\DEVICE_ALTERNATE.HPP
C:\PROGRAM FILES\NVIDIA GPU COMPUTING TOOLKIT\CUDA\V10.1\INCLUDE\CUBLAS_V2.H
C:\PROGRAM FILES\NVIDIA GPU COMPUTING TOOLKIT\CUDA\V10.1\INCLUDE\CUBLAS_API.H
C:\PROGRAM FILES\NVIDIA GPU COMPUTING TOOLKIT\CUDA\V10.1\INCLUDE\DRIVER_TYPES.H
C:\PROGRAM FILES\NVIDIA GPU COMPUTING TOOLKIT\CUDA\V10.1\INCLUDE\CRT\HOST_DEFINES.H
C:\PROGRAM FILES\NVIDIA GPU COMPUTING TOOLKIT\CUDA\V10.1\INCLUDE\VECTOR_TYPES.H
C:\PROGRAM FILES\NVIDIA GPU COMPUTING TOOLKIT\CUDA\V10.1\INCLUDE\CUCOMPLEX.H
C:\PROGRAM FILES\NVIDIA GPU COMPUTING TOOLKIT\CUDA\V10.1\INCLUDE\CUDA_FP16.H
C:\PROGRAM FILES\NVIDIA GPU COMPUTING TOOLKIT\CUDA\V10.1\INCLUDE\CUDA_FP16.HPP
C:\PROGRAM FILES\NVIDIA GPU COMPUTING TOOLKIT\CUDA\V10.1\INCLUDE\LIBRARY_TYPES.H
C:\PROGRAM FILES\NVIDIA GPU COMPUTING TOOLKIT\CUDA\V10.1\INCLUDE\CUDA.H
C:\PROGRAM FILES\NVIDIA GPU COMPUTING TOOLKIT\CUDA\V10.1\INCLUDE\CUDA_RUNTIME.H
C:\PROGRAM FILES\NVIDIA GPU COMPUTING TOOLKIT\CUDA\V10.1\INCLUDE\CRT\HOST_CONFIG.H
C:\PROGRAM FILES\NVIDIA GPU COMPUTING TOOLKIT\CUDA\V10.1\INCLUDE\BUILTIN_TYPES.H
C:\PROGRAM FILES\NVIDIA GPU COMPUTING TOOLKIT\CUDA\V10.1\INCLUDE\DEVICE_TYPES.H
C:\PROGRAM FILES\NVIDIA GPU COMPUTING TOOLKIT\CUDA\V10.1\INCLUDE\SURFACE_TYPES.H
C:\PROGRAM FILES\NVIDIA GPU COMPUTING TOOLKIT\CUDA\V10.1\INCLUDE\TEXTURE_TYPES.H
C:\PROGRAM FILES\NVIDIA GPU COMPUTING TOOLKIT\CUDA\V10.1\INCLUDE\CHANNEL_DESCRIPTOR.H
C:\PROGRAM FILES\NVIDIA GPU COMPUTING TOOLKIT\CUDA\V10.1\INCLUDE\CUDA_RUNTIME_API.H
C:\PROGRAM FILES\NVIDIA GPU COMPUTING TOOLKIT\CUDA\V10.1\INCLUDE\CUDA_DEVICE_RUNTIME_API.H
C:\PROGRAM FILES\NVIDIA GPU COMPUTING TOOLKIT\CUDA\V10.1\INCLUDE\DRIVER_FUNCTIONS.H
C:\PROGRAM FILES\NVIDIA GPU COMPUTING TOOLKIT\CUDA\V10.1\INCLUDE\VECTOR_FUNCTIONS.H
C:\PROGRAM FILES\NVIDIA GPU COMPUTING TOOLKIT\CUDA\V10.1\INCLUDE\VECTOR_FUNCTIONS.HPP
C:\PROGRAM FILES\NVIDIA GPU COMPUTING TOOLKIT\CUDA\V10.1\INCLUDE\CURAND.H
C:\USERS\STATSUSER\DESKTOP\SG_START_FRM_CNN\INCLUDE\CAFFE\PROTO\CAFFE.PB.H
C:\USERS\STATSUSER\DESKTOP\SG_START_FRM_CNN\INCLUDE\GOOGLE\PROTOBUF\STUBS\COMMON.H
C:\USERS\STATSUSER\DESKTOP\SG_START_FRM_CNN\INCLUDE\GOOGLE\PROTOBUF\STUBS\PORT.H
C:\USERS\STATSUSER\DESKTOP\SG_START_FRM_CNN\INCLUDE\GOOGLE\PROTOBUF\STUBS\MACROS.H
C:\USERS\STATSUSER\DESKTOP\SG_START_FRM_CNN\INCLUDE\GOOGLE\PROTOBUF\STUBS\PLATFORM_MACROS.H
C:\USERS\STATSUSER\DESKTOP\SG_START_FRM_CNN\INCLUDE\GOOGLE\PROTOBUF\STUBS\LOGGING.H
C:\USERS\STATSUSER\DESKTOP\SG_START_FRM_CNN\INCLUDE\GOOGLE\PROTOBUF\STUBS\SCOPED_PTR.H
C:\USERS\STATSUSER\DESKTOP\SG_START_FRM_CNN\INCLUDE\GOOGLE\PROTOBUF\STUBS\MUTEX.H
C:\USERS\STATSUSER\DESKTOP\SG_START_FRM_CNN\INCLUDE\GOOGLE\PROTOBUF\STUBS\CALLBACK.H
C:\USERS\STATSUSER\DESKTOP\SG_START_FRM_CNN\INCLUDE\GOOGLE\PROTOBUF\STUBS\TYPE_TRAITS.H
C:\USERS\STATSUSER\DESKTOP\SG_START_FRM_CNN\INCLUDE\GOOGLE\PROTOBUF\STUBS\TEMPLATE_UTIL.H
C:\USERS\STATSUSER\DESKTOP\SG_START_FRM_CNN\INCLUDE\GOOGLE\PROTOBUF\ARENA.H
C:\USERS\STATSUSER\DESKTOP\SG_START_FRM_CNN\INCLUDE\GOOGLE\PROTOBUF\STUBS\ATOMIC_SEQUENCE_NUM.H
C:\USERS\STATSUSER\DESKTOP\SG_START_FRM_CNN\INCLUDE\GOOGLE\PROTOBUF\STUBS\ATOMICOPS.H
C:\USERS\STATSUSER\DESKTOP\SG_START_FRM_CNN\INCLUDE\GOOGLE\PROTOBUF\STUBS\ATOMICOPS_INTERNALS_X86_MSVC.H
C:\USERS\STATSUSER\DESKTOP\SG_START_FRM_CNN\INCLUDE\GOOGLE\PROTOBUF\ARENASTRING.H
C:\USERS\STATSUSER\DESKTOP\SG_START_FRM_CNN\INCLUDE\GOOGLE\PROTOBUF\STUBS\FASTMEM.H
C:\USERS\STATSUSER\DESKTOP\SG_START_FRM_CNN\INCLUDE\GOOGLE\PROTOBUF\GENERATED_MESSAGE_UTIL.H
C:\USERS\STATSUSER\DESKTOP\SG_START_FRM_CNN\INCLUDE\GOOGLE\PROTOBUF\STUBS\ONCE.H
C:\USERS\STATSUSER\DESKTOP\SG_START_FRM_CNN\INCLUDE\GOOGLE\PROTOBUF\HAS_BITS.H
C:\USERS\STATSUSER\DESKTOP\SG_START_FRM_CNN\INCLUDE\GOOGLE\PROTOBUF\METADATA.H
C:\USERS\STATSUSER\DESKTOP\SG_START_FRM_CNN\INCLUDE\GOOGLE\PROTOBUF\UNKNOWN_FIELD_SET.H
C:\USERS\STATSUSER\DESKTOP\SG_START_FRM_CNN\INCLUDE\GOOGLE\PROTOBUF\MESSAGE.H
C:\USERS\STATSUSER\DESKTOP\SG_START_FRM_CNN\INCLUDE\GOOGLE\PROTOBUF\MESSAGE_LITE.H
C:\USERS\STATSUSER\DESKTOP\SG_START_FRM_CNN\INCLUDE\GOOGLE\PROTOBUF\DESCRIPTOR.H
C:\USERS\STATSUSER\DESKTOP\SG_START_FRM_CNN\INCLUDE\GOOGLE\PROTOBUF\STUBS\SHARED_PTR.H
C:\USERS\STATSUSER\DESKTOP\SG_START_FRM_CNN\INCLUDE\GOOGLE\PROTOBUF\REPEATED_FIELD.H
C:\PROGRAM FILES (X86)\MICROSOFT VISUAL STUDIO\2019\PROFESSIONAL\VC\TOOLS\MSVC\14.20.27508\INCLUDE\ITERATOR
C:\USERS\STATSUSER\DESKTOP\SG_START_FRM_CNN\INCLUDE\GOOGLE\PROTOBUF\STUBS\CASTS.H
C:\USERS\STATSUSER\DESKTOP\SG_START_FRM_CNN\INCLUDE\GOOGLE\PROTOBUF\EXTENSION_SET.H
C:\USERS\STATSUSER\DESKTOP\SG_START_FRM_CNN\INCLUDE\GOOGLE\PROTOBUF\GENERATED_ENUM_REFLECTION.H
C:\USERS\STATSUSER\DESKTOP\SG_START_FRM_CNN\INCLUDE\GOOGLE\PROTOBUF\GENERATED_ENUM_UTIL.H
C:\USERS\STATSUSER\DESKTOP\SG_START_FRM_CNN\INCLUDE\CAFFE\SYNCEDMEM.HPP
C:\USERS\STATSUSER\DESKTOP\SG_START_FRM_CNN\INCLUDE\CAFFE\FILLER.HPP
C:\USERS\STATSUSER\DESKTOP\SG_START_FRM_CNN\INCLUDE\CAFFE\UTIL\MATH_FUNCTIONS.HPP
C:\USERS\STATSUSER\DESKTOP\SG_START_FRM_CNN\INCLUDE\CAFFE\UTIL\MKL_ALTERNATE.HPP
C:\USERS\STATSUSER\DESKTOP\SG_START_FRM_CNN\INCLUDE\CBLAS.H
C:\USERS\STATSUSER\DESKTOP\SG_START_FRM_CNN\INCLUDE\OPENBLAS_CONFIG.H
C:\USERS\STATSUSER\DESKTOP\SG_START_FRM_CNN\INCLUDE\CAFFE\LAYER.HPP
C:\USERS\STATSUSER\DESKTOP\SG_START_FRM_CNN\INCLUDE\CAFFE\LAYER_FACTORY.HPP
C:\USERS\STATSUSER\DESKTOP\SG_START_FRM_CNN\INCLUDE\CAFFE\NET.HPP
C:\USERS\STATSUSER\DESKTOP\SG_START_FRM_CNN\INCLUDE\CAFFE\PARALLEL.HPP
C:\USERS\STATSUSER\DESKTOP\SG_START_FRM_CNN\INCLUDE\CAFFE\SOLVER.HPP
T:\TOOLKITS\BOOST-1.70.0\BOOST\FUNCTION.HPP
T:\TOOLKITS\BOOST-1.70.0\BOOST\PREPROCESSOR\ITERATE.HPP
T:\TOOLKITS\BOOST-1.70.0\BOOST\PREPROCESSOR\ITERATION\ITERATE.HPP
T:\TOOLKITS\BOOST-1.70.0\BOOST\PREPROCESSOR\ARITHMETIC\DEC.HPP
T:\TOOLKITS\BOOST-1.70.0\BOOST\PREPROCESSOR\CONFIG\CONFIG.HPP
T:\TOOLKITS\BOOST-1.70.0\BOOST\PREPROCESSOR\ARITHMETIC\INC.HPP
T:\TOOLKITS\BOOST-1.70.0\BOOST\PREPROCESSOR\ARRAY\ELEM.HPP
T:\TOOLKITS\BOOST-1.70.0\BOOST\PREPROCESSOR\ARRAY\DATA.HPP
T:\TOOLKITS\BOOST-1.70.0\BOOST\PREPROCESSOR\TUPLE\ELEM.HPP
T:\TOOLKITS\BOOST-1.70.0\BOOST\PREPROCESSOR\CAT.HPP
T:\TOOLKITS\BOOST-1.70.0\BOOST\PREPROCESSOR\FACILITIES\EXPAND.HPP
T:\TOOLKITS\BOOST-1.70.0\BOOST\PREPROCESSOR\FACILITIES\OVERLOAD.HPP
T:\TOOLKITS\BOOST-1.70.0\BOOST\PREPROCESSOR\VARIADIC\SIZE.HPP
T:\TOOLKITS\BOOST-1.70.0\BOOST\PREPROCESSOR\TUPLE\REM.HPP
T:\TOOLKITS\BOOST-1.70.0\BOOST\PREPROCESSOR\TUPLE\DETAIL\IS_SINGLE_RETURN.HPP
T:\TOOLKITS\BOOST-1.70.0\BOOST\PREPROCESSOR\CONTROL\IIF.HPP
T:\TOOLKITS\BOOST-1.70.0\BOOST\PREPROCESSOR\FACILITIES\IS_1.HPP
T:\TOOLKITS\BOOST-1.70.0\BOOST\PREPROCESSOR\FACILITIES\IS_EMPTY.HPP
T:\TOOLKITS\BOOST-1.70.0\BOOST\PREPROCESSOR\FACILITIES\IS_EMPTY_VARIADIC.HPP
T:\TOOLKITS\BOOST-1.70.0\BOOST\PREPROCESSOR\PUNCTUATION\IS_BEGIN_PARENS.HPP
T:\TOOLKITS\BOOST-1.70.0\BOOST\PREPROCESSOR\PUNCTUATION\DETAIL\IS_BEGIN_PARENS.HPP
T:\TOOLKITS\BOOST-1.70.0\BOOST\PREPROCESSOR\FACILITIES\EMPTY.HPP
T:\TOOLKITS\BOOST-1.70.0\BOOST\PREPROCESSOR\FACILITIES\DETAIL\IS_EMPTY.HPP
T:\TOOLKITS\BOOST-1.70.0\BOOST\PREPROCESSOR\TUPLE\SIZE.HPP
T:\TOOLKITS\BOOST-1.70.0\BOOST\PREPROCESSOR\VARIADIC\ELEM.HPP
T:\TOOLKITS\BOOST-1.70.0\BOOST\PREPROCESSOR\ARRAY\SIZE.HPP
T:\TOOLKITS\BOOST-1.70.0\BOOST\PREPROCESSOR\SLOT\SLOT.HPP
T:\TOOLKITS\BOOST-1.70.0\BOOST\PREPROCESSOR\SLOT\DETAIL\DEF.HPP
T:\TOOLKITS\BOOST-1.70.0\BOOST\FUNCTION\DETAIL\PROLOGUE.HPP
C:\PROGRAM FILES (X86)\MICROSOFT VISUAL STUDIO\2019\PROFESSIONAL\VC\TOOLS\MSVC\14.20.27508\INCLUDE\CASSERT
T:\TOOLKITS\BOOST-1.70.0\BOOST\CONFIG\NO_TR1\FUNCTIONAL.HPP
T:\TOOLKITS\BOOST-1.70.0\BOOST\FUNCTION\FUNCTION_BASE.HPP
T:\TOOLKITS\BOOST-1.70.0\BOOST\INTEGER.HPP
T:\TOOLKITS\BOOST-1.70.0\BOOST\INTEGER_FWD.HPP
T:\TOOLKITS\BOOST-1.70.0\BOOST\LIMITS.HPP
T:\TOOLKITS\BOOST-1.70.0\BOOST\CSTDINT.HPP
T:\TOOLKITS\BOOST-1.70.0\BOOST\INTEGER_TRAITS.HPP
T:\TOOLKITS\BOOST-1.70.0\BOOST\STATIC_ASSERT.HPP
T:\TOOLKITS\BOOST-1.70.0\BOOST\TYPE_INDEX.HPP
T:\TOOLKITS\BOOST-1.70.0\BOOST\TYPE_INDEX\STL_TYPE_INDEX.HPP
T:\TOOLKITS\BOOST-1.70.0\BOOST\TYPE_INDEX\TYPE_INDEX_FACADE.HPP
T:\TOOLKITS\BOOST-1.70.0\BOOST\CONTAINER_HASH\HASH_FWD.HPP
T:\TOOLKITS\BOOST-1.70.0\BOOST\TYPE_TRAITS\CONDITIONAL.HPP
T:\TOOLKITS\BOOST-1.70.0\BOOST\TYPE_TRAITS\IS_CONST.HPP
T:\TOOLKITS\BOOST-1.70.0\BOOST\TYPE_TRAITS\INTEGRAL_CONSTANT.HPP
T:\TOOLKITS\BOOST-1.70.0\BOOST\TYPE_TRAITS\IS_REFERENCE.HPP
T:\TOOLKITS\BOOST-1.70.0\BOOST\TYPE_TRAITS\IS_LVALUE_REFERENCE.HPP
T:\TOOLKITS\BOOST-1.70.0\BOOST\TYPE_TRAITS\IS_RVALUE_REFERENCE.HPP
T:\TOOLKITS\BOOST-1.70.0\BOOST\TYPE_TRAITS\IS_VOLATILE.HPP
T:\TOOLKITS\BOOST-1.70.0\BOOST\TYPE_TRAITS\REMOVE_CV.HPP
T:\TOOLKITS\BOOST-1.70.0\BOOST\TYPE_TRAITS\REMOVE_REFERENCE.HPP
T:\TOOLKITS\BOOST-1.70.0\BOOST\TYPE_TRAITS\HAS_TRIVIAL_COPY.HPP
T:\TOOLKITS\BOOST-1.70.0\BOOST\TYPE_TRAITS\INTRINSICS.HPP
T:\TOOLKITS\BOOST-1.70.0\BOOST\TYPE_TRAITS\DETAIL\CONFIG.HPP
T:\TOOLKITS\BOOST-1.70.0\BOOST\VERSION.HPP
T:\TOOLKITS\BOOST-1.70.0\BOOST\TYPE_TRAITS\IS_POD.HPP
T:\TOOLKITS\BOOST-1.70.0\BOOST\TYPE_TRAITS\IS_VOID.HPP
T:\TOOLKITS\BOOST-1.70.0\BOOST\TYPE_TRAITS\IS_SCALAR.HPP
T:\TOOLKITS\BOOST-1.70.0\BOOST\TYPE_TRAITS\IS_ARITHMETIC.HPP
T:\TOOLKITS\BOOST-1.70.0\BOOST\TYPE_TRAITS\IS_INTEGRAL.HPP
T:\TOOLKITS\BOOST-1.70.0\BOOST\TYPE_TRAITS\IS_FLOATING_POINT.HPP
T:\TOOLKITS\BOOST-1.70.0\BOOST\TYPE_TRAITS\IS_ENUM.HPP
T:\TOOLKITS\BOOST-1.70.0\BOOST\TYPE_TRAITS\IS_POINTER.HPP
T:\TOOLKITS\BOOST-1.70.0\BOOST\TYPE_TRAITS\IS_MEMBER_POINTER.HPP
T:\TOOLKITS\BOOST-1.70.0\BOOST\TYPE_TRAITS\IS_MEMBER_FUNCTION_POINTER.HPP
T:\TOOLKITS\BOOST-1.70.0\BOOST\TYPE_TRAITS\DETAIL\IS_MEMBER_FUNCTION_POINTER_CXX_11.HPP
T:\TOOLKITS\BOOST-1.70.0\BOOST\TYPE_TRAITS\HAS_TRIVIAL_DESTRUCTOR.HPP
T:\TOOLKITS\BOOST-1.70.0\BOOST\TYPE_TRAITS\COMPOSITE_TRAITS.HPP
T:\TOOLKITS\BOOST-1.70.0\BOOST\TYPE_TRAITS\IS_ARRAY.HPP
T:\TOOLKITS\BOOST-1.70.0\BOOST\TYPE_TRAITS\IS_UNION.HPP
T:\TOOLKITS\BOOST-1.70.0\BOOST\REF.HPP
T:\TOOLKITS\BOOST-1.70.0\BOOST\CORE\REF.HPP
T:\TOOLKITS\BOOST-1.70.0\BOOST\TYPE_TRAITS\ALIGNMENT_OF.HPP
T:\TOOLKITS\BOOST-1.70.0\BOOST\TYPE_TRAITS\ENABLE_IF.HPP
T:\TOOLKITS\BOOST-1.70.0\BOOST\FUNCTION_EQUAL.HPP
T:\TOOLKITS\BOOST-1.70.0\BOOST\FUNCTION\FUNCTION_FWD.HPP
T:\TOOLKITS\BOOST-1.70.0\BOOST\MEM_FN.HPP
T:\TOOLKITS\BOOST-1.70.0\BOOST\BIND\MEM_FN.HPP
T:\TOOLKITS\BOOST-1.70.0\BOOST\GET_POINTER.HPP
T:\TOOLKITS\BOOST-1.70.0\BOOST\BIND\MEM_FN_TEMPLATE.HPP
T:\TOOLKITS\BOOST-1.70.0\BOOST\BIND\MEM_FN_CC.HPP
T:\TOOLKITS\BOOST-1.70.0\BOOST\PREPROCESSOR\ENUM.HPP
T:\TOOLKITS\BOOST-1.70.0\BOOST\PREPROCESSOR\REPETITION\ENUM.HPP
T:\TOOLKITS\BOOST-1.70.0\BOOST\PREPROCESSOR\DEBUG\ERROR.HPP
T:\TOOLKITS\BOOST-1.70.0\BOOST\PREPROCESSOR\DETAIL\AUTO_REC.HPP
T:\TOOLKITS\BOOST-1.70.0\BOOST\PREPROCESSOR\PUNCTUATION\COMMA_IF.HPP
T:\TOOLKITS\BOOST-1.70.0\BOOST\PREPROCESSOR\CONTROL\IF.HPP
T:\TOOLKITS\BOOST-1.70.0\BOOST\PREPROCESSOR\LOGICAL\BOOL.HPP
T:\TOOLKITS\BOOST-1.70.0\BOOST\PREPROCESSOR\PUNCTUATION\COMMA.HPP
T:\TOOLKITS\BOOST-1.70.0\BOOST\PREPROCESSOR\REPETITION\REPEAT.HPP
T:\TOOLKITS\BOOST-1.70.0\BOOST\PREPROCESSOR\TUPLE\EAT.HPP
T:\TOOLKITS\BOOST-1.70.0\BOOST\PREPROCESSOR\ENUM_PARAMS.HPP
T:\TOOLKITS\BOOST-1.70.0\BOOST\PREPROCESSOR\REPETITION\ENUM_PARAMS.HPP
T:\TOOLKITS\BOOST-1.70.0\BOOST\PREPROCESSOR\REPEAT.HPP
T:\TOOLKITS\BOOST-1.70.0\BOOST\PREPROCESSOR\INC.HPP
T:\TOOLKITS\BOOST-1.70.0\BOOST\PREPROCESSOR\ITERATION\DETAIL\ITER\FORWARD1.HPP
T:\TOOLKITS\BOOST-1.70.0\BOOST\PREPROCESSOR\ITERATION\DETAIL\BOUNDS\LOWER1.HPP
T:\TOOLKITS\BOOST-1.70.0\BOOST\PREPROCESSOR\SLOT\DETAIL\SHARED.HPP
T:\TOOLKITS\BOOST-1.70.0\BOOST\PREPROCESSOR\ITERATION\DETAIL\BOUNDS\UPPER1.HPP
T:\TOOLKITS\BOOST-1.70.0\BOOST\FUNCTION\DETAIL\FUNCTION_ITERATE.HPP
T:\TOOLKITS\BOOST-1.70.0\BOOST\FUNCTION\DETAIL\MAYBE_INCLUDE.HPP
T:\TOOLKITS\BOOST-1.70.0\BOOST\FUNCTION\FUNCTION_TEMPLATE.HPP
T:\TOOLKITS\BOOST-1.70.0\BOOST\CORE\NO_EXCEPTIONS_SUPPORT.HPP
C:\USERS\STATSUSER\DESKTOP\SG_START_FRM_CNN\INCLUDE\CAFFE\SOLVER_FACTORY.HPP
C:\USERS\STATSUSER\DESKTOP\SG_START_FRM_CNN\INCLUDE\CAFFE\UTIL\BENCHMARK.HPP
T:\TOOLKITS\BOOST-1.70.0\BOOST\DATE_TIME\POSIX_TIME\POSIX_TIME.HPP
T:\TOOLKITS\BOOST-1.70.0\BOOST\DATE_TIME\COMPILER_CONFIG.HPP
T:\TOOLKITS\BOOST-1.70.0\BOOST\DATE_TIME\LOCALE_CONFIG.HPP
T:\TOOLKITS\BOOST-1.70.0\BOOST\CONFIG\AUTO_LINK.HPP
T:\TOOLKITS\BOOST-1.70.0\BOOST\DATE_TIME\POSIX_TIME\PTIME.HPP
T:\TOOLKITS\BOOST-1.70.0\BOOST\DATE_TIME\POSIX_TIME\POSIX_TIME_SYSTEM.HPP
T:\TOOLKITS\BOOST-1.70.0\BOOST\DATE_TIME\POSIX_TIME\POSIX_TIME_CONFIG.HPP
T:\TOOLKITS\BOOST-1.70.0\BOOST\CONFIG\NO_TR1\CMATH.HPP
T:\TOOLKITS\BOOST-1.70.0\BOOST\DATE_TIME\TIME_DURATION.HPP
T:\TOOLKITS\BOOST-1.70.0\BOOST\CORE\ENABLE_IF.HPP
T:\TOOLKITS\BOOST-1.70.0\BOOST\DATE_TIME\SPECIAL_DEFS.HPP
T:\TOOLKITS\BOOST-1.70.0\BOOST\DATE_TIME\TIME_DEFS.HPP
T:\TOOLKITS\BOOST-1.70.0\BOOST\OPERATORS.HPP
T:\TOOLKITS\BOOST-1.70.0\BOOST\DATE_TIME\TIME_RESOLUTION_TRAITS.HPP
C:\PROGRAM FILES (X86)\MICROSOFT VISUAL STUDIO\2019\PROFESSIONAL\VC\TOOLS\MSVC\14.20.27508\INCLUDE\CTIME
T:\TOOLKITS\BOOST-1.70.0\BOOST\DATE_TIME\INT_ADAPTER.HPP
T:\TOOLKITS\BOOST-1.70.0\BOOST\DATE_TIME\GREGORIAN\GREGORIAN_TYPES.HPP
T:\TOOLKITS\BOOST-1.70.0\BOOST\DATE_TIME\DATE.HPP
T:\TOOLKITS\BOOST-1.70.0\BOOST\DATE_TIME\YEAR_MONTH_DAY.HPP
T:\TOOLKITS\BOOST-1.70.0\BOOST\DATE_TIME\PERIOD.HPP
T:\TOOLKITS\BOOST-1.70.0\BOOST\DATE_TIME\GREGORIAN\GREG_CALENDAR.HPP
T:\TOOLKITS\BOOST-1.70.0\BOOST\DATE_TIME\GREGORIAN\GREG_WEEKDAY.HPP
T:\TOOLKITS\BOOST-1.70.0\BOOST\DATE_TIME\CONSTRAINED_VALUE.HPP
T:\TOOLKITS\BOOST-1.70.0\BOOST\MPL\IF.HPP
T:\TOOLKITS\BOOST-1.70.0\BOOST\MPL\AUX_\VALUE_WKND.HPP
T:\TOOLKITS\BOOST-1.70.0\BOOST\MPL\AUX_\STATIC_CAST.HPP
T:\TOOLKITS\BOOST-1.70.0\BOOST\MPL\AUX_\CONFIG\WORKAROUND.HPP
T:\TOOLKITS\BOOST-1.70.0\BOOST\MPL\AUX_\CONFIG\INTEGRAL.HPP
T:\TOOLKITS\BOOST-1.70.0\BOOST\MPL\AUX_\CONFIG\MSVC.HPP
T:\TOOLKITS\BOOST-1.70.0\BOOST\MPL\AUX_\CONFIG\ETI.HPP
T:\TOOLKITS\BOOST-1.70.0\BOOST\MPL\AUX_\NA_SPEC.HPP
T:\TOOLKITS\BOOST-1.70.0\BOOST\MPL\LAMBDA_FWD.HPP
T:\TOOLKITS\BOOST-1.70.0\BOOST\MPL\VOID_FWD.HPP
T:\TOOLKITS\BOOST-1.70.0\BOOST\MPL\AUX_\ADL_BARRIER.HPP
T:\TOOLKITS\BOOST-1.70.0\BOOST\MPL\AUX_\CONFIG\ADL.HPP
T:\TOOLKITS\BOOST-1.70.0\BOOST\MPL\AUX_\CONFIG\INTEL.HPP
T:\TOOLKITS\BOOST-1.70.0\BOOST\MPL\AUX_\CONFIG\GCC.HPP
T:\TOOLKITS\BOOST-1.70.0\BOOST\MPL\AUX_\NA.HPP
T:\TOOLKITS\BOOST-1.70.0\BOOST\MPL\BOOL.HPP
T:\TOOLKITS\BOOST-1.70.0\BOOST\MPL\BOOL_FWD.HPP
T:\TOOLKITS\BOOST-1.70.0\BOOST\MPL\INTEGRAL_C_TAG.HPP
T:\TOOLKITS\BOOST-1.70.0\BOOST\MPL\AUX_\CONFIG\STATIC_CONSTANT.HPP
T:\TOOLKITS\BOOST-1.70.0\BOOST\MPL\AUX_\NA_FWD.HPP
T:\TOOLKITS\BOOST-1.70.0\BOOST\MPL\AUX_\CONFIG\CTPS.HPP
T:\TOOLKITS\BOOST-1.70.0\BOOST\MPL\AUX_\CONFIG\LAMBDA.HPP
T:\TOOLKITS\BOOST-1.70.0\BOOST\MPL\AUX_\CONFIG\TTP.HPP
T:\TOOLKITS\BOOST-1.70.0\BOOST\MPL\INT.HPP
T:\TOOLKITS\BOOST-1.70.0\BOOST\MPL\INT_FWD.HPP
T:\TOOLKITS\BOOST-1.70.0\BOOST\MPL\AUX_\NTTP_DECL.HPP
T:\TOOLKITS\BOOST-1.70.0\BOOST\MPL\AUX_\CONFIG\NTTP.HPP
T:\TOOLKITS\BOOST-1.70.0\BOOST\MPL\AUX_\INTEGRAL_WRAPPER.HPP
T:\TOOLKITS\BOOST-1.70.0\BOOST\MPL\AUX_\LAMBDA_ARITY_PARAM.HPP
T:\TOOLKITS\BOOST-1.70.0\BOOST\MPL\AUX_\TEMPLATE_ARITY_FWD.HPP
T:\TOOLKITS\BOOST-1.70.0\BOOST\MPL\AUX_\ARITY.HPP
T:\TOOLKITS\BOOST-1.70.0\BOOST\MPL\AUX_\CONFIG\DTP.HPP
T:\TOOLKITS\BOOST-1.70.0\BOOST\MPL\AUX_\PREPROCESSOR\PARAMS.HPP
T:\TOOLKITS\BOOST-1.70.0\BOOST\MPL\AUX_\CONFIG\PREPROCESSOR.HPP
T:\TOOLKITS\BOOST-1.70.0\BOOST\PREPROCESSOR\COMMA_IF.HPP
T:\TOOLKITS\BOOST-1.70.0\BOOST\MPL\AUX_\PREPROCESSOR\ENUM.HPP
T:\TOOLKITS\BOOST-1.70.0\BOOST\MPL\AUX_\PREPROCESSOR\DEF_PARAMS_TAIL.HPP
T:\TOOLKITS\BOOST-1.70.0\BOOST\MPL\LIMITS\ARITY.HPP
T:\TOOLKITS\BOOST-1.70.0\BOOST\PREPROCESSOR\LOGICAL\AND.HPP
T:\TOOLKITS\BOOST-1.70.0\BOOST\PREPROCESSOR\LOGICAL\BITAND.HPP
T:\TOOLKITS\BOOST-1.70.0\BOOST\PREPROCESSOR\IDENTITY.HPP
T:\TOOLKITS\BOOST-1.70.0\BOOST\PREPROCESSOR\FACILITIES\IDENTITY.HPP
T:\TOOLKITS\BOOST-1.70.0\BOOST\PREPROCESSOR\EMPTY.HPP
T:\TOOLKITS\BOOST-1.70.0\BOOST\PREPROCESSOR\ARITHMETIC\ADD.HPP
T:\TOOLKITS\BOOST-1.70.0\BOOST\PREPROCESSOR\CONTROL\WHILE.HPP
T:\TOOLKITS\BOOST-1.70.0\BOOST\PREPROCESSOR\LIST\FOLD_LEFT.HPP
T:\TOOLKITS\BOOST-1.70.0\BOOST\PREPROCESSOR\LIST\DETAIL\FOLD_LEFT.HPP
T:\TOOLKITS\BOOST-1.70.0\BOOST\PREPROCESSOR\CONTROL\EXPR_IIF.HPP
T:\TOOLKITS\BOOST-1.70.0\BOOST\PREPROCESSOR\LIST\ADT.HPP
T:\TOOLKITS\BOOST-1.70.0\BOOST\PREPROCESSOR\DETAIL\IS_BINARY.HPP
T:\TOOLKITS\BOOST-1.70.0\BOOST\PREPROCESSOR\DETAIL\CHECK.HPP
T:\TOOLKITS\BOOST-1.70.0\BOOST\PREPROCESSOR\LOGICAL\COMPL.HPP
T:\TOOLKITS\BOOST-1.70.0\BOOST\PREPROCESSOR\LIST\FOLD_RIGHT.HPP
T:\TOOLKITS\BOOST-1.70.0\BOOST\PREPROCESSOR\LIST\DETAIL\FOLD_RIGHT.HPP
T:\TOOLKITS\BOOST-1.70.0\BOOST\PREPROCESSOR\LIST\REVERSE.HPP
T:\TOOLKITS\BOOST-1.70.0\BOOST\PREPROCESSOR\CONTROL\DETAIL\MSVC\WHILE.HPP
T:\TOOLKITS\BOOST-1.70.0\BOOST\PREPROCESSOR\ARITHMETIC\SUB.HPP
T:\TOOLKITS\BOOST-1.70.0\BOOST\MPL\AUX_\CONFIG\OVERLOAD_RESOLUTION.HPP
T:\TOOLKITS\BOOST-1.70.0\BOOST\MPL\AUX_\LAMBDA_SUPPORT.HPP
T:\TOOLKITS\BOOST-1.70.0\BOOST\TYPE_TRAITS\IS_BASE_OF.HPP
T:\TOOLKITS\BOOST-1.70.0\BOOST\TYPE_TRAITS\IS_BASE_AND_DERIVED.HPP
T:\TOOLKITS\BOOST-1.70.0\BOOST\TYPE_TRAITS\IS_SAME.HPP
T:\TOOLKITS\BOOST-1.70.0\BOOST\TYPE_TRAITS\IS_CLASS.HPP
T:\TOOLKITS\BOOST-1.70.0\BOOST\DATE_TIME\DATE_DEFS.HPP
T:\TOOLKITS\BOOST-1.70.0\BOOST\DATE_TIME\GREGORIAN\GREG_DAY_OF_YEAR.HPP
T:\TOOLKITS\BOOST-1.70.0\BOOST\DATE_TIME\GREGORIAN_CALENDAR.HPP
T:\TOOLKITS\BOOST-1.70.0\BOOST\DATE_TIME\GREGORIAN_CALENDAR.IPP
T:\TOOLKITS\BOOST-1.70.0\BOOST\DATE_TIME\GREGORIAN\GREG_YMD.HPP
T:\TOOLKITS\BOOST-1.70.0\BOOST\DATE_TIME\GREGORIAN\GREG_DAY.HPP
T:\TOOLKITS\BOOST-1.70.0\BOOST\DATE_TIME\GREGORIAN\GREG_YEAR.HPP
T:\TOOLKITS\BOOST-1.70.0\BOOST\DATE_TIME\GREGORIAN\GREG_MONTH.HPP
T:\TOOLKITS\BOOST-1.70.0\BOOST\DATE_TIME\GREGORIAN\GREG_DURATION.HPP
T:\TOOLKITS\BOOST-1.70.0\BOOST\DATE_TIME\DATE_DURATION.HPP
T:\TOOLKITS\BOOST-1.70.0\BOOST\DATE_TIME\DATE_DURATION_TYPES.HPP
T:\TOOLKITS\BOOST-1.70.0\BOOST\DATE_TIME\GREGORIAN\GREG_DURATION_TYPES.HPP
T:\TOOLKITS\BOOST-1.70.0\BOOST\DATE_TIME\GREGORIAN\GREG_DATE.HPP
T:\TOOLKITS\BOOST-1.70.0\BOOST\DATE_TIME\ADJUST_FUNCTORS.HPP
T:\TOOLKITS\BOOST-1.70.0\BOOST\DATE_TIME\WRAPPING_INT.HPP
T:\TOOLKITS\BOOST-1.70.0\BOOST\DATE_TIME\DATE_GENERATORS.HPP
T:\TOOLKITS\BOOST-1.70.0\BOOST\DATE_TIME\DATE_CLOCK_DEVICE.HPP
T:\TOOLKITS\BOOST-1.70.0\BOOST\DATE_TIME\C_TIME.HPP
T:\TOOLKITS\BOOST-1.70.0\BOOST\DATE_TIME\DATE_ITERATOR.HPP
T:\TOOLKITS\BOOST-1.70.0\BOOST\DATE_TIME\TIME_SYSTEM_SPLIT.HPP
T:\TOOLKITS\BOOST-1.70.0\BOOST\DATE_TIME\TIME_SYSTEM_COUNTED.HPP
T:\TOOLKITS\BOOST-1.70.0\BOOST\DATE_TIME\TIME.HPP
T:\TOOLKITS\BOOST-1.70.0\BOOST\DATE_TIME\POSIX_TIME\DATE_DURATION_OPERATORS.HPP
T:\TOOLKITS\BOOST-1.70.0\BOOST\DATE_TIME\POSIX_TIME\TIME_FORMATTERS.HPP
T:\TOOLKITS\BOOST-1.70.0\BOOST\DATE_TIME\GREGORIAN\GREGORIAN.HPP
T:\TOOLKITS\BOOST-1.70.0\BOOST\DATE_TIME\GREGORIAN\CONVERSION.HPP
T:\TOOLKITS\BOOST-1.70.0\BOOST\DATE_TIME\GREGORIAN\FORMATTERS.HPP
T:\TOOLKITS\BOOST-1.70.0\BOOST\DATE_TIME\DATE_FORMATTING.HPP
T:\TOOLKITS\BOOST-1.70.0\BOOST\DATE_TIME\ISO_FORMAT.HPP
T:\TOOLKITS\BOOST-1.70.0\BOOST\DATE_TIME\PARSE_FORMAT_BASE.HPP
T:\TOOLKITS\BOOST-1.70.0\BOOST\IO\IOS_STATE.HPP
T:\TOOLKITS\BOOST-1.70.0\BOOST\IO_FWD.HPP
C:\PROGRAM FILES (X86)\MICROSOFT VISUAL STUDIO\2019\PROFESSIONAL\VC\TOOLS\MSVC\14.20.27508\INCLUDE\LOCALE
C:\PROGRAM FILES (X86)\MICROSOFT VISUAL STUDIO\2019\PROFESSIONAL\VC\TOOLS\MSVC\14.20.27508\INCLUDE\XLOCBUF
C:\PROGRAM FILES (X86)\MICROSOFT VISUAL STUDIO\2019\PROFESSIONAL\VC\TOOLS\MSVC\14.20.27508\INCLUDE\XLOCMES
C:\PROGRAM FILES (X86)\MICROSOFT VISUAL STUDIO\2019\PROFESSIONAL\VC\TOOLS\MSVC\14.20.27508\INCLUDE\XLOCMON
C:\PROGRAM FILES (X86)\MICROSOFT VISUAL STUDIO\2019\PROFESSIONAL\VC\TOOLS\MSVC\14.20.27508\INCLUDE\XLOCTIME
C:\PROGRAM FILES (X86)\MICROSOFT VISUAL STUDIO\2019\PROFESSIONAL\VC\TOOLS\MSVC\14.20.27508\INCLUDE\IOMANIP
T:\TOOLKITS\BOOST-1.70.0\BOOST\DATE_TIME\DATE_FORMAT_SIMPLE.HPP
T:\TOOLKITS\BOOST-1.70.0\BOOST\DATE_TIME\GREGORIAN\GREGORIAN_IO.HPP
T:\TOOLKITS\BOOST-1.70.0\BOOST\DATE_TIME\DATE_FACET.HPP
T:\TOOLKITS\BOOST-1.70.0\BOOST\ALGORITHM\STRING\REPLACE.HPP
T:\TOOLKITS\BOOST-1.70.0\BOOST\ALGORITHM\STRING\CONFIG.HPP
T:\TOOLKITS\BOOST-1.70.0\BOOST\RANGE\ITERATOR_RANGE_CORE.HPP
T:\TOOLKITS\BOOST-1.70.0\BOOST\ITERATOR\ITERATOR_TRAITS.HPP
T:\TOOLKITS\BOOST-1.70.0\BOOST\ITERATOR\ITERATOR_FACADE.HPP
T:\TOOLKITS\BOOST-1.70.0\BOOST\ITERATOR\INTEROPERABLE.HPP
T:\TOOLKITS\BOOST-1.70.0\BOOST\MPL\OR.HPP
T:\TOOLKITS\BOOST-1.70.0\BOOST\MPL\AUX_\CONFIG\USE_PREPROCESSED.HPP
T:\TOOLKITS\BOOST-1.70.0\BOOST\MPL\AUX_\NESTED_TYPE_WKND.HPP
T:\TOOLKITS\BOOST-1.70.0\BOOST\MPL\AUX_\INCLUDE_PREPROCESSED.HPP
T:\TOOLKITS\BOOST-1.70.0\BOOST\MPL\AUX_\CONFIG\COMPILER.HPP
T:\TOOLKITS\BOOST-1.70.0\BOOST\PREPROCESSOR\STRINGIZE.HPP
T:\TOOLKITS\BOOST-1.70.0\BOOST\MPL\AUX_\PREPROCESSED\PLAIN\OR.HPP
T:\TOOLKITS\BOOST-1.70.0\BOOST\TYPE_TRAITS\IS_CONVERTIBLE.HPP
T:\TOOLKITS\BOOST-1.70.0\BOOST\TYPE_TRAITS\IS_COMPLETE.HPP
T:\TOOLKITS\BOOST-1.70.0\BOOST\TYPE_TRAITS\DECLVAL.HPP
T:\TOOLKITS\BOOST-1.70.0\BOOST\TYPE_TRAITS\ADD_RVALUE_REFERENCE.HPP
T:\TOOLKITS\BOOST-1.70.0\BOOST\TYPE_TRAITS\IS_FUNCTION.HPP
T:\TOOLKITS\BOOST-1.70.0\BOOST\TYPE_TRAITS\DETAIL\IS_FUNCTION_CXX_11.HPP
T:\TOOLKITS\BOOST-1.70.0\BOOST\TYPE_TRAITS\DETAIL\YES_NO_TYPE.HPP
T:\TOOLKITS\BOOST-1.70.0\BOOST\ITERATOR\DETAIL\CONFIG_DEF.HPP
T:\TOOLKITS\BOOST-1.70.0\BOOST\ITERATOR\DETAIL\CONFIG_UNDEF.HPP
T:\TOOLKITS\BOOST-1.70.0\BOOST\ITERATOR\ITERATOR_CATEGORIES.HPP
T:\TOOLKITS\BOOST-1.70.0\BOOST\MPL\EVAL_IF.HPP
T:\TOOLKITS\BOOST-1.70.0\BOOST\MPL\IDENTITY.HPP
T:\TOOLKITS\BOOST-1.70.0\BOOST\MPL\PLACEHOLDERS.HPP
T:\TOOLKITS\BOOST-1.70.0\BOOST\MPL\ARG.HPP
T:\TOOLKITS\BOOST-1.70.0\BOOST\MPL\ARG_FWD.HPP
T:\TOOLKITS\BOOST-1.70.0\BOOST\MPL\AUX_\NA_ASSERT.HPP
T:\TOOLKITS\BOOST-1.70.0\BOOST\MPL\ASSERT.HPP
T:\TOOLKITS\BOOST-1.70.0\BOOST\MPL\NOT.HPP
T:\TOOLKITS\BOOST-1.70.0\BOOST\MPL\AUX_\YES_NO.HPP
T:\TOOLKITS\BOOST-1.70.0\BOOST\MPL\AUX_\CONFIG\ARRAYS.HPP
T:\TOOLKITS\BOOST-1.70.0\BOOST\MPL\AUX_\CONFIG\GPU.HPP
T:\TOOLKITS\BOOST-1.70.0\BOOST\MPL\AUX_\CONFIG\PP_COUNTER.HPP
T:\TOOLKITS\BOOST-1.70.0\BOOST\MPL\AUX_\ARITY_SPEC.HPP
T:\TOOLKITS\BOOST-1.70.0\BOOST\MPL\AUX_\ARG_TYPEDEF.HPP
T:\TOOLKITS\BOOST-1.70.0\BOOST\MPL\AUX_\PREPROCESSED\PLAIN\ARG.HPP
T:\TOOLKITS\BOOST-1.70.0\BOOST\MPL\AUX_\PREPROCESSED\PLAIN\PLACEHOLDERS.HPP
T:\TOOLKITS\BOOST-1.70.0\BOOST\ITERATOR\DETAIL\FACADE_ITERATOR_CATEGORY.HPP
T:\TOOLKITS\BOOST-1.70.0\BOOST\CORE\USE_DEFAULT.HPP
T:\TOOLKITS\BOOST-1.70.0\BOOST\MPL\AND.HPP
T:\TOOLKITS\BOOST-1.70.0\BOOST\MPL\AUX_\PREPROCESSED\PLAIN\AND.HPP
T:\TOOLKITS\BOOST-1.70.0\BOOST\DETAIL\INDIRECT_TRAITS.HPP
T:\TOOLKITS\BOOST-1.70.0\BOOST\TYPE_TRAITS\REMOVE_POINTER.HPP
T:\TOOLKITS\BOOST-1.70.0\BOOST\DETAIL\SELECT_TYPE.HPP
T:\TOOLKITS\BOOST-1.70.0\BOOST\ITERATOR\DETAIL\ENABLE_IF.HPP
T:\TOOLKITS\BOOST-1.70.0\BOOST\TYPE_TRAITS\ADD_CONST.HPP
T:\TOOLKITS\BOOST-1.70.0\BOOST\TYPE_TRAITS\ADD_POINTER.HPP
T:\TOOLKITS\BOOST-1.70.0\BOOST\TYPE_TRAITS\ADD_LVALUE_REFERENCE.HPP
T:\TOOLKITS\BOOST-1.70.0\BOOST\TYPE_TRAITS\ADD_REFERENCE.HPP
T:\TOOLKITS\BOOST-1.70.0\BOOST\TYPE_TRAITS\REMOVE_CONST.HPP
T:\TOOLKITS\BOOST-1.70.0\BOOST\MPL\ALWAYS.HPP
T:\TOOLKITS\BOOST-1.70.0\BOOST\MPL\AUX_\PREPROCESSOR\DEFAULT_PARAMS.HPP
T:\TOOLKITS\BOOST-1.70.0\BOOST\MPL\APPLY.HPP
T:\TOOLKITS\BOOST-1.70.0\BOOST\MPL\APPLY_FWD.HPP
T:\TOOLKITS\BOOST-1.70.0\BOOST\MPL\AUX_\PREPROCESSED\PLAIN\APPLY_FWD.HPP
T:\TOOLKITS\BOOST-1.70.0\BOOST\MPL\APPLY_WRAP.HPP
T:\TOOLKITS\BOOST-1.70.0\BOOST\MPL\AUX_\HAS_APPLY.HPP
T:\TOOLKITS\BOOST-1.70.0\BOOST\MPL\HAS_XXX.HPP
T:\TOOLKITS\BOOST-1.70.0\BOOST\MPL\AUX_\TYPE_WRAPPER.HPP
T:\TOOLKITS\BOOST-1.70.0\BOOST\MPL\AUX_\CONFIG\HAS_XXX.HPP
T:\TOOLKITS\BOOST-1.70.0\BOOST\MPL\AUX_\CONFIG\MSVC_TYPENAME.HPP
T:\TOOLKITS\BOOST-1.70.0\BOOST\PREPROCESSOR\REPETITION\ENUM_TRAILING_PARAMS.HPP
T:\TOOLKITS\BOOST-1.70.0\BOOST\MPL\AUX_\CONFIG\HAS_APPLY.HPP
T:\TOOLKITS\BOOST-1.70.0\BOOST\MPL\AUX_\MSVC_NEVER_TRUE.HPP
T:\TOOLKITS\BOOST-1.70.0\BOOST\MPL\AUX_\PREPROCESSED\PLAIN\APPLY_WRAP.HPP
T:\TOOLKITS\BOOST-1.70.0\BOOST\MPL\LAMBDA.HPP
T:\TOOLKITS\BOOST-1.70.0\BOOST\MPL\BIND.HPP
T:\TOOLKITS\BOOST-1.70.0\BOOST\MPL\BIND_FWD.HPP
T:\TOOLKITS\BOOST-1.70.0\BOOST\MPL\AUX_\CONFIG\BIND.HPP
T:\TOOLKITS\BOOST-1.70.0\BOOST\MPL\AUX_\PREPROCESSED\PLAIN\BIND_FWD.HPP
T:\TOOLKITS\BOOST-1.70.0\BOOST\MPL\NEXT.HPP
T:\TOOLKITS\BOOST-1.70.0\BOOST\MPL\NEXT_PRIOR.HPP
T:\TOOLKITS\BOOST-1.70.0\BOOST\MPL\AUX_\COMMON_NAME_WKND.HPP
T:\TOOLKITS\BOOST-1.70.0\BOOST\MPL\PROTECT.HPP
T:\TOOLKITS\BOOST-1.70.0\BOOST\MPL\AUX_\PREPROCESSED\PLAIN\BIND.HPP
T:\TOOLKITS\BOOST-1.70.0\BOOST\MPL\AUX_\FULL_LAMBDA.HPP
T:\TOOLKITS\BOOST-1.70.0\BOOST\MPL\QUOTE.HPP
T:\TOOLKITS\BOOST-1.70.0\BOOST\MPL\VOID.HPP
T:\TOOLKITS\BOOST-1.70.0\BOOST\MPL\AUX_\HAS_TYPE.HPP
T:\TOOLKITS\BOOST-1.70.0\BOOST\MPL\AUX_\CONFIG\BCC.HPP
T:\TOOLKITS\BOOST-1.70.0\BOOST\MPL\AUX_\PREPROCESSED\PLAIN\QUOTE.HPP
T:\TOOLKITS\BOOST-1.70.0\BOOST\MPL\AUX_\TEMPLATE_ARITY.HPP
T:\TOOLKITS\BOOST-1.70.0\BOOST\MPL\AUX_\PREPROCESSED\PLAIN\TEMPLATE_ARITY.HPP
T:\TOOLKITS\BOOST-1.70.0\BOOST\MPL\AUX_\PREPROCESSED\PLAIN\FULL_LAMBDA.HPP
T:\TOOLKITS\BOOST-1.70.0\BOOST\MPL\AUX_\PREPROCESSED\PLAIN\APPLY.HPP
T:\TOOLKITS\BOOST-1.70.0\BOOST\TYPE_TRAITS\IS_ABSTRACT.HPP
T:\TOOLKITS\BOOST-1.70.0\BOOST\RANGE\FUNCTIONS.HPP
T:\TOOLKITS\BOOST-1.70.0\BOOST\RANGE\BEGIN.HPP
T:\TOOLKITS\BOOST-1.70.0\BOOST\RANGE\CONFIG.HPP
T:\TOOLKITS\BOOST-1.70.0\BOOST\RANGE\ITERATOR.HPP
T:\TOOLKITS\BOOST-1.70.0\BOOST\RANGE\RANGE_FWD.HPP
T:\TOOLKITS\BOOST-1.70.0\BOOST\RANGE\MUTABLE_ITERATOR.HPP
T:\TOOLKITS\BOOST-1.70.0\BOOST\RANGE\DETAIL\EXTRACT_OPTIONAL_TYPE.HPP
T:\TOOLKITS\BOOST-1.70.0\BOOST\RANGE\DETAIL\MSVC_HAS_ITERATOR_WORKAROUND.HPP
T:\TOOLKITS\BOOST-1.70.0\BOOST\RANGE\CONST_ITERATOR.HPP
T:\TOOLKITS\BOOST-1.70.0\BOOST\RANGE\END.HPP
T:\TOOLKITS\BOOST-1.70.0\BOOST\RANGE\DETAIL\IMPLEMENTATION_HELP.HPP
T:\TOOLKITS\BOOST-1.70.0\BOOST\RANGE\DETAIL\COMMON.HPP
T:\TOOLKITS\BOOST-1.70.0\BOOST\RANGE\DETAIL\SFINAE.HPP
T:\TOOLKITS\BOOST-1.70.0\BOOST\RANGE\SIZE.HPP
T:\TOOLKITS\BOOST-1.70.0\BOOST\RANGE\SIZE_TYPE.HPP
T:\TOOLKITS\BOOST-1.70.0\BOOST\RANGE\DIFFERENCE_TYPE.HPP
T:\TOOLKITS\BOOST-1.70.0\BOOST\RANGE\HAS_RANGE_ITERATOR.HPP
T:\TOOLKITS\BOOST-1.70.0\BOOST\UTILITY\ENABLE_IF.HPP
T:\TOOLKITS\BOOST-1.70.0\BOOST\RANGE\CONCEPTS.HPP
T:\TOOLKITS\BOOST-1.70.0\BOOST\CONCEPT_CHECK.HPP
T:\TOOLKITS\BOOST-1.70.0\BOOST\CONCEPT\ASSERT.HPP
T:\TOOLKITS\BOOST-1.70.0\BOOST\CONCEPT\DETAIL\MSVC.HPP
T:\TOOLKITS\BOOST-1.70.0\BOOST\CONCEPT\DETAIL\BACKWARD_COMPATIBILITY.HPP
T:\TOOLKITS\BOOST-1.70.0\BOOST\CONCEPT\DETAIL\HAS_CONSTRAINTS.HPP
T:\TOOLKITS\BOOST-1.70.0\BOOST\TYPE_TRAITS\CONVERSION_TRAITS.HPP
T:\TOOLKITS\BOOST-1.70.0\BOOST\CONCEPT\USAGE.HPP
T:\TOOLKITS\BOOST-1.70.0\BOOST\CONCEPT\DETAIL\CONCEPT_DEF.HPP
T:\TOOLKITS\BOOST-1.70.0\BOOST\PREPROCESSOR\SEQ\FOR_EACH_I.HPP
T:\TOOLKITS\BOOST-1.70.0\BOOST\PREPROCESSOR\REPETITION\FOR.HPP
T:\TOOLKITS\BOOST-1.70.0\BOOST\PREPROCESSOR\REPETITION\DETAIL\MSVC\FOR.HPP
T:\TOOLKITS\BOOST-1.70.0\BOOST\PREPROCESSOR\SEQ\SEQ.HPP
T:\TOOLKITS\BOOST-1.70.0\BOOST\PREPROCESSOR\SEQ\ELEM.HPP
T:\TOOLKITS\BOOST-1.70.0\BOOST\PREPROCESSOR\SEQ\SIZE.HPP
T:\TOOLKITS\BOOST-1.70.0\BOOST\PREPROCESSOR\SEQ\DETAIL\IS_EMPTY.HPP
T:\TOOLKITS\BOOST-1.70.0\BOOST\PREPROCESSOR\SEQ\ENUM.HPP
T:\TOOLKITS\BOOST-1.70.0\BOOST\CONCEPT\DETAIL\CONCEPT_UNDEF.HPP
T:\TOOLKITS\BOOST-1.70.0\BOOST\ITERATOR\ITERATOR_CONCEPTS.HPP
T:\TOOLKITS\BOOST-1.70.0\BOOST\RANGE\VALUE_TYPE.HPP
T:\TOOLKITS\BOOST-1.70.0\BOOST\RANGE\DETAIL\MISC_CONCEPT.HPP
T:\TOOLKITS\BOOST-1.70.0\BOOST\TYPE_TRAITS\MAKE_UNSIGNED.HPP
T:\TOOLKITS\BOOST-1.70.0\BOOST\TYPE_TRAITS\IS_SIGNED.HPP
T:\TOOLKITS\BOOST-1.70.0\BOOST\TYPE_TRAITS\IS_UNSIGNED.HPP
T:\TOOLKITS\BOOST-1.70.0\BOOST\TYPE_TRAITS\ADD_VOLATILE.HPP
T:\TOOLKITS\BOOST-1.70.0\BOOST\RANGE\DETAIL\HAS_MEMBER_SIZE.HPP
T:\TOOLKITS\BOOST-1.70.0\BOOST\UTILITY.HPP
T:\TOOLKITS\BOOST-1.70.0\BOOST\UTILITY\BASE_FROM_MEMBER.HPP
T:\TOOLKITS\BOOST-1.70.0\BOOST\PREPROCESSOR\REPETITION\ENUM_BINARY_PARAMS.HPP
T:\TOOLKITS\BOOST-1.70.0\BOOST\PREPROCESSOR\REPETITION\REPEAT_FROM_TO.HPP
T:\TOOLKITS\BOOST-1.70.0\BOOST\UTILITY\BINARY.HPP
T:\TOOLKITS\BOOST-1.70.0\BOOST\PREPROCESSOR\CONTROL\DEDUCE_D.HPP
T:\TOOLKITS\BOOST-1.70.0\BOOST\PREPROCESSOR\SEQ\CAT.HPP
T:\TOOLKITS\BOOST-1.70.0\BOOST\PREPROCESSOR\SEQ\FOLD_LEFT.HPP
T:\TOOLKITS\BOOST-1.70.0\BOOST\PREPROCESSOR\SEQ\TRANSFORM.HPP
T:\TOOLKITS\BOOST-1.70.0\BOOST\PREPROCESSOR\ARITHMETIC\MOD.HPP
T:\TOOLKITS\BOOST-1.70.0\BOOST\PREPROCESSOR\ARITHMETIC\DETAIL\DIV_BASE.HPP
T:\TOOLKITS\BOOST-1.70.0\BOOST\PREPROCESSOR\COMPARISON\LESS_EQUAL.HPP
T:\TOOLKITS\BOOST-1.70.0\BOOST\PREPROCESSOR\LOGICAL\NOT.HPP
T:\TOOLKITS\BOOST-1.70.0\BOOST\UTILITY\IDENTITY_TYPE.HPP
T:\TOOLKITS\BOOST-1.70.0\BOOST\TYPE_TRAITS\FUNCTION_TRAITS.HPP
T:\TOOLKITS\BOOST-1.70.0\BOOST\CORE\NONCOPYABLE.HPP
T:\TOOLKITS\BOOST-1.70.0\BOOST\RANGE\DISTANCE.HPP
T:\TOOLKITS\BOOST-1.70.0\BOOST\ITERATOR\DISTANCE.HPP
T:\TOOLKITS\BOOST-1.70.0\BOOST\RANGE\EMPTY.HPP
T:\TOOLKITS\BOOST-1.70.0\BOOST\RANGE\RBEGIN.HPP
T:\TOOLKITS\BOOST-1.70.0\BOOST\RANGE\REVERSE_ITERATOR.HPP
T:\TOOLKITS\BOOST-1.70.0\BOOST\ITERATOR\REVERSE_ITERATOR.HPP
T:\TOOLKITS\BOOST-1.70.0\BOOST\ITERATOR\ITERATOR_ADAPTOR.HPP
T:\TOOLKITS\BOOST-1.70.0\BOOST\RANGE\REND.HPP
T:\TOOLKITS\BOOST-1.70.0\BOOST\RANGE\ALGORITHM\EQUAL.HPP
T:\TOOLKITS\BOOST-1.70.0\BOOST\RANGE\DETAIL\SAFE_BOOL.HPP
T:\TOOLKITS\BOOST-1.70.0\BOOST\NEXT_PRIOR.HPP
T:\TOOLKITS\BOOST-1.70.0\BOOST\TYPE_TRAITS\HAS_PLUS.HPP
T:\TOOLKITS\BOOST-1.70.0\BOOST\TYPE_TRAITS\DETAIL\HAS_BINARY_OPERATOR.HPP
T:\TOOLKITS\BOOST-1.70.0\BOOST\TYPE_TRAITS\MAKE_VOID.HPP
T:\TOOLKITS\BOOST-1.70.0\BOOST\TYPE_TRAITS\HAS_PLUS_ASSIGN.HPP
T:\TOOLKITS\BOOST-1.70.0\BOOST\TYPE_TRAITS\HAS_MINUS.HPP
T:\TOOLKITS\BOOST-1.70.0\BOOST\TYPE_TRAITS\HAS_MINUS_ASSIGN.HPP
T:\TOOLKITS\BOOST-1.70.0\BOOST\ITERATOR\ADVANCE.HPP
T:\TOOLKITS\BOOST-1.70.0\BOOST\ALGORITHM\STRING\FIND_FORMAT.HPP
C:\PROGRAM FILES (X86)\MICROSOFT VISUAL STUDIO\2019\PROFESSIONAL\VC\TOOLS\MSVC\14.20.27508\INCLUDE\DEQUE
T:\TOOLKITS\BOOST-1.70.0\BOOST\DETAIL\ITERATOR.HPP
T:\TOOLKITS\BOOST-1.70.0\BOOST\RANGE\AS_LITERAL.HPP
T:\TOOLKITS\BOOST-1.70.0\BOOST\RANGE\ITERATOR_RANGE.HPP
T:\TOOLKITS\BOOST-1.70.0\BOOST\RANGE\ITERATOR_RANGE_IO.HPP
T:\TOOLKITS\BOOST-1.70.0\BOOST\RANGE\DETAIL\STR_TYPES.HPP
T:\TOOLKITS\BOOST-1.70.0\BOOST\ALGORITHM\STRING\CONCEPT.HPP
T:\TOOLKITS\BOOST-1.70.0\BOOST\ALGORITHM\STRING\DETAIL\FIND_FORMAT.HPP
T:\TOOLKITS\BOOST-1.70.0\BOOST\ALGORITHM\STRING\DETAIL\FIND_FORMAT_STORE.HPP
T:\TOOLKITS\BOOST-1.70.0\BOOST\ALGORITHM\STRING\DETAIL\REPLACE_STORAGE.HPP
T:\TOOLKITS\BOOST-1.70.0\BOOST\ALGORITHM\STRING\SEQUENCE_TRAITS.HPP
T:\TOOLKITS\BOOST-1.70.0\BOOST\ALGORITHM\STRING\YES_NO_TYPE.HPP
T:\TOOLKITS\BOOST-1.70.0\BOOST\ALGORITHM\STRING\DETAIL\SEQUENCE.HPP
T:\TOOLKITS\BOOST-1.70.0\BOOST\MPL\LOGICAL.HPP
T:\TOOLKITS\BOOST-1.70.0\BOOST\ALGORITHM\STRING\DETAIL\FIND_FORMAT_ALL.HPP
T:\TOOLKITS\BOOST-1.70.0\BOOST\ALGORITHM\STRING\FINDER.HPP
T:\TOOLKITS\BOOST-1.70.0\BOOST\ALGORITHM\STRING\CONSTANTS.HPP
T:\TOOLKITS\BOOST-1.70.0\BOOST\ALGORITHM\STRING\DETAIL\FINDER.HPP
T:\TOOLKITS\BOOST-1.70.0\BOOST\ALGORITHM\STRING\COMPARE.HPP
T:\TOOLKITS\BOOST-1.70.0\BOOST\ALGORITHM\STRING\FORMATTER.HPP
T:\TOOLKITS\BOOST-1.70.0\BOOST\ALGORITHM\STRING\DETAIL\FORMATTER.HPP
T:\TOOLKITS\BOOST-1.70.0\BOOST\ALGORITHM\STRING\DETAIL\UTIL.HPP
T:\TOOLKITS\BOOST-1.70.0\BOOST\DATE_TIME\SPECIAL_VALUES_FORMATTER.HPP
T:\TOOLKITS\BOOST-1.70.0\BOOST\DATE_TIME\PERIOD_FORMATTER.HPP
T:\TOOLKITS\BOOST-1.70.0\BOOST\DATE_TIME\PERIOD_PARSER.HPP
T:\TOOLKITS\BOOST-1.70.0\BOOST\DATE_TIME\STRING_PARSE_TREE.HPP
T:\TOOLKITS\BOOST-1.70.0\BOOST\LEXICAL_CAST.HPP
T:\TOOLKITS\BOOST-1.70.0\BOOST\LEXICAL_CAST\BAD_LEXICAL_CAST.HPP
T:\TOOLKITS\BOOST-1.70.0\BOOST\LEXICAL_CAST\TRY_LEXICAL_CONVERT.HPP
T:\TOOLKITS\BOOST-1.70.0\BOOST\TYPE_TRAITS\TYPE_IDENTITY.HPP
T:\TOOLKITS\BOOST-1.70.0\BOOST\LEXICAL_CAST\DETAIL\IS_CHARACTER.HPP
T:\TOOLKITS\BOOST-1.70.0\BOOST\LEXICAL_CAST\DETAIL\CONVERTER_NUMERIC.HPP
T:\TOOLKITS\BOOST-1.70.0\BOOST\TYPE_TRAITS\IS_FLOAT.HPP
T:\TOOLKITS\BOOST-1.70.0\BOOST\NUMERIC\CONVERSION\CAST.HPP
T:\TOOLKITS\BOOST-1.70.0\BOOST\TYPE.HPP
T:\TOOLKITS\BOOST-1.70.0\BOOST\NUMERIC\CONVERSION\CONVERTER.HPP
T:\TOOLKITS\BOOST-1.70.0\BOOST\NUMERIC\CONVERSION\CONVERSION_TRAITS.HPP
T:\TOOLKITS\BOOST-1.70.0\BOOST\NUMERIC\CONVERSION\DETAIL\CONVERSION_TRAITS.HPP
T:\TOOLKITS\BOOST-1.70.0\BOOST\NUMERIC\CONVERSION\DETAIL\META.HPP
T:\TOOLKITS\BOOST-1.70.0\BOOST\MPL\EQUAL_TO.HPP
T:\TOOLKITS\BOOST-1.70.0\BOOST\MPL\AUX_\COMPARISON_OP.HPP
T:\TOOLKITS\BOOST-1.70.0\BOOST\MPL\AUX_\NUMERIC_OP.HPP
T:\TOOLKITS\BOOST-1.70.0\BOOST\MPL\NUMERIC_CAST.HPP
T:\TOOLKITS\BOOST-1.70.0\BOOST\MPL\TAG.HPP
T:\TOOLKITS\BOOST-1.70.0\BOOST\MPL\AUX_\HAS_TAG.HPP
T:\TOOLKITS\BOOST-1.70.0\BOOST\MPL\AUX_\NUMERIC_CAST_UTILS.HPP
T:\TOOLKITS\BOOST-1.70.0\BOOST\MPL\AUX_\CONFIG\FORWARDING.HPP
T:\TOOLKITS\BOOST-1.70.0\BOOST\MPL\AUX_\MSVC_ETI_BASE.HPP
T:\TOOLKITS\BOOST-1.70.0\BOOST\MPL\AUX_\IS_MSVC_ETI_ARG.HPP
T:\TOOLKITS\BOOST-1.70.0\BOOST\MPL\AUX_\PREPROCESSED\PLAIN\EQUAL_TO.HPP
T:\TOOLKITS\BOOST-1.70.0\BOOST\NUMERIC\CONVERSION\DETAIL\INT_FLOAT_MIXTURE.HPP
T:\TOOLKITS\BOOST-1.70.0\BOOST\NUMERIC\CONVERSION\INT_FLOAT_MIXTURE_ENUM.HPP
T:\TOOLKITS\BOOST-1.70.0\BOOST\MPL\INTEGRAL_C.HPP
T:\TOOLKITS\BOOST-1.70.0\BOOST\MPL\INTEGRAL_C_FWD.HPP
T:\TOOLKITS\BOOST-1.70.0\BOOST\NUMERIC\CONVERSION\DETAIL\SIGN_MIXTURE.HPP
T:\TOOLKITS\BOOST-1.70.0\BOOST\NUMERIC\CONVERSION\SIGN_MIXTURE_ENUM.HPP
T:\TOOLKITS\BOOST-1.70.0\BOOST\NUMERIC\CONVERSION\DETAIL\UDT_BUILTIN_MIXTURE.HPP
T:\TOOLKITS\BOOST-1.70.0\BOOST\NUMERIC\CONVERSION\UDT_BUILTIN_MIXTURE_ENUM.HPP
T:\TOOLKITS\BOOST-1.70.0\BOOST\NUMERIC\CONVERSION\DETAIL\IS_SUBRANGED.HPP
T:\TOOLKITS\BOOST-1.70.0\BOOST\MPL\MULTIPLIES.HPP
T:\TOOLKITS\BOOST-1.70.0\BOOST\MPL\TIMES.HPP
T:\TOOLKITS\BOOST-1.70.0\BOOST\MPL\AUX_\ARITHMETIC_OP.HPP
T:\TOOLKITS\BOOST-1.70.0\BOOST\MPL\AUX_\LARGEST_INT.HPP
T:\TOOLKITS\BOOST-1.70.0\BOOST\MPL\AUX_\PREPROCESSED\PLAIN\TIMES.HPP
T:\TOOLKITS\BOOST-1.70.0\BOOST\MPL\LESS.HPP
T:\TOOLKITS\BOOST-1.70.0\BOOST\MPL\AUX_\PREPROCESSED\PLAIN\LESS.HPP
T:\TOOLKITS\BOOST-1.70.0\BOOST\NUMERIC\CONVERSION\CONVERTER_POLICIES.HPP
T:\TOOLKITS\BOOST-1.70.0\BOOST\NUMERIC\CONVERSION\DETAIL\CONVERTER.HPP
T:\TOOLKITS\BOOST-1.70.0\BOOST\NUMERIC\CONVERSION\BOUNDS.HPP
T:\TOOLKITS\BOOST-1.70.0\BOOST\NUMERIC\CONVERSION\DETAIL\BOUNDS.HPP
T:\TOOLKITS\BOOST-1.70.0\BOOST\NUMERIC\CONVERSION\NUMERIC_CAST_TRAITS.HPP
T:\TOOLKITS\BOOST-1.70.0\BOOST\NUMERIC\CONVERSION\DETAIL\NUMERIC_CAST_TRAITS.HPP
T:\TOOLKITS\BOOST-1.70.0\BOOST\NUMERIC\CONVERSION\DETAIL\PREPROCESSED\NUMERIC_CAST_TRAITS_COMMON.HPP
T:\TOOLKITS\BOOST-1.70.0\BOOST\NUMERIC\CONVERSION\DETAIL\PREPROCESSED\NUMERIC_CAST_TRAITS_LONG_LONG.HPP
T:\TOOLKITS\BOOST-1.70.0\BOOST\LEXICAL_CAST\DETAIL\CONVERTER_LEXICAL.HPP
T:\TOOLKITS\BOOST-1.70.0\BOOST\TYPE_TRAITS\HAS_LEFT_SHIFT.HPP
T:\TOOLKITS\BOOST-1.70.0\BOOST\TYPE_TRAITS\HAS_RIGHT_SHIFT.HPP
T:\TOOLKITS\BOOST-1.70.0\BOOST\DETAIL\LCAST_PRECISION.HPP
T:\TOOLKITS\BOOST-1.70.0\BOOST\LEXICAL_CAST\DETAIL\WIDEST_CHAR.HPP
C:\PROGRAM FILES (X86)\MICROSOFT VISUAL STUDIO\2019\PROFESSIONAL\VC\TOOLS\MSVC\14.20.27508\INCLUDE\ARRAY
T:\TOOLKITS\BOOST-1.70.0\BOOST\ARRAY.HPP
T:\TOOLKITS\BOOST-1.70.0\BOOST\SWAP.HPP
T:\TOOLKITS\BOOST-1.70.0\BOOST\CORE\SWAP.HPP
T:\TOOLKITS\BOOST-1.70.0\BOOST\CONTAINER\CONTAINER_FWD.HPP
T:\TOOLKITS\BOOST-1.70.0\BOOST\CONTAINER\DETAIL\STD_FWD.HPP
T:\TOOLKITS\BOOST-1.70.0\BOOST\MOVE\DETAIL\STD_NS_BEGIN.HPP
T:\TOOLKITS\BOOST-1.70.0\BOOST\MOVE\DETAIL\STD_NS_END.HPP
T:\TOOLKITS\BOOST-1.70.0\BOOST\LEXICAL_CAST\DETAIL\CONVERTER_LEXICAL_STREAMS.HPP
T:\TOOLKITS\BOOST-1.70.0\BOOST\LEXICAL_CAST\DETAIL\LCAST_CHAR_CONSTANTS.HPP
T:\TOOLKITS\BOOST-1.70.0\BOOST\LEXICAL_CAST\DETAIL\LCAST_UNSIGNED_CONVERTERS.HPP
T:\TOOLKITS\BOOST-1.70.0\BOOST\NONCOPYABLE.HPP
T:\TOOLKITS\BOOST-1.70.0\BOOST\LEXICAL_CAST\DETAIL\INF_NAN.HPP
T:\TOOLKITS\BOOST-1.70.0\BOOST\MATH\SPECIAL_FUNCTIONS\SIGN.HPP
T:\TOOLKITS\BOOST-1.70.0\BOOST\MATH\TOOLS\CONFIG.HPP
T:\TOOLKITS\BOOST-1.70.0\BOOST\PREDEF\ARCHITECTURE\X86.H
T:\TOOLKITS\BOOST-1.70.0\BOOST\PREDEF\ARCHITECTURE\X86\32.H
T:\TOOLKITS\BOOST-1.70.0\BOOST\PREDEF\ARCHITECTURE\X86\64.H
T:\TOOLKITS\BOOST-1.70.0\BOOST\MATH\TOOLS\USER.HPP
T:\TOOLKITS\BOOST-1.70.0\BOOST\MATH\SPECIAL_FUNCTIONS\MATH_FWD.HPP
T:\TOOLKITS\BOOST-1.70.0\BOOST\MATH\SPECIAL_FUNCTIONS\DETAIL\ROUND_FWD.HPP
T:\TOOLKITS\BOOST-1.70.0\BOOST\MATH\TOOLS\PROMOTION.HPP
T:\TOOLKITS\BOOST-1.70.0\BOOST\MATH\POLICIES\POLICY.HPP
T:\TOOLKITS\BOOST-1.70.0\BOOST\MPL\LIST.HPP
T:\TOOLKITS\BOOST-1.70.0\BOOST\MPL\LIMITS\LIST.HPP
T:\TOOLKITS\BOOST-1.70.0\BOOST\MPL\LIST\LIST20.HPP
T:\TOOLKITS\BOOST-1.70.0\BOOST\MPL\LIST\LIST10.HPP
T:\TOOLKITS\BOOST-1.70.0\BOOST\MPL\LIST\LIST0.HPP
T:\TOOLKITS\BOOST-1.70.0\BOOST\MPL\LONG.HPP
T:\TOOLKITS\BOOST-1.70.0\BOOST\MPL\LONG_FWD.HPP
T:\TOOLKITS\BOOST-1.70.0\BOOST\MPL\LIST\AUX_\PUSH_FRONT.HPP
T:\TOOLKITS\BOOST-1.70.0\BOOST\MPL\PUSH_FRONT_FWD.HPP
T:\TOOLKITS\BOOST-1.70.0\BOOST\MPL\LIST\AUX_\ITEM.HPP
T:\TOOLKITS\BOOST-1.70.0\BOOST\MPL\LIST\AUX_\TAG.HPP
T:\TOOLKITS\BOOST-1.70.0\BOOST\MPL\LIST\AUX_\POP_FRONT.HPP
T:\TOOLKITS\BOOST-1.70.0\BOOST\MPL\POP_FRONT_FWD.HPP
T:\TOOLKITS\BOOST-1.70.0\BOOST\MPL\LIST\AUX_\PUSH_BACK.HPP
T:\TOOLKITS\BOOST-1.70.0\BOOST\MPL\PUSH_BACK_FWD.HPP
T:\TOOLKITS\BOOST-1.70.0\BOOST\MPL\LIST\AUX_\FRONT.HPP
T:\TOOLKITS\BOOST-1.70.0\BOOST\MPL\FRONT_FWD.HPP
T:\TOOLKITS\BOOST-1.70.0\BOOST\MPL\LIST\AUX_\CLEAR.HPP
T:\TOOLKITS\BOOST-1.70.0\BOOST\MPL\CLEAR_FWD.HPP
T:\TOOLKITS\BOOST-1.70.0\BOOST\MPL\LIST\AUX_\O1_SIZE.HPP
T:\TOOLKITS\BOOST-1.70.0\BOOST\MPL\O1_SIZE_FWD.HPP
T:\TOOLKITS\BOOST-1.70.0\BOOST\MPL\LIST\AUX_\SIZE.HPP
T:\TOOLKITS\BOOST-1.70.0\BOOST\MPL\SIZE_FWD.HPP
T:\TOOLKITS\BOOST-1.70.0\BOOST\MPL\LIST\AUX_\EMPTY.HPP
T:\TOOLKITS\BOOST-1.70.0\BOOST\MPL\EMPTY_FWD.HPP
T:\TOOLKITS\BOOST-1.70.0\BOOST\MPL\LIST\AUX_\BEGIN_END.HPP
T:\TOOLKITS\BOOST-1.70.0\BOOST\MPL\BEGIN_END_FWD.HPP
T:\TOOLKITS\BOOST-1.70.0\BOOST\MPL\LIST\AUX_\ITERATOR.HPP
T:\TOOLKITS\BOOST-1.70.0\BOOST\MPL\ITERATOR_TAGS.HPP
T:\TOOLKITS\BOOST-1.70.0\BOOST\MPL\DEREF.HPP
T:\TOOLKITS\BOOST-1.70.0\BOOST\MPL\AUX_\MSVC_TYPE.HPP
T:\TOOLKITS\BOOST-1.70.0\BOOST\MPL\AUX_\LAMBDA_SPEC.HPP
T:\TOOLKITS\BOOST-1.70.0\BOOST\MPL\LIST\AUX_\INCLUDE_PREPROCESSED.HPP
T:\TOOLKITS\BOOST-1.70.0\BOOST\MPL\LIST\AUX_\PREPROCESSED\PLAIN\LIST10.HPP
T:\TOOLKITS\BOOST-1.70.0\BOOST\MPL\LIST\AUX_\PREPROCESSED\PLAIN\LIST20.HPP
T:\TOOLKITS\BOOST-1.70.0\BOOST\MPL\AUX_\PREPROCESSED\PLAIN\LIST.HPP
T:\TOOLKITS\BOOST-1.70.0\BOOST\MPL\CONTAINS.HPP
T:\TOOLKITS\BOOST-1.70.0\BOOST\MPL\CONTAINS_FWD.HPP
T:\TOOLKITS\BOOST-1.70.0\BOOST\MPL\SEQUENCE_TAG.HPP
T:\TOOLKITS\BOOST-1.70.0\BOOST\MPL\SEQUENCE_TAG_FWD.HPP
T:\TOOLKITS\BOOST-1.70.0\BOOST\MPL\AUX_\HAS_BEGIN.HPP
T:\TOOLKITS\BOOST-1.70.0\BOOST\MPL\AUX_\CONTAINS_IMPL.HPP
T:\TOOLKITS\BOOST-1.70.0\BOOST\MPL\BEGIN_END.HPP
T:\TOOLKITS\BOOST-1.70.0\BOOST\MPL\AUX_\BEGIN_END_IMPL.HPP
T:\TOOLKITS\BOOST-1.70.0\BOOST\MPL\AUX_\TRAITS_LAMBDA_SPEC.HPP
T:\TOOLKITS\BOOST-1.70.0\BOOST\MPL\FIND.HPP
T:\TOOLKITS\BOOST-1.70.0\BOOST\MPL\FIND_IF.HPP
T:\TOOLKITS\BOOST-1.70.0\BOOST\MPL\AUX_\FIND_IF_PRED.HPP
T:\TOOLKITS\BOOST-1.70.0\BOOST\MPL\AUX_\ITER_APPLY.HPP
T:\TOOLKITS\BOOST-1.70.0\BOOST\MPL\ITER_FOLD_IF.HPP
T:\TOOLKITS\BOOST-1.70.0\BOOST\MPL\PAIR.HPP
T:\TOOLKITS\BOOST-1.70.0\BOOST\MPL\AUX_\ITER_FOLD_IF_IMPL.HPP
T:\TOOLKITS\BOOST-1.70.0\BOOST\MPL\AUX_\PREPROCESSED\PLAIN\ITER_FOLD_IF_IMPL.HPP
T:\TOOLKITS\BOOST-1.70.0\BOOST\MPL\SAME_AS.HPP
T:\TOOLKITS\BOOST-1.70.0\BOOST\MPL\REMOVE_IF.HPP
T:\TOOLKITS\BOOST-1.70.0\BOOST\MPL\FOLD.HPP
T:\TOOLKITS\BOOST-1.70.0\BOOST\MPL\O1_SIZE.HPP
T:\TOOLKITS\BOOST-1.70.0\BOOST\MPL\AUX_\O1_SIZE_IMPL.HPP
T:\TOOLKITS\BOOST-1.70.0\BOOST\MPL\AUX_\HAS_SIZE.HPP
T:\TOOLKITS\BOOST-1.70.0\BOOST\MPL\AUX_\FOLD_IMPL.HPP
T:\TOOLKITS\BOOST-1.70.0\BOOST\MPL\AUX_\PREPROCESSED\PLAIN\FOLD_IMPL.HPP
T:\TOOLKITS\BOOST-1.70.0\BOOST\MPL\REVERSE_FOLD.HPP
T:\TOOLKITS\BOOST-1.70.0\BOOST\MPL\AUX_\REVERSE_FOLD_IMPL.HPP
T:\TOOLKITS\BOOST-1.70.0\BOOST\MPL\AUX_\PREPROCESSED\PLAIN\REVERSE_FOLD_IMPL.HPP
T:\TOOLKITS\BOOST-1.70.0\BOOST\MPL\AUX_\INSERTER_ALGORITHM.HPP
T:\TOOLKITS\BOOST-1.70.0\BOOST\MPL\BACK_INSERTER.HPP
T:\TOOLKITS\BOOST-1.70.0\BOOST\MPL\PUSH_BACK.HPP
T:\TOOLKITS\BOOST-1.70.0\BOOST\MPL\AUX_\PUSH_BACK_IMPL.HPP
T:\TOOLKITS\BOOST-1.70.0\BOOST\MPL\INSERTER.HPP
T:\TOOLKITS\BOOST-1.70.0\BOOST\MPL\FRONT_INSERTER.HPP
T:\TOOLKITS\BOOST-1.70.0\BOOST\MPL\PUSH_FRONT.HPP
T:\TOOLKITS\BOOST-1.70.0\BOOST\MPL\AUX_\PUSH_FRONT_IMPL.HPP
T:\TOOLKITS\BOOST-1.70.0\BOOST\MPL\CLEAR.HPP
T:\TOOLKITS\BOOST-1.70.0\BOOST\MPL\AUX_\CLEAR_IMPL.HPP
T:\TOOLKITS\BOOST-1.70.0\BOOST\MPL\VECTOR.HPP
T:\TOOLKITS\BOOST-1.70.0\BOOST\MPL\LIMITS\VECTOR.HPP
T:\TOOLKITS\BOOST-1.70.0\BOOST\MPL\VECTOR\VECTOR20.HPP
T:\TOOLKITS\BOOST-1.70.0\BOOST\MPL\VECTOR\VECTOR10.HPP
T:\TOOLKITS\BOOST-1.70.0\BOOST\MPL\VECTOR\VECTOR0.HPP
T:\TOOLKITS\BOOST-1.70.0\BOOST\MPL\VECTOR\AUX_\AT.HPP
T:\TOOLKITS\BOOST-1.70.0\BOOST\MPL\AT_FWD.HPP
T:\TOOLKITS\BOOST-1.70.0\BOOST\MPL\VECTOR\AUX_\TAG.HPP
T:\TOOLKITS\BOOST-1.70.0\BOOST\MPL\AUX_\CONFIG\TYPEOF.HPP
T:\TOOLKITS\BOOST-1.70.0\BOOST\MPL\VECTOR\AUX_\FRONT.HPP
T:\TOOLKITS\BOOST-1.70.0\BOOST\MPL\VECTOR\AUX_\PUSH_FRONT.HPP
T:\TOOLKITS\BOOST-1.70.0\BOOST\MPL\VECTOR\AUX_\POP_FRONT.HPP
T:\TOOLKITS\BOOST-1.70.0\BOOST\MPL\VECTOR\AUX_\PUSH_BACK.HPP
T:\TOOLKITS\BOOST-1.70.0\BOOST\MPL\VECTOR\AUX_\POP_BACK.HPP
T:\TOOLKITS\BOOST-1.70.0\BOOST\MPL\POP_BACK_FWD.HPP
T:\TOOLKITS\BOOST-1.70.0\BOOST\MPL\VECTOR\AUX_\BACK.HPP
T:\TOOLKITS\BOOST-1.70.0\BOOST\MPL\BACK_FWD.HPP
T:\TOOLKITS\BOOST-1.70.0\BOOST\MPL\VECTOR\AUX_\CLEAR.HPP
T:\TOOLKITS\BOOST-1.70.0\BOOST\MPL\VECTOR\AUX_\VECTOR0.HPP
T:\TOOLKITS\BOOST-1.70.0\BOOST\MPL\VECTOR\AUX_\ITERATOR.HPP
T:\TOOLKITS\BOOST-1.70.0\BOOST\MPL\PLUS.HPP
T:\TOOLKITS\BOOST-1.70.0\BOOST\MPL\AUX_\PREPROCESSED\PLAIN\PLUS.HPP
T:\TOOLKITS\BOOST-1.70.0\BOOST\MPL\MINUS.HPP
T:\TOOLKITS\BOOST-1.70.0\BOOST\MPL\AUX_\PREPROCESSED\PLAIN\MINUS.HPP
T:\TOOLKITS\BOOST-1.70.0\BOOST\MPL\ADVANCE_FWD.HPP
T:\TOOLKITS\BOOST-1.70.0\BOOST\MPL\DISTANCE_FWD.HPP
T:\TOOLKITS\BOOST-1.70.0\BOOST\MPL\PRIOR.HPP
T:\TOOLKITS\BOOST-1.70.0\BOOST\MPL\VECTOR\AUX_\O1_SIZE.HPP
T:\TOOLKITS\BOOST-1.70.0\BOOST\MPL\VECTOR\AUX_\SIZE.HPP
T:\TOOLKITS\BOOST-1.70.0\BOOST\MPL\VECTOR\AUX_\EMPTY.HPP
T:\TOOLKITS\BOOST-1.70.0\BOOST\MPL\VECTOR\AUX_\ITEM.HPP
T:\TOOLKITS\BOOST-1.70.0\BOOST\MPL\VECTOR\AUX_\BEGIN_END.HPP
T:\TOOLKITS\BOOST-1.70.0\BOOST\MPL\VECTOR\AUX_\INCLUDE_PREPROCESSED.HPP
T:\TOOLKITS\BOOST-1.70.0\BOOST\MPL\VECTOR\AUX_\PREPROCESSED\PLAIN\VECTOR10.HPP
T:\TOOLKITS\BOOST-1.70.0\BOOST\MPL\VECTOR\AUX_\PREPROCESSED\PLAIN\VECTOR20.HPP
T:\TOOLKITS\BOOST-1.70.0\BOOST\MPL\AUX_\PREPROCESSED\PLAIN\VECTOR.HPP
T:\TOOLKITS\BOOST-1.70.0\BOOST\MPL\AT.HPP
T:\TOOLKITS\BOOST-1.70.0\BOOST\MPL\AUX_\AT_IMPL.HPP
T:\TOOLKITS\BOOST-1.70.0\BOOST\MPL\ADVANCE.HPP
T:\TOOLKITS\BOOST-1.70.0\BOOST\MPL\NEGATE.HPP
T:\TOOLKITS\BOOST-1.70.0\BOOST\MPL\AUX_\ADVANCE_FORWARD.HPP
T:\TOOLKITS\BOOST-1.70.0\BOOST\MPL\AUX_\PREPROCESSED\PLAIN\ADVANCE_FORWARD.HPP
T:\TOOLKITS\BOOST-1.70.0\BOOST\MPL\AUX_\ADVANCE_BACKWARD.HPP
T:\TOOLKITS\BOOST-1.70.0\BOOST\MPL\AUX_\PREPROCESSED\PLAIN\ADVANCE_BACKWARD.HPP
T:\TOOLKITS\BOOST-1.70.0\BOOST\MPL\SIZE.HPP
T:\TOOLKITS\BOOST-1.70.0\BOOST\MPL\AUX_\SIZE_IMPL.HPP
T:\TOOLKITS\BOOST-1.70.0\BOOST\MPL\DISTANCE.HPP
T:\TOOLKITS\BOOST-1.70.0\BOOST\MPL\ITER_FOLD.HPP
T:\TOOLKITS\BOOST-1.70.0\BOOST\MPL\AUX_\ITER_FOLD_IMPL.HPP
T:\TOOLKITS\BOOST-1.70.0\BOOST\MPL\AUX_\PREPROCESSED\PLAIN\ITER_FOLD_IMPL.HPP
T:\TOOLKITS\BOOST-1.70.0\BOOST\MPL\ITERATOR_RANGE.HPP
T:\TOOLKITS\BOOST-1.70.0\BOOST\MPL\COMPARISON.HPP
T:\TOOLKITS\BOOST-1.70.0\BOOST\MPL\NOT_EQUAL_TO.HPP
T:\TOOLKITS\BOOST-1.70.0\BOOST\MPL\AUX_\PREPROCESSED\PLAIN\NOT_EQUAL_TO.HPP
T:\TOOLKITS\BOOST-1.70.0\BOOST\MPL\GREATER.HPP
T:\TOOLKITS\BOOST-1.70.0\BOOST\MPL\AUX_\PREPROCESSED\PLAIN\GREATER.HPP
T:\TOOLKITS\BOOST-1.70.0\BOOST\MPL\LESS_EQUAL.HPP
T:\TOOLKITS\BOOST-1.70.0\BOOST\MPL\AUX_\PREPROCESSED\PLAIN\LESS_EQUAL.HPP
T:\TOOLKITS\BOOST-1.70.0\BOOST\MPL\GREATER_EQUAL.HPP
T:\TOOLKITS\BOOST-1.70.0\BOOST\MPL\AUX_\PREPROCESSED\PLAIN\GREATER_EQUAL.HPP
T:\TOOLKITS\BOOST-1.70.0\BOOST\CONFIG\NO_TR1\COMPLEX.HPP
C:\PROGRAM FILES (X86)\MICROSOFT VISUAL STUDIO\2019\PROFESSIONAL\VC\TOOLS\MSVC\14.20.27508\INCLUDE\COMPLEX
C:\PROGRAM FILES (X86)\MICROSOFT VISUAL STUDIO\2019\PROFESSIONAL\VC\TOOLS\MSVC\14.20.27508\INCLUDE\YMATH.H
T:\TOOLKITS\BOOST-1.70.0\BOOST\MATH\SPECIAL_FUNCTIONS\DETAIL\FP_TRAITS.HPP
T:\TOOLKITS\BOOST-1.70.0\BOOST\PREDEF\OTHER\ENDIAN.H
T:\TOOLKITS\BOOST-1.70.0\BOOST\PREDEF\LIBRARY\C\GNU.H
T:\TOOLKITS\BOOST-1.70.0\BOOST\PREDEF\LIBRARY\C\_PREFIX.H
T:\TOOLKITS\BOOST-1.70.0\BOOST\PREDEF\DETAIL\_CASSERT.H
T:\TOOLKITS\BOOST-1.70.0\BOOST\PREDEF\OS\MACOS.H
T:\TOOLKITS\BOOST-1.70.0\BOOST\PREDEF\OS\IOS.H
T:\TOOLKITS\BOOST-1.70.0\BOOST\PREDEF\OS\BSD.H
T:\TOOLKITS\BOOST-1.70.0\BOOST\PREDEF\OS\BSD\BSDI.H
T:\TOOLKITS\BOOST-1.70.0\BOOST\PREDEF\OS\BSD\DRAGONFLY.H
T:\TOOLKITS\BOOST-1.70.0\BOOST\PREDEF\OS\BSD\FREE.H
T:\TOOLKITS\BOOST-1.70.0\BOOST\PREDEF\OS\BSD\OPEN.H
T:\TOOLKITS\BOOST-1.70.0\BOOST\PREDEF\OS\BSD\NET.H
T:\TOOLKITS\BOOST-1.70.0\BOOST\PREDEF\OS\ANDROID.H
T:\TOOLKITS\BOOST-1.70.0\BOOST\PREDEF\ARCHITECTURE.H
T:\TOOLKITS\BOOST-1.70.0\BOOST\PREDEF\ARCHITECTURE\ALPHA.H
T:\TOOLKITS\BOOST-1.70.0\BOOST\PREDEF\ARCHITECTURE\ARM.H
T:\TOOLKITS\BOOST-1.70.0\BOOST\PREDEF\ARCHITECTURE\BLACKFIN.H
T:\TOOLKITS\BOOST-1.70.0\BOOST\PREDEF\ARCHITECTURE\CONVEX.H
T:\TOOLKITS\BOOST-1.70.0\BOOST\PREDEF\ARCHITECTURE\IA64.H
T:\TOOLKITS\BOOST-1.70.0\BOOST\PREDEF\ARCHITECTURE\M68K.H
T:\TOOLKITS\BOOST-1.70.0\BOOST\PREDEF\ARCHITECTURE\MIPS.H
T:\TOOLKITS\BOOST-1.70.0\BOOST\PREDEF\ARCHITECTURE\PARISC.H
T:\TOOLKITS\BOOST-1.70.0\BOOST\PREDEF\ARCHITECTURE\PPC.H
T:\TOOLKITS\BOOST-1.70.0\BOOST\PREDEF\ARCHITECTURE\PTX.H
T:\TOOLKITS\BOOST-1.70.0\BOOST\PREDEF\ARCHITECTURE\PYRAMID.H
T:\TOOLKITS\BOOST-1.70.0\BOOST\PREDEF\ARCHITECTURE\RS6K.H
T:\TOOLKITS\BOOST-1.70.0\BOOST\PREDEF\ARCHITECTURE\SPARC.H
T:\TOOLKITS\BOOST-1.70.0\BOOST\PREDEF\ARCHITECTURE\SUPERH.H
T:\TOOLKITS\BOOST-1.70.0\BOOST\PREDEF\ARCHITECTURE\SYS370.H
T:\TOOLKITS\BOOST-1.70.0\BOOST\PREDEF\ARCHITECTURE\SYS390.H
T:\TOOLKITS\BOOST-1.70.0\BOOST\PREDEF\ARCHITECTURE\Z.H
T:\TOOLKITS\BOOST-1.70.0\BOOST\MATH\SPECIAL_FUNCTIONS\FPCLASSIFY.HPP
T:\TOOLKITS\BOOST-1.70.0\BOOST\MATH\TOOLS\REAL_CAST.HPP
T:\TOOLKITS\BOOST-1.70.0\BOOST\DETAIL\BASIC_POINTERBUF.HPP
T:\TOOLKITS\BOOST-1.70.0\BOOST\ALGORITHM\STRING\CASE_CONV.HPP
T:\TOOLKITS\BOOST-1.70.0\BOOST\ITERATOR\TRANSFORM_ITERATOR.HPP
T:\TOOLKITS\BOOST-1.70.0\BOOST\UTILITY\RESULT_OF.HPP
T:\TOOLKITS\BOOST-1.70.0\BOOST\PREPROCESSOR\REPETITION\ENUM_SHIFTED_PARAMS.HPP
T:\TOOLKITS\BOOST-1.70.0\BOOST\PREPROCESSOR\FACILITIES\INTERCEPT.HPP
T:\TOOLKITS\BOOST-1.70.0\BOOST\UTILITY\DETAIL\RESULT_OF_ITERATE.HPP
T:\TOOLKITS\BOOST-1.70.0\BOOST\ALGORITHM\STRING\DETAIL\CASE_CONV.HPP
T:\TOOLKITS\BOOST-1.70.0\BOOST\DATE_TIME\STRING_CONVERT.HPP
T:\TOOLKITS\BOOST-1.70.0\BOOST\DATE_TIME\DATE_GENERATOR_FORMATTER.HPP
T:\TOOLKITS\BOOST-1.70.0\BOOST\DATE_TIME\DATE_GENERATOR_PARSER.HPP
T:\TOOLKITS\BOOST-1.70.0\BOOST\DATE_TIME\FORMAT_DATE_PARSER.HPP
T:\TOOLKITS\BOOST-1.70.0\BOOST\DATE_TIME\STRINGS_FROM_FACET.HPP
T:\TOOLKITS\BOOST-1.70.0\BOOST\DATE_TIME\SPECIAL_VALUES_PARSER.HPP
T:\TOOLKITS\BOOST-1.70.0\BOOST\DATE_TIME\GREGORIAN\PARSERS.HPP
T:\TOOLKITS\BOOST-1.70.0\BOOST\DATE_TIME\DATE_PARSING.HPP
T:\TOOLKITS\BOOST-1.70.0\BOOST\TOKENIZER.HPP
T:\TOOLKITS\BOOST-1.70.0\BOOST\TOKEN_ITERATOR.HPP
T:\TOOLKITS\BOOST-1.70.0\BOOST\ITERATOR\MINIMUM_CATEGORY.HPP
T:\TOOLKITS\BOOST-1.70.0\BOOST\TOKEN_FUNCTIONS.HPP
C:\PROGRAM FILES (X86)\MICROSOFT VISUAL STUDIO\2019\PROFESSIONAL\VC\TOOLS\MSVC\14.20.27508\INCLUDE\CWCTYPE
C:\PROGRAM FILES (X86)\WINDOWS KITS\10\INCLUDE\10.0.17763.0\UCRT\WCTYPE.H
T:\TOOLKITS\BOOST-1.70.0\BOOST\DATE_TIME\POSIX_TIME\POSIX_TIME_TYPES.HPP
T:\TOOLKITS\BOOST-1.70.0\BOOST\DATE_TIME\TIME_CLOCK.HPP
T:\TOOLKITS\BOOST-1.70.0\BOOST\DATE_TIME\MICROSEC_TIME_CLOCK.HPP
T:\TOOLKITS\BOOST-1.70.0\BOOST\WINAPI\TIME.HPP
T:\TOOLKITS\BOOST-1.70.0\BOOST\WINAPI\BASIC_TYPES.HPP
T:\TOOLKITS\BOOST-1.70.0\BOOST\WINAPI\CONFIG.HPP
T:\TOOLKITS\BOOST-1.70.0\BOOST\PREDEF\PLATFORM.H
T:\TOOLKITS\BOOST-1.70.0\BOOST\PREDEF\PLATFORM\ANDROID.H
T:\TOOLKITS\BOOST-1.70.0\BOOST\PREDEF\PLATFORM\CLOUDABI.H
T:\TOOLKITS\BOOST-1.70.0\BOOST\PREDEF\PLATFORM\MINGW.H
T:\TOOLKITS\BOOST-1.70.0\BOOST\PREDEF\PLATFORM\MINGW32.H
T:\TOOLKITS\BOOST-1.70.0\BOOST\PREDEF\PLATFORM\MINGW64.H
T:\TOOLKITS\BOOST-1.70.0\BOOST\PREDEF\PLATFORM\WINDOWS_DESKTOP.H
T:\TOOLKITS\BOOST-1.70.0\BOOST\PREDEF\PLATFORM\WINDOWS_SERVER.H
T:\TOOLKITS\BOOST-1.70.0\BOOST\PREDEF\PLATFORM\WINDOWS_SYSTEM.H
T:\TOOLKITS\BOOST-1.70.0\BOOST\PREDEF\PLATFORM\IOS.H
C:\PROGRAM FILES (X86)\WINDOWS KITS\10\INCLUDE\10.0.17763.0\SHARED\WINERROR.H
C:\PROGRAM FILES (X86)\WINDOWS KITS\10\INCLUDE\10.0.17763.0\SHARED\SPECSTRINGS.H
C:\PROGRAM FILES (X86)\WINDOWS KITS\10\INCLUDE\10.0.17763.0\SHARED\SPECSTRINGS_STRICT.H
C:\PROGRAM FILES (X86)\WINDOWS KITS\10\INCLUDE\10.0.17763.0\SHARED\SPECSTRINGS_UNDEF.H
C:\PROGRAM FILES (X86)\WINDOWS KITS\10\INCLUDE\10.0.17763.0\SHARED\DRIVERSPECS.H
C:\PROGRAM FILES (X86)\WINDOWS KITS\10\INCLUDE\10.0.17763.0\SHARED\SDV_DRIVERSPECS.H
T:\TOOLKITS\BOOST-1.70.0\BOOST\DATE_TIME\POSIX_TIME\POSIX_TIME_DURATION.HPP
T:\TOOLKITS\BOOST-1.70.0\BOOST\DATE_TIME\POSIX_TIME\TIME_PERIOD.HPP
T:\TOOLKITS\BOOST-1.70.0\BOOST\DATE_TIME\TIME_ITERATOR.HPP
T:\TOOLKITS\BOOST-1.70.0\BOOST\DATE_TIME\DST_RULES.HPP
T:\TOOLKITS\BOOST-1.70.0\BOOST\DATE_TIME\TIME_FORMATTING_STREAMS.HPP
T:\TOOLKITS\BOOST-1.70.0\BOOST\DATE_TIME\DATE_FORMATTING_LOCALES.HPP
T:\TOOLKITS\BOOST-1.70.0\BOOST\DATE_TIME\DATE_NAMES_PUT.HPP
T:\TOOLKITS\BOOST-1.70.0\BOOST\DATE_TIME\TIME_PARSING.HPP
T:\TOOLKITS\BOOST-1.70.0\BOOST\DATE_TIME\POSIX_TIME\POSIX_TIME_IO.HPP
T:\TOOLKITS\BOOST-1.70.0\BOOST\DATE_TIME\TIME_FACET.HPP
T:\TOOLKITS\BOOST-1.70.0\BOOST\ALGORITHM\STRING\ERASE.HPP
T:\TOOLKITS\BOOST-1.70.0\BOOST\DATE_TIME\POSIX_TIME\CONVERSION.HPP
T:\TOOLKITS\BOOST-1.70.0\BOOST\DATE_TIME\FILETIME_FUNCTIONS.HPP
T:\TOOLKITS\BOOST-1.70.0\BOOST\DATE_TIME\POSIX_TIME\TIME_PARSERS.HPP
C:\USERS\STATSUSER\DESKTOP\SG_START_FRM_CNN\INCLUDE\CAFFE\UTIL\IO.HPP
T:\TOOLKITS\BOOST-1.70.0\BOOST\FILESYSTEM.HPP
T:\TOOLKITS\BOOST-1.70.0\BOOST\FILESYSTEM\CONFIG.HPP
T:\TOOLKITS\BOOST-1.70.0\BOOST\SYSTEM\API_CONFIG.HPP
T:\TOOLKITS\BOOST-1.70.0\BOOST\FILESYSTEM\PATH.HPP
T:\TOOLKITS\BOOST-1.70.0\BOOST\FILESYSTEM\PATH_TRAITS.HPP
T:\TOOLKITS\BOOST-1.70.0\BOOST\TYPE_TRAITS\DECAY.HPP
T:\TOOLKITS\BOOST-1.70.0\BOOST\TYPE_TRAITS\REMOVE_BOUNDS.HPP
T:\TOOLKITS\BOOST-1.70.0\BOOST\TYPE_TRAITS\REMOVE_EXTENT.HPP
T:\TOOLKITS\BOOST-1.70.0\BOOST\SYSTEM\ERROR_CODE.HPP
T:\TOOLKITS\BOOST-1.70.0\BOOST\SYSTEM\DETAIL\CONFIG.HPP
T:\TOOLKITS\BOOST-1.70.0\BOOST\CERRNO.HPP
T:\TOOLKITS\BOOST-1.70.0\BOOST\SYSTEM\DETAIL\GENERIC_CATEGORY.HPP
T:\TOOLKITS\BOOST-1.70.0\BOOST\SYSTEM\DETAIL\SYSTEM_CATEGORY_WIN32.HPP
T:\TOOLKITS\BOOST-1.70.0\BOOST\WINAPI\ERROR_CODES.HPP
T:\TOOLKITS\BOOST-1.70.0\BOOST\WINAPI\ERROR_HANDLING.HPP
C:\PROGRAM FILES (X86)\MICROSOFT VISUAL STUDIO\2019\PROFESSIONAL\VC\TOOLS\MSVC\14.20.27508\INCLUDE\STDARG.H
T:\TOOLKITS\BOOST-1.70.0\BOOST\WINAPI\GET_LAST_ERROR.HPP
T:\TOOLKITS\BOOST-1.70.0\BOOST\WINAPI\CHARACTER_CODE_CONVERSION.HPP
T:\TOOLKITS\BOOST-1.70.0\BOOST\WINAPI\LOCAL_MEMORY.HPP
T:\TOOLKITS\BOOST-1.70.0\BOOST\SYSTEM\DETAIL\STD_INTEROPERABILITY.HPP
C:\PROGRAM FILES (X86)\MICROSOFT VISUAL STUDIO\2019\PROFESSIONAL\VC\TOOLS\MSVC\14.20.27508\INCLUDE\LIST
T:\TOOLKITS\BOOST-1.70.0\BOOST\CONFIG\ABI_PREFIX.HPP
T:\TOOLKITS\BOOST-1.70.0\BOOST\CONFIG\ABI\MSVC_PREFIX.HPP
T:\TOOLKITS\BOOST-1.70.0\BOOST\CONFIG\ABI_SUFFIX.HPP
T:\TOOLKITS\BOOST-1.70.0\BOOST\CONFIG\ABI\MSVC_SUFFIX.HPP
T:\TOOLKITS\BOOST-1.70.0\BOOST\SYSTEM\SYSTEM_ERROR.HPP
T:\TOOLKITS\BOOST-1.70.0\BOOST\IO\DETAIL\QUOTED_MANIP.HPP
T:\TOOLKITS\BOOST-1.70.0\BOOST\FUNCTIONAL\HASH_FWD.HPP
T:\TOOLKITS\BOOST-1.70.0\BOOST\FILESYSTEM\OPERATIONS.HPP
T:\TOOLKITS\BOOST-1.70.0\BOOST\CORE\SCOPED_ENUM.HPP
T:\TOOLKITS\BOOST-1.70.0\BOOST\DETAIL\BITMASK.HPP
T:\TOOLKITS\BOOST-1.70.0\BOOST\SMART_PTR\INTRUSIVE_PTR.HPP
T:\TOOLKITS\BOOST-1.70.0\BOOST\SMART_PTR\INTRUSIVE_REF_COUNTER.HPP
T:\TOOLKITS\BOOST-1.70.0\BOOST\SMART_PTR\DETAIL\ATOMIC_COUNT.HPP
T:\TOOLKITS\BOOST-1.70.0\BOOST\SMART_PTR\DETAIL\ATOMIC_COUNT_STD_ATOMIC.HPP
C:\PROGRAM FILES (X86)\MICROSOFT VISUAL STUDIO\2019\PROFESSIONAL\VC\TOOLS\MSVC\14.20.27508\INCLUDE\STACK
T:\TOOLKITS\BOOST-1.70.0\BOOST\FILESYSTEM\CONVENIENCE.HPP
T:\TOOLKITS\BOOST-1.70.0\BOOST\FILESYSTEM\STRING_FILE.HPP
T:\TOOLKITS\BOOST-1.70.0\BOOST\FILESYSTEM\FSTREAM.HPP
C:\USERS\STATSUSER\DESKTOP\SG_START_FRM_CNN\INCLUDE\CAFFE\UTIL\FORMAT.HPP
C:\USERS\STATSUSER\DESKTOP\SG_START_FRM_CNN\INCLUDE\CAFFE\UTIL\UPGRADE_PROTO.HPP
T:\TOOLKITS\OPENCV-3.4.6\INCLUDE\OPENCV2\CORE\CORE.HPP
T:\TOOLKITS\OPENCV-3.4.6\INCLUDE\OPENCV2\CORE.HPP
T:\TOOLKITS\OPENCV-3.4.6\INCLUDE\OPENCV2\CORE\CVDEF.H
T:\TOOLKITS\OPENCV-3.4.6\INCLUDE\OPENCV2\CORE\HAL\INTERFACE.H
T:\TOOLKITS\OPENCV-3.4.6\INCLUDE\OPENCV2\CORE\CV_CPU_DISPATCH.H
C:\PROGRAM FILES (X86)\MICROSOFT VISUAL STUDIO\2019\PROFESSIONAL\VC\TOOLS\MSVC\14.20.27508\INCLUDE\EMMINTRIN.H
C:\PROGRAM FILES (X86)\MICROSOFT VISUAL STUDIO\2019\PROFESSIONAL\VC\TOOLS\MSVC\14.20.27508\INCLUDE\XMMINTRIN.H
C:\PROGRAM FILES (X86)\MICROSOFT VISUAL STUDIO\2019\PROFESSIONAL\VC\TOOLS\MSVC\14.20.27508\INCLUDE\MMINTRIN.H
C:\PROGRAM FILES (X86)\MICROSOFT VISUAL STUDIO\2019\PROFESSIONAL\VC\TOOLS\MSVC\14.20.27508\INCLUDE\INTRIN.H
C:\PROGRAM FILES (X86)\MICROSOFT VISUAL STUDIO\2019\PROFESSIONAL\VC\TOOLS\MSVC\14.20.27508\INCLUDE\SETJMP.H
C:\PROGRAM FILES (X86)\MICROSOFT VISUAL STUDIO\2019\PROFESSIONAL\VC\TOOLS\MSVC\14.20.27508\INCLUDE\IMMINTRIN.H
C:\PROGRAM FILES (X86)\MICROSOFT VISUAL STUDIO\2019\PROFESSIONAL\VC\TOOLS\MSVC\14.20.27508\INCLUDE\WMMINTRIN.H
C:\PROGRAM FILES (X86)\MICROSOFT VISUAL STUDIO\2019\PROFESSIONAL\VC\TOOLS\MSVC\14.20.27508\INCLUDE\NMMINTRIN.H
C:\PROGRAM FILES (X86)\MICROSOFT VISUAL STUDIO\2019\PROFESSIONAL\VC\TOOLS\MSVC\14.20.27508\INCLUDE\SMMINTRIN.H
C:\PROGRAM FILES (X86)\MICROSOFT VISUAL STUDIO\2019\PROFESSIONAL\VC\TOOLS\MSVC\14.20.27508\INCLUDE\TMMINTRIN.H
C:\PROGRAM FILES (X86)\MICROSOFT VISUAL STUDIO\2019\PROFESSIONAL\VC\TOOLS\MSVC\14.20.27508\INCLUDE\PMMINTRIN.H
C:\PROGRAM FILES (X86)\MICROSOFT VISUAL STUDIO\2019\PROFESSIONAL\VC\TOOLS\MSVC\14.20.27508\INCLUDE\ZMMINTRIN.H
C:\PROGRAM FILES (X86)\MICROSOFT VISUAL STUDIO\2019\PROFESSIONAL\VC\TOOLS\MSVC\14.20.27508\INCLUDE\AMMINTRIN.H
T:\TOOLKITS\OPENCV-3.4.6\INCLUDE\OPENCV2\CORE\VERSION.HPP
T:\TOOLKITS\OPENCV-3.4.6\INCLUDE\OPENCV2\CORE\BASE.HPP
T:\TOOLKITS\OPENCV-3.4.6\INCLUDE\OPENCV2\OPENCV_MODULES.HPP
T:\TOOLKITS\OPENCV-3.4.6\INCLUDE\OPENCV2\CORE\CVSTD.HPP
T:\TOOLKITS\OPENCV-3.4.6\INCLUDE\OPENCV2\CORE\PTR.INL.HPP
T:\TOOLKITS\OPENCV-3.4.6\INCLUDE\OPENCV2\CORE\NEON_UTILS.HPP
T:\TOOLKITS\OPENCV-3.4.6\INCLUDE\OPENCV2\CORE\VSX_UTILS.HPP
T:\TOOLKITS\OPENCV-3.4.6\INCLUDE\OPENCV2\CORE\CHECK.HPP
T:\TOOLKITS\OPENCV-3.4.6\INCLUDE\OPENCV2\CORE\TRAITS.HPP
T:\TOOLKITS\OPENCV-3.4.6\INCLUDE\OPENCV2\CORE\MATX.HPP
T:\TOOLKITS\OPENCV-3.4.6\INCLUDE\OPENCV2\CORE\SATURATE.HPP
T:\TOOLKITS\OPENCV-3.4.6\INCLUDE\OPENCV2\CORE\FAST_MATH.HPP
T:\TOOLKITS\OPENCV-3.4.6\INCLUDE\OPENCV2\CORE\TYPES.HPP
T:\TOOLKITS\OPENCV-3.4.6\INCLUDE\OPENCV2\CORE\MAT.HPP
T:\TOOLKITS\OPENCV-3.4.6\INCLUDE\OPENCV2\CORE\BUFFERPOOL.HPP
T:\TOOLKITS\OPENCV-3.4.6\INCLUDE\OPENCV2\CORE\MAT.INL.HPP
T:\TOOLKITS\OPENCV-3.4.6\INCLUDE\OPENCV2\CORE\PERSISTENCE.HPP
T:\TOOLKITS\OPENCV-3.4.6\INCLUDE\OPENCV2\CORE\OPERATIONS.HPP
T:\TOOLKITS\OPENCV-3.4.6\INCLUDE\OPENCV2\CORE\CVSTD.INL.HPP
T:\TOOLKITS\OPENCV-3.4.6\INCLUDE\OPENCV2\CORE\UTILITY.HPP
T:\TOOLKITS\OPENCV-3.4.6\INCLUDE\OPENCV2\CORE\CORE_C.H
T:\TOOLKITS\OPENCV-3.4.6\INCLUDE\OPENCV2\CORE\TYPES_C.H
T:\TOOLKITS\OPENCV-3.4.6\INCLUDE\OPENCV2\CORE\OPTIM.HPP
T:\TOOLKITS\OPENCV-3.4.6\INCLUDE\OPENCV2\CORE\OVX.HPP
T:\TOOLKITS\OPENCV-3.4.6\INCLUDE\OPENCV2\HIGHGUI\HIGHGUI.HPP
T:\TOOLKITS\OPENCV-3.4.6\INCLUDE\OPENCV2\HIGHGUI.HPP
T:\TOOLKITS\OPENCV-3.4.6\INCLUDE\OPENCV2\IMGCODECS.HPP
T:\TOOLKITS\OPENCV-3.4.6\INCLUDE\OPENCV2\VIDEOIO.HPP
T:\TOOLKITS\OPENCV-3.4.6\INCLUDE\OPENCV2\HIGHGUI\HIGHGUI_C.H
T:\TOOLKITS\OPENCV-3.4.6\INCLUDE\OPENCV2\IMGPROC\IMGPROC_C.H
T:\TOOLKITS\OPENCV-3.4.6\INCLUDE\OPENCV2\IMGPROC\TYPES_C.H
T:\TOOLKITS\OPENCV-3.4.6\INCLUDE\OPENCV2\IMGCODECS\IMGCODECS_C.H
T:\TOOLKITS\OPENCV-3.4.6\INCLUDE\OPENCV2\VIDEOIO\VIDEOIO_C.H
T:\TOOLKITS\OPENCV-3.4.6\INCLUDE\OPENCV2\IMGPROC\IMGPROC.HPP
T:\TOOLKITS\OPENCV-3.4.6\INCLUDE\OPENCV2\IMGPROC.HPP
C:\USERS\STATSUSER\DESKTOP\SG_START_FRM_CNN\CODE\GENERATE_SG_START_FRMS_TRAINDATA\STARTFRMGT.H
C:\USERS\STATSUSER\DESKTOP\SG_START_FRM_CNN\INCLUDE\HELPER\HELPER.H
C:\PROGRAM FILES (X86)\WINDOWS KITS\10\INCLUDE\10.0.17763.0\UCRT\DIRECT.H
C:\PROGRAM FILES (X86)\MICROSOFT VISUAL STUDIO\2019\PROFESSIONAL\VC\TOOLS\MSVC\14.20.27508\INCLUDE\NUMERIC
T:\TOOLKITS\OPENCV-3.4.6\INCLUDE\OPENCV2\OPENCV.HPP
T:\TOOLKITS\OPENCV-3.4.6\INCLUDE\OPENCV2\CALIB3D.HPP
T:\TOOLKITS\OPENCV-3.4.6\INCLUDE\OPENCV2\FEATURES2D.HPP
T:\TOOLKITS\OPENCV-3.4.6\INCLUDE\OPENCV2\FLANN\MINIFLANN.HPP
T:\TOOLKITS\OPENCV-3.4.6\INCLUDE\OPENCV2\FLANN\DEFINES.H
T:\TOOLKITS\OPENCV-3.4.6\INCLUDE\OPENCV2\FLANN\CONFIG.H
T:\TOOLKITS\OPENCV-3.4.6\INCLUDE\OPENCV2\CORE\AFFINE.HPP
T:\TOOLKITS\OPENCV-3.4.6\INCLUDE\OPENCV2\CALIB3D\CALIB3D_C.H
T:\TOOLKITS\OPENCV-3.4.6\INCLUDE\OPENCV2\DNN.HPP
T:\TOOLKITS\OPENCV-3.4.6\INCLUDE\OPENCV2\DNN\DNN.HPP
T:\TOOLKITS\OPENCV-3.4.6\INCLUDE\OPENCV2\DNN\DICT.HPP
T:\TOOLKITS\OPENCV-3.4.6\INCLUDE\OPENCV2\DNN\LAYER.HPP
T:\TOOLKITS\OPENCV-3.4.6\INCLUDE\OPENCV2\DNN\DNN.INL.HPP
T:\TOOLKITS\OPENCV-3.4.6\INCLUDE\OPENCV2\DNN\UTILS\INFERENCE_ENGINE.HPP
T:\TOOLKITS\OPENCV-3.4.6\INCLUDE\OPENCV2\FLANN.HPP
T:\TOOLKITS\OPENCV-3.4.6\INCLUDE\OPENCV2\FLANN\FLANN_BASE.HPP
T:\TOOLKITS\OPENCV-3.4.6\INCLUDE\OPENCV2\FLANN\GENERAL.H
T:\TOOLKITS\OPENCV-3.4.6\INCLUDE\OPENCV2\FLANN\MATRIX.H
T:\TOOLKITS\OPENCV-3.4.6\INCLUDE\OPENCV2\FLANN\PARAMS.H
T:\TOOLKITS\OPENCV-3.4.6\INCLUDE\OPENCV2\FLANN\ANY.H
T:\TOOLKITS\OPENCV-3.4.6\INCLUDE\OPENCV2\FLANN\SAVING.H
T:\TOOLKITS\OPENCV-3.4.6\INCLUDE\OPENCV2\FLANN\NN_INDEX.H
T:\TOOLKITS\OPENCV-3.4.6\INCLUDE\OPENCV2\FLANN\RESULT_SET.H
T:\TOOLKITS\OPENCV-3.4.6\INCLUDE\OPENCV2\FLANN\ALL_INDICES.H
T:\TOOLKITS\OPENCV-3.4.6\INCLUDE\OPENCV2\FLANN\KDTREE_INDEX.H
T:\TOOLKITS\OPENCV-3.4.6\INCLUDE\OPENCV2\FLANN\DYNAMIC_BITSET.H
T:\TOOLKITS\OPENCV-3.4.6\INCLUDE\OPENCV2\FLANN\DIST.H
T:\TOOLKITS\OPENCV-3.4.6\INCLUDE\OPENCV2\FLANN\HEAP.H
T:\TOOLKITS\OPENCV-3.4.6\INCLUDE\OPENCV2\FLANN\ALLOCATOR.H
T:\TOOLKITS\OPENCV-3.4.6\INCLUDE\OPENCV2\FLANN\RANDOM.H
T:\TOOLKITS\OPENCV-3.4.6\INCLUDE\OPENCV2\FLANN\KDTREE_SINGLE_INDEX.H
T:\TOOLKITS\OPENCV-3.4.6\INCLUDE\OPENCV2\FLANN\KMEANS_INDEX.H
T:\TOOLKITS\OPENCV-3.4.6\INCLUDE\OPENCV2\FLANN\LOGGER.H
T:\TOOLKITS\OPENCV-3.4.6\INCLUDE\OPENCV2\FLANN\COMPOSITE_INDEX.H
T:\TOOLKITS\OPENCV-3.4.6\INCLUDE\OPENCV2\FLANN\LINEAR_INDEX.H
T:\TOOLKITS\OPENCV-3.4.6\INCLUDE\OPENCV2\FLANN\HIERARCHICAL_CLUSTERING_INDEX.H
T:\TOOLKITS\OPENCV-3.4.6\INCLUDE\OPENCV2\FLANN\LSH_INDEX.H
T:\TOOLKITS\OPENCV-3.4.6\INCLUDE\OPENCV2\FLANN\LSH_TABLE.H
T:\TOOLKITS\OPENCV-3.4.6\INCLUDE\OPENCV2\FLANN\AUTOTUNED_INDEX.H
T:\TOOLKITS\OPENCV-3.4.6\INCLUDE\OPENCV2\FLANN\GROUND_TRUTH.H
T:\TOOLKITS\OPENCV-3.4.6\INCLUDE\OPENCV2\FLANN\INDEX_TESTING.H
T:\TOOLKITS\OPENCV-3.4.6\INCLUDE\OPENCV2\FLANN\TIMER.H
T:\TOOLKITS\OPENCV-3.4.6\INCLUDE\OPENCV2\FLANN\SAMPLING.H
T:\TOOLKITS\OPENCV-3.4.6\INCLUDE\OPENCV2\ML.HPP
T:\TOOLKITS\OPENCV-3.4.6\INCLUDE\OPENCV2\ML\ML.INL.HPP
T:\TOOLKITS\OPENCV-3.4.6\INCLUDE\OPENCV2\OBJDETECT.HPP
T:\TOOLKITS\OPENCV-3.4.6\INCLUDE\OPENCV2\OBJDETECT\DETECTION_BASED_TRACKER.HPP
T:\TOOLKITS\OPENCV-3.4.6\INCLUDE\OPENCV2\OBJDETECT\OBJDETECT_C.H
T:\TOOLKITS\OPENCV-3.4.6\INCLUDE\OPENCV2\PHOTO.HPP
T:\TOOLKITS\OPENCV-3.4.6\INCLUDE\OPENCV2\PHOTO\PHOTO_C.H
T:\TOOLKITS\OPENCV-3.4.6\INCLUDE\OPENCV2\SHAPE.HPP
T:\TOOLKITS\OPENCV-3.4.6\INCLUDE\OPENCV2\SHAPE\EMDL1.HPP
T:\TOOLKITS\OPENCV-3.4.6\INCLUDE\OPENCV2\SHAPE\SHAPE_TRANSFORMER.HPP
T:\TOOLKITS\OPENCV-3.4.6\INCLUDE\OPENCV2\SHAPE\HIST_COST.HPP
T:\TOOLKITS\OPENCV-3.4.6\INCLUDE\OPENCV2\SHAPE\SHAPE_DISTANCE.HPP
T:\TOOLKITS\OPENCV-3.4.6\INCLUDE\OPENCV2\STITCHING.HPP
T:\TOOLKITS\OPENCV-3.4.6\INCLUDE\OPENCV2\STITCHING\WARPERS.HPP
T:\TOOLKITS\OPENCV-3.4.6\INCLUDE\OPENCV2\STITCHING\DETAIL\WARPERS.HPP
T:\TOOLKITS\OPENCV-3.4.6\INCLUDE\OPENCV2\CORE\CUDA.HPP
T:\TOOLKITS\OPENCV-3.4.6\INCLUDE\OPENCV2\CORE\CUDA_TYPES.HPP
T:\TOOLKITS\OPENCV-3.4.6\INCLUDE\OPENCV2\CORE\CUDA.INL.HPP
T:\TOOLKITS\OPENCV-3.4.6\INCLUDE\OPENCV2\STITCHING\DETAIL\WARPERS_INL.HPP
T:\TOOLKITS\OPENCV-3.4.6\INCLUDE\OPENCV2\STITCHING\DETAIL\MATCHERS.HPP
T:\TOOLKITS\OPENCV-3.4.6\INCLUDE\OPENCV2\STITCHING\DETAIL\MOTION_ESTIMATORS.HPP
T:\TOOLKITS\OPENCV-3.4.6\INCLUDE\OPENCV2\STITCHING\DETAIL\UTIL.HPP
T:\TOOLKITS\OPENCV-3.4.6\INCLUDE\OPENCV2\STITCHING\DETAIL\UTIL_INL.HPP
C:\PROGRAM FILES (X86)\MICROSOFT VISUAL STUDIO\2019\PROFESSIONAL\VC\TOOLS\MSVC\14.20.27508\INCLUDE\QUEUE
T:\TOOLKITS\OPENCV-3.4.6\INCLUDE\OPENCV2\STITCHING\DETAIL\CAMERA.HPP
T:\TOOLKITS\OPENCV-3.4.6\INCLUDE\OPENCV2\STITCHING\DETAIL\EXPOSURE_COMPENSATE.HPP
T:\TOOLKITS\OPENCV-3.4.6\INCLUDE\OPENCV2\STITCHING\DETAIL\SEAM_FINDERS.HPP
T:\TOOLKITS\OPENCV-3.4.6\INCLUDE\OPENCV2\STITCHING\DETAIL\BLENDERS.HPP
T:\TOOLKITS\OPENCV-3.4.6\INCLUDE\OPENCV2\SUPERRES.HPP
T:\TOOLKITS\OPENCV-3.4.6\INCLUDE\OPENCV2\SUPERRES\OPTICAL_FLOW.HPP
T:\TOOLKITS\OPENCV-3.4.6\INCLUDE\OPENCV2\VIDEO.HPP
T:\TOOLKITS\OPENCV-3.4.6\INCLUDE\OPENCV2\VIDEO\TRACKING.HPP
T:\TOOLKITS\OPENCV-3.4.6\INCLUDE\OPENCV2\VIDEO\BACKGROUND_SEGM.HPP
T:\TOOLKITS\OPENCV-3.4.6\INCLUDE\OPENCV2\VIDEO\TRACKING_C.H
T:\TOOLKITS\OPENCV-3.4.6\INCLUDE\OPENCV2\VIDEOSTAB.HPP
T:\TOOLKITS\OPENCV-3.4.6\INCLUDE\OPENCV2\VIDEOSTAB\STABILIZER.HPP
T:\TOOLKITS\OPENCV-3.4.6\INCLUDE\OPENCV2\VIDEOSTAB\GLOBAL_MOTION.HPP
T:\TOOLKITS\OPENCV-3.4.6\INCLUDE\OPENCV2\VIDEOSTAB\OPTICAL_FLOW.HPP
T:\TOOLKITS\OPENCV-3.4.6\INCLUDE\OPENCV2\VIDEOSTAB\MOTION_CORE.HPP
T:\TOOLKITS\OPENCV-3.4.6\INCLUDE\OPENCV2\VIDEOSTAB\OUTLIER_REJECTION.HPP
T:\TOOLKITS\OPENCV-3.4.6\INCLUDE\OPENCV2\VIDEOSTAB\MOTION_STABILIZING.HPP
T:\TOOLKITS\OPENCV-3.4.6\INCLUDE\OPENCV2\VIDEOSTAB\FRAME_SOURCE.HPP
T:\TOOLKITS\OPENCV-3.4.6\INCLUDE\OPENCV2\VIDEOSTAB\LOG.HPP
T:\TOOLKITS\OPENCV-3.4.6\INCLUDE\OPENCV2\VIDEOSTAB\INPAINTING.HPP
T:\TOOLKITS\OPENCV-3.4.6\INCLUDE\OPENCV2\VIDEOSTAB\FAST_MARCHING.HPP
T:\TOOLKITS\OPENCV-3.4.6\INCLUDE\OPENCV2\VIDEOSTAB\FAST_MARCHING_INL.HPP
T:\TOOLKITS\OPENCV-3.4.6\INCLUDE\OPENCV2\VIDEOSTAB\DEBLURRING.HPP
T:\TOOLKITS\OPENCV-3.4.6\INCLUDE\OPENCV2\VIDEOSTAB\WOBBLE_SUPPRESSION.HPP
T:\TOOLKITS\OPENCV-3.4.6\INCLUDE\OPENCV2\VIDEOSTAB\RING_BUFFER.HPP
C:\USERS\STATSUSER\DESKTOP\SG_START_FRM_CNN\INCLUDE\HELPER\MD5.H
T:\TOOLKITS\BOOST-1.70.0\BOOST\PROGRAM_OPTIONS.HPP
T:\TOOLKITS\BOOST-1.70.0\BOOST\PROGRAM_OPTIONS\OPTIONS_DESCRIPTION.HPP
T:\TOOLKITS\BOOST-1.70.0\BOOST\PROGRAM_OPTIONS\CONFIG.HPP
T:\TOOLKITS\BOOST-1.70.0\BOOST\PROGRAM_OPTIONS\ERRORS.HPP
T:\TOOLKITS\BOOST-1.70.0\BOOST\PROGRAM_OPTIONS\VALUE_SEMANTIC.HPP
T:\TOOLKITS\BOOST-1.70.0\BOOST\ANY.HPP
T:\TOOLKITS\BOOST-1.70.0\BOOST\FUNCTION\FUNCTION1.HPP
T:\TOOLKITS\BOOST-1.70.0\BOOST\PROGRAM_OPTIONS\DETAIL\VALUE_SEMANTIC.HPP
T:\TOOLKITS\BOOST-1.70.0\BOOST\PROGRAM_OPTIONS\POSITIONAL_OPTIONS.HPP
T:\TOOLKITS\BOOST-1.70.0\BOOST\PROGRAM_OPTIONS\PARSERS.HPP
T:\TOOLKITS\BOOST-1.70.0\BOOST\PROGRAM_OPTIONS\OPTION.HPP
T:\TOOLKITS\BOOST-1.70.0\BOOST\PROGRAM_OPTIONS\DETAIL\CMDLINE.HPP
T:\TOOLKITS\BOOST-1.70.0\BOOST\PROGRAM_OPTIONS\CMDLINE.HPP
T:\TOOLKITS\BOOST-1.70.0\BOOST\PROGRAM_OPTIONS\DETAIL\PARSERS.HPP
T:\TOOLKITS\BOOST-1.70.0\BOOST\PROGRAM_OPTIONS\DETAIL\CONVERT.HPP
T:\TOOLKITS\BOOST-1.70.0\BOOST\PROGRAM_OPTIONS\VARIABLES_MAP.HPP
T:\TOOLKITS\BOOST-1.70.0\BOOST\PROGRAM_OPTIONS\VERSION.HPP
