^T:\DESKTOP\SG_START_FRM_CNN\CODE\FIRSTFRAMEDETECTION\X64\RELEASE\FIRSTFRAMEDETECTION.OBJ
T:\DESKTOP\SG_START_FRM_CNN\CODE\BUILD\X64\RELEASE\FIRSTFRAMEDETECTION.EXE
T:\DESKTOP\SG_START_FRM_CNN\CODE\BUILD\X64\RELEASE\FIRSTFRAMEDETECTION.PDB
