^C:\USERS\STATSUSER\DESKTOP\OCR\OCRPROJECT\OCRPROJECT\SOURCE.CPP
C:\USERS\STATSUSER\DESKTOP\OCR\OCRPROJECT\OCRPROJECT\X64\RELEASE\VC142.PDB
C:\USERS\STATSUSER\DESKTOP\OCR\OCRPROJECT\OCRPROJECT\X64\RELEASE\SOURCE.OBJ
^T:\DESKTOP\OCR\OCRPROJECT\OCRPROJECT\SOURCE.CPP
T:\DESKTOP\OCR\OCRPROJECT\OCRPROJECT\X64\RELEASE\VC142.PDB
T:\DESKTOP\OCR\OCRPROJECT\OCRPROJECT\X64\RELEASE\SOURCE.OBJ
