^C:\Users\statsuser\Desktop\SG_Start_Frm_CNN\CODE\FrameExtractor\FrameExtractor.vcxproj
C:\Users\statsuser\Desktop\SG_Start_Frm_CNN\CODE\build\x64\Release\FrameExtractor.ipdb
C:\Users\statsuser\Desktop\SG_Start_Frm_CNN\CODE\build\x64\Release\FrameExtractor.iobj
^C:\Users\statsuser\Desktop\SG_Start_Frm_CNN\CODE\FrameExtractor\FrameExtractor.vcxproj
C:\Users\statsuser\Desktop\SG_Start_Frm_CNN\CODE\build\x64\Release\FrameExtractor.ipdb
C:\Users\statsuser\Desktop\SG_Start_Frm_CNN\CODE\build\x64\Release\FrameExtractor.iobj
^C:\Users\statsuser\Desktop\SG_Start_Frm_CNN\CODE\FrameExtractor\FrameExtractor.vcxproj
C:\Users\statsuser\Desktop\SG_Start_Frm_CNN\CODE\build\x64\Release\FrameExtractor.ipdb
C:\Users\statsuser\Desktop\SG_Start_Frm_CNN\CODE\build\x64\Release\FrameExtractor.iobj
^C:\Users\statsuser\Desktop\SG_Start_Frm_CNN\CODE\FrameExtractor\FrameExtractor.vcxproj
C:\Users\statsuser\Desktop\SG_Start_Frm_CNN\CODE\build\x64\Release\FrameExtractor.ipdb
C:\Users\statsuser\Desktop\SG_Start_Frm_CNN\CODE\build\x64\Release\FrameExtractor.iobj
^C:\Users\statsuser\Desktop\SG_Start_Frm_CNN\CODE\FrameExtractor\FrameExtractor.vcxproj
C:\Users\statsuser\Desktop\SG_Start_Frm_CNN\CODE\build\x64\Release\FrameExtractor.ipdb
C:\Users\statsuser\Desktop\SG_Start_Frm_CNN\CODE\build\x64\Release\FrameExtractor.iobj
^C:\Users\statsuser\Desktop\SG_Start_Frm_CNN\CODE\FrameExtractor\FrameExtractor.vcxproj
C:\Users\statsuser\Desktop\SG_Start_Frm_CNN\CODE\build\x64\Release\FrameExtractor.ipdb
C:\Users\statsuser\Desktop\SG_Start_Frm_CNN\CODE\build\x64\Release\FrameExtractor.iobj
^C:\Users\statsuser\Desktop\SG_Start_Frm_CNN\CODE\FrameExtractor\FrameExtractor.vcxproj
C:\Users\statsuser\Desktop\SG_Start_Frm_CNN\CODE\build\x64\Release\FrameExtractor.ipdb
C:\Users\statsuser\Desktop\SG_Start_Frm_CNN\CODE\build\x64\Release\FrameExtractor.iobj
^C:\Users\statsuser\Desktop\SG_Start_Frm_CNN\CODE\FrameExtractor\FrameExtractor.vcxproj
C:\Users\statsuser\Desktop\SG_Start_Frm_CNN\CODE\build\x64\Release\FrameExtractor.ipdb
C:\Users\statsuser\Desktop\SG_Start_Frm_CNN\CODE\build\x64\Release\FrameExtractor.iobj
^C:\Users\statsuser\Desktop\SG_Start_Frm_CNN\CODE\FrameExtractor\FrameExtractor.vcxproj
C:\Users\statsuser\Desktop\SG_Start_Frm_CNN\CODE\build\x64\Release\FrameExtractor.ipdb
C:\Users\statsuser\Desktop\SG_Start_Frm_CNN\CODE\build\x64\Release\FrameExtractor.iobj
^C:\Users\statsuser\Desktop\SG_Start_Frm_CNN\CODE\FrameExtractor\FrameExtractor.vcxproj
C:\Users\statsuser\Desktop\SG_Start_Frm_CNN\CODE\build\x64\Release\FrameExtractor.ipdb
C:\Users\statsuser\Desktop\SG_Start_Frm_CNN\CODE\build\x64\Release\FrameExtractor.iobj
^C:\Users\statsuser\Desktop\SG_Start_Frm_CNN\CODE\FrameExtractor\FrameExtractor.vcxproj
C:\Users\statsuser\Desktop\SG_Start_Frm_CNN\CODE\build\x64\Release\FrameExtractor.ipdb
C:\Users\statsuser\Desktop\SG_Start_Frm_CNN\CODE\build\x64\Release\FrameExtractor.iobj
^C:\Users\statsuser\Desktop\SG_Start_Frm_CNN\CODE\FrameExtractor\FrameExtractor.vcxproj
C:\Users\statsuser\Desktop\SG_Start_Frm_CNN\CODE\build\x64\Release\FrameExtractor.ipdb
C:\Users\statsuser\Desktop\SG_Start_Frm_CNN\CODE\build\x64\Release\FrameExtractor.iobj
^C:\Users\statsuser\Desktop\SG_Start_Frm_CNN\CODE\FrameExtractor\FrameExtractor.vcxproj
C:\Users\statsuser\Desktop\SG_Start_Frm_CNN\CODE\build\x64\Release\FrameExtractor.ipdb
C:\Users\statsuser\Desktop\SG_Start_Frm_CNN\CODE\build\x64\Release\FrameExtractor.iobj
^C:\Users\statsuser\Desktop\SG_Start_Frm_CNN\CODE\FrameExtractor\FrameExtractor.vcxproj
C:\Users\statsuser\Desktop\SG_Start_Frm_CNN\CODE\build\x64\Release\FrameExtractor.ipdb
C:\Users\statsuser\Desktop\SG_Start_Frm_CNN\CODE\build\x64\Release\FrameExtractor.iobj
^C:\Users\statsuser\Desktop\SG_Start_Frm_CNN\CODE\FrameExtractor\FrameExtractor.vcxproj
C:\Users\statsuser\Desktop\SG_Start_Frm_CNN\CODE\build\x64\Release\FrameExtractor.ipdb
C:\Users\statsuser\Desktop\SG_Start_Frm_CNN\CODE\build\x64\Release\FrameExtractor.iobj
^C:\Users\statsuser\Desktop\SG_Start_Frm_CNN\CODE\FrameExtractor\FrameExtractor.vcxproj
C:\Users\statsuser\Desktop\SG_Start_Frm_CNN\CODE\build\x64\Release\FrameExtractor.ipdb
C:\Users\statsuser\Desktop\SG_Start_Frm_CNN\CODE\build\x64\Release\FrameExtractor.iobj
^C:\Users\statsuser\Desktop\SG_Start_Frm_CNN\CODE\FrameExtractor\FrameExtractor.vcxproj
C:\Users\statsuser\Desktop\SG_Start_Frm_CNN\CODE\build\x64\Release\FrameExtractor.ipdb
C:\Users\statsuser\Desktop\SG_Start_Frm_CNN\CODE\build\x64\Release\FrameExtractor.iobj
^C:\Users\statsuser\Desktop\SG_Start_Frm_CNN\CODE\FrameExtractor\FrameExtractor.vcxproj
C:\Users\statsuser\Desktop\SG_Start_Frm_CNN\CODE\build\x64\Release\FrameExtractor.ipdb
C:\Users\statsuser\Desktop\SG_Start_Frm_CNN\CODE\build\x64\Release\FrameExtractor.iobj
^C:\Users\statsuser\Desktop\SG_Start_Frm_CNN\CODE\FrameExtractor\FrameExtractor.vcxproj
C:\Users\statsuser\Desktop\SG_Start_Frm_CNN\CODE\build\x64\Release\FrameExtractor.ipdb
C:\Users\statsuser\Desktop\SG_Start_Frm_CNN\CODE\build\x64\Release\FrameExtractor.iobj
^C:\Users\statsuser\Desktop\SG_Start_Frm_CNN\CODE\FrameExtractor\FrameExtractor.vcxproj
C:\Users\statsuser\Desktop\SG_Start_Frm_CNN\CODE\build\x64\Release\FrameExtractor.ipdb
C:\Users\statsuser\Desktop\SG_Start_Frm_CNN\CODE\build\x64\Release\FrameExtractor.iobj
^C:\Users\statsuser\Desktop\SG_Start_Frm_CNN\CODE\FrameExtractor\FrameExtractor.vcxproj
C:\Users\statsuser\Desktop\SG_Start_Frm_CNN\CODE\build\x64\Release\FrameExtractor.ipdb
C:\Users\statsuser\Desktop\SG_Start_Frm_CNN\CODE\build\x64\Release\FrameExtractor.iobj
^C:\Users\statsuser\Desktop\SG_Start_Frm_CNN\CODE\FrameExtractor\FrameExtractor.vcxproj
C:\Users\statsuser\Desktop\SG_Start_Frm_CNN\CODE\build\x64\Release\FrameExtractor.ipdb
C:\Users\statsuser\Desktop\SG_Start_Frm_CNN\CODE\build\x64\Release\FrameExtractor.iobj
^C:\Users\statsuser\Desktop\SG_Start_Frm_CNN\CODE\FrameExtractor\FrameExtractor.vcxproj
C:\Users\statsuser\Desktop\SG_Start_Frm_CNN\CODE\build\x64\Release\FrameExtractor.ipdb
C:\Users\statsuser\Desktop\SG_Start_Frm_CNN\CODE\build\x64\Release\FrameExtractor.iobj
^C:\Users\statsuser\Desktop\SG_Start_Frm_CNN\CODE\FrameExtractor\FrameExtractor.vcxproj
C:\Users\statsuser\Desktop\SG_Start_Frm_CNN\CODE\build\x64\Release\FrameExtractor.ipdb
C:\Users\statsuser\Desktop\SG_Start_Frm_CNN\CODE\build\x64\Release\FrameExtractor.iobj
^C:\Users\statsuser\Desktop\SG_Start_Frm_CNN\CODE\FrameExtractor\FrameExtractor.vcxproj
C:\Users\statsuser\Desktop\SG_Start_Frm_CNN\CODE\build\x64\Release\FrameExtractor.ipdb
C:\Users\statsuser\Desktop\SG_Start_Frm_CNN\CODE\build\x64\Release\FrameExtractor.iobj
^C:\Users\statsuser\Desktop\SG_Start_Frm_CNN\CODE\FrameExtractor\FrameExtractor.vcxproj
C:\Users\statsuser\Desktop\SG_Start_Frm_CNN\CODE\build\x64\Release\FrameExtractor.ipdb
C:\Users\statsuser\Desktop\SG_Start_Frm_CNN\CODE\build\x64\Release\FrameExtractor.iobj
^C:\Users\statsuser\Desktop\SG_Start_Frm_CNN\CODE\FrameExtractor\FrameExtractor.vcxproj
C:\Users\statsuser\Desktop\SG_Start_Frm_CNN\CODE\build\x64\Release\FrameExtractor.ipdb
C:\Users\statsuser\Desktop\SG_Start_Frm_CNN\CODE\build\x64\Release\FrameExtractor.iobj
^C:\Users\statsuser\Desktop\SG_Start_Frm_CNN\CODE\FrameExtractor\FrameExtractor.vcxproj
C:\Users\statsuser\Desktop\SG_Start_Frm_CNN\CODE\build\x64\Release\FrameExtractor.ipdb
C:\Users\statsuser\Desktop\SG_Start_Frm_CNN\CODE\build\x64\Release\FrameExtractor.iobj
^C:\Users\statsuser\Desktop\SG_Start_Frm_CNN\CODE\FrameExtractor\FrameExtractor.vcxproj
C:\Users\statsuser\Desktop\SG_Start_Frm_CNN\CODE\build\x64\Release\FrameExtractor.ipdb
C:\Users\statsuser\Desktop\SG_Start_Frm_CNN\CODE\build\x64\Release\FrameExtractor.iobj
^C:\Users\statsuser\Desktop\SG_Start_Frm_CNN\CODE\FrameExtractor\FrameExtractor.vcxproj
C:\Users\statsuser\Desktop\SG_Start_Frm_CNN\CODE\build\x64\Release\FrameExtractor.ipdb
C:\Users\statsuser\Desktop\SG_Start_Frm_CNN\CODE\build\x64\Release\FrameExtractor.iobj
^C:\Users\statsuser\Desktop\SG_Start_Frm_CNN\CODE\FrameExtractor\FrameExtractor.vcxproj
C:\Users\statsuser\Desktop\SG_Start_Frm_CNN\CODE\build\x64\Release\FrameExtractor.ipdb
C:\Users\statsuser\Desktop\SG_Start_Frm_CNN\CODE\build\x64\Release\FrameExtractor.iobj
^C:\Users\statsuser\Desktop\SG_Start_Frm_CNN\CODE\FrameExtractor\FrameExtractor.vcxproj
C:\Users\statsuser\Desktop\SG_Start_Frm_CNN\CODE\build\x64\Release\FrameExtractor.ipdb
C:\Users\statsuser\Desktop\SG_Start_Frm_CNN\CODE\build\x64\Release\FrameExtractor.iobj
^C:\Users\statsuser\Desktop\SG_Start_Frm_CNN\CODE\FrameExtractor\FrameExtractor.vcxproj
C:\Users\statsuser\Desktop\SG_Start_Frm_CNN\CODE\build\x64\Release\FrameExtractor.ipdb
C:\Users\statsuser\Desktop\SG_Start_Frm_CNN\CODE\build\x64\Release\FrameExtractor.iobj
^C:\Users\statsuser\Desktop\SG_Start_Frm_CNN\CODE\FrameExtractor\FrameExtractor.vcxproj
C:\Users\statsuser\Desktop\SG_Start_Frm_CNN\CODE\build\x64\Release\FrameExtractor.ipdb
C:\Users\statsuser\Desktop\SG_Start_Frm_CNN\CODE\build\x64\Release\FrameExtractor.iobj
^C:\Users\statsuser\Desktop\SG_Start_Frm_CNN\CODE\FrameExtractor\FrameExtractor.vcxproj
C:\Users\statsuser\Desktop\SG_Start_Frm_CNN\CODE\build\x64\Release\FrameExtractor.ipdb
C:\Users\statsuser\Desktop\SG_Start_Frm_CNN\CODE\build\x64\Release\FrameExtractor.iobj
^C:\Users\statsuser\Desktop\SG_Start_Frm_CNN\CODE\FrameExtractor\FrameExtractor.vcxproj
C:\Users\statsuser\Desktop\SG_Start_Frm_CNN\CODE\build\x64\Release\FrameExtractor.ipdb
C:\Users\statsuser\Desktop\SG_Start_Frm_CNN\CODE\build\x64\Release\FrameExtractor.iobj
^C:\Users\statsuser\Desktop\SG_Start_Frm_CNN\CODE\FrameExtractor\FrameExtractor.vcxproj
C:\Users\statsuser\Desktop\SG_Start_Frm_CNN\CODE\build\x64\Release\FrameExtractor.ipdb
C:\Users\statsuser\Desktop\SG_Start_Frm_CNN\CODE\build\x64\Release\FrameExtractor.iobj
