^C:\USERS\STATSUSER\DESKTOP\SG_START_FRM_CNN\CODE\FRAMEEXTRACTOR\X64\RELEASE\MAIN.OBJ
T:\TOOLKITS\BOOST-1.70.0\STAGE\LIB\BOOST_THREAD-VC142-MT-X64-1_70.LIB
T:\TOOLKITS\BOOST-1.70.0\STAGE\LIB\BOOST_PYTHON35-VC142-MT-X64-1_70.LIB
T:\TOOLKITS\OPENCV-3.4.6\X64\VC14\LIB\OPENCV_ARUCO346.LIB
T:\TOOLKITS\OPENCV-3.4.6\X64\VC14\LIB\OPENCV_BGSEGM346.LIB
T:\TOOLKITS\OPENCV-3.4.6\X64\VC14\LIB\OPENCV_BIOINSPIRED346.LIB
T:\TOOLKITS\OPENCV-3.4.6\X64\VC14\LIB\OPENCV_CALIB3D346.LIB
T:\TOOLKITS\OPENCV-3.4.6\X64\VC14\LIB\OPENCV_CCALIB346.LIB
T:\TOOLKITS\OPENCV-3.4.6\X64\VC14\LIB\OPENCV_CORE346.LIB
T:\TOOLKITS\OPENCV-3.4.6\X64\VC14\LIB\OPENCV_CUDAARITHM346.LIB
T:\TOOLKITS\OPENCV-3.4.6\X64\VC14\LIB\OPENCV_CUDABGSEGM346.LIB
T:\TOOLKITS\OPENCV-3.4.6\X64\VC14\LIB\OPENCV_CUDACODEC346.LIB
T:\TOOLKITS\OPENCV-3.4.6\X64\VC14\LIB\OPENCV_CUDAFEATURES2D346.LIB
T:\TOOLKITS\OPENCV-3.4.6\X64\VC14\LIB\OPENCV_CUDAFILTERS346.LIB
T:\TOOLKITS\OPENCV-3.4.6\X64\VC14\LIB\OPENCV_CUDAIMGPROC346.LIB
T:\TOOLKITS\OPENCV-3.4.6\X64\VC14\LIB\OPENCV_CUDALEGACY346.LIB
T:\TOOLKITS\OPENCV-3.4.6\X64\VC14\LIB\OPENCV_CUDAOBJDETECT346.LIB
T:\TOOLKITS\OPENCV-3.4.6\X64\VC14\LIB\OPENCV_CUDAOPTFLOW346.LIB
T:\TOOLKITS\OPENCV-3.4.6\X64\VC14\LIB\OPENCV_CUDASTEREO346.LIB
T:\TOOLKITS\OPENCV-3.4.6\X64\VC14\LIB\OPENCV_CUDAWARPING346.LIB
T:\TOOLKITS\OPENCV-3.4.6\X64\VC14\LIB\OPENCV_CUDEV346.LIB
T:\TOOLKITS\OPENCV-3.4.6\X64\VC14\LIB\OPENCV_DATASETS346.LIB
T:\TOOLKITS\OPENCV-3.4.6\X64\VC14\LIB\OPENCV_DNN_OBJDETECT346.LIB
T:\TOOLKITS\OPENCV-3.4.6\X64\VC14\LIB\OPENCV_DNN346.LIB
T:\TOOLKITS\OPENCV-3.4.6\X64\VC14\LIB\OPENCV_DPM346.LIB
T:\TOOLKITS\OPENCV-3.4.6\X64\VC14\LIB\OPENCV_FACE346.LIB
T:\TOOLKITS\OPENCV-3.4.6\X64\VC14\LIB\OPENCV_FEATURES2D346.LIB
T:\TOOLKITS\OPENCV-3.4.6\X64\VC14\LIB\OPENCV_FLANN346.LIB
T:\TOOLKITS\OPENCV-3.4.6\X64\VC14\LIB\OPENCV_FUZZY346.LIB
T:\TOOLKITS\OPENCV-3.4.6\X64\VC14\LIB\OPENCV_HFS346.LIB
T:\TOOLKITS\OPENCV-3.4.6\X64\VC14\LIB\OPENCV_HIGHGUI346.LIB
T:\TOOLKITS\OPENCV-3.4.6\X64\VC14\LIB\OPENCV_IMG_HASH346.LIB
T:\TOOLKITS\OPENCV-3.4.6\X64\VC14\LIB\OPENCV_IMGCODECS346.LIB
T:\TOOLKITS\OPENCV-3.4.6\X64\VC14\LIB\OPENCV_IMGPROC346.LIB
T:\TOOLKITS\OPENCV-3.4.6\X64\VC14\LIB\OPENCV_LINE_DESCRIPTOR346.LIB
T:\TOOLKITS\OPENCV-3.4.6\X64\VC14\LIB\OPENCV_ML346.LIB
T:\TOOLKITS\OPENCV-3.4.6\X64\VC14\LIB\OPENCV_OBJDETECT346.LIB
T:\TOOLKITS\OPENCV-3.4.6\X64\VC14\LIB\OPENCV_OPTFLOW346.LIB
T:\TOOLKITS\OPENCV-3.4.6\X64\VC14\LIB\OPENCV_PHASE_UNWRAPPING346.LIB
T:\TOOLKITS\OPENCV-3.4.6\X64\VC14\LIB\OPENCV_PHOTO346.LIB
T:\TOOLKITS\OPENCV-3.4.6\X64\VC14\LIB\OPENCV_PLOT346.LIB
T:\TOOLKITS\OPENCV-3.4.6\X64\VC14\LIB\OPENCV_REG346.LIB
T:\TOOLKITS\OPENCV-3.4.6\X64\VC14\LIB\OPENCV_RGBD346.LIB
T:\TOOLKITS\OPENCV-3.4.6\X64\VC14\LIB\OPENCV_SALIENCY346.LIB
T:\TOOLKITS\OPENCV-3.4.6\X64\VC14\LIB\OPENCV_SHAPE346.LIB
T:\TOOLKITS\OPENCV-3.4.6\X64\VC14\LIB\OPENCV_STEREO346.LIB
T:\TOOLKITS\OPENCV-3.4.6\X64\VC14\LIB\OPENCV_STITCHING346.LIB
T:\TOOLKITS\OPENCV-3.4.6\X64\VC14\LIB\OPENCV_STRUCTURED_LIGHT346.LIB
T:\TOOLKITS\OPENCV-3.4.6\X64\VC14\LIB\OPENCV_SUPERRES346.LIB
T:\TOOLKITS\OPENCV-3.4.6\X64\VC14\LIB\OPENCV_SURFACE_MATCHING346.LIB
T:\TOOLKITS\OPENCV-3.4.6\X64\VC14\LIB\OPENCV_TEXT346.LIB
T:\TOOLKITS\OPENCV-3.4.6\X64\VC14\LIB\OPENCV_TRACKING346.LIB
T:\TOOLKITS\OPENCV-3.4.6\X64\VC14\LIB\OPENCV_TS346.LIB
T:\TOOLKITS\OPENCV-3.4.6\X64\VC14\LIB\OPENCV_VIDEO346.LIB
T:\TOOLKITS\OPENCV-3.4.6\X64\VC14\LIB\OPENCV_VIDEOIO346.LIB
T:\TOOLKITS\OPENCV-3.4.6\X64\VC14\LIB\OPENCV_VIDEOSTAB346.LIB
T:\TOOLKITS\OPENCV-3.4.6\X64\VC14\LIB\OPENCV_XFEATURES2D346.LIB
T:\TOOLKITS\OPENCV-3.4.6\X64\VC14\LIB\OPENCV_XIMGPROC346.LIB
T:\TOOLKITS\OPENCV-3.4.6\X64\VC14\LIB\OPENCV_XOBJDETECT346.LIB
T:\TOOLKITS\OPENCV-3.4.6\X64\VC14\LIB\OPENCV_XPHOTO346.LIB
C:\PROGRAM FILES\NVIDIA GPU COMPUTING TOOLKIT\CUDA\V10.1\LIB\X64\CUDART.LIB
C:\PROGRAM FILES\NVIDIA GPU COMPUTING TOOLKIT\CUDA\V10.1\LIB\X64\CURAND.LIB
C:\PROGRAM FILES\NVIDIA GPU COMPUTING TOOLKIT\CUDA\V10.1\LIB\X64\CUBLAS.LIB
T:\BITBUCKET\HORSERACING\BIN_CAFFE_CUDA10.1_PASCAL\RELEASE\CAFFE.LIB
T:\BITBUCKET\HORSERACING\BIN_CAFFE_CUDA10.1_PASCAL\RELEASE\CAFFEPROTO.LIB
T:\BITBUCKET\HORSERACING\BIN_CAFFE_CUDA10.1_PASCAL\RELEASE\CAFFEHDF5.LIB
T:\BITBUCKET\HORSERACING\BIN_CAFFE_CUDA10.1_PASCAL\RELEASE\CAFFEHDF5_HL.LIB
T:\BITBUCKET\HORSERACING\BIN_CAFFE_CUDA10.1_PASCAL\RELEASE\LMDB.LIB
T:\BITBUCKET\HORSERACING\BIN_CAFFE_CUDA10.1_PASCAL\RELEASE\LIBOPENBLAS.DLL.A
C:\PROGRAM FILES (X86)\WINDOWS KITS\10\LIB\10.0.17763.0\UM\X64\NTDLL.LIB
T:\BITBUCKET\HORSERACING\BIN_CAFFE_CUDA10.1_PASCAL\RELEASE\GLOG.LIB
T:\BITBUCKET\HORSERACING\BIN_CAFFE_CUDA10.1_PASCAL\RELEASE\GFLAGS.LIB
T:\BITBUCKET\HORSERACING\BIN_CAFFE_CUDA10.1_PASCAL\RELEASE\LIBPROTOBUF.LIB
C:\PROGRAM FILES (X86)\WINDOWS KITS\10\LIB\10.0.17763.0\UM\X64\KERNEL32.LIB
C:\PROGRAM FILES (X86)\WINDOWS KITS\10\LIB\10.0.17763.0\UM\X64\USER32.LIB
C:\PROGRAM FILES (X86)\WINDOWS KITS\10\LIB\10.0.17763.0\UM\X64\GDI32.LIB
C:\PROGRAM FILES (X86)\WINDOWS KITS\10\LIB\10.0.17763.0\UM\X64\WINSPOOL.LIB
C:\PROGRAM FILES (X86)\WINDOWS KITS\10\LIB\10.0.17763.0\UM\X64\COMDLG32.LIB
C:\PROGRAM FILES (X86)\WINDOWS KITS\10\LIB\10.0.17763.0\UM\X64\ADVAPI32.LIB
C:\PROGRAM FILES (X86)\WINDOWS KITS\10\LIB\10.0.17763.0\UM\X64\SHELL32.LIB
C:\PROGRAM FILES (X86)\WINDOWS KITS\10\LIB\10.0.17763.0\UM\X64\OLE32.LIB
C:\PROGRAM FILES (X86)\WINDOWS KITS\10\LIB\10.0.17763.0\UM\X64\OLEAUT32.LIB
C:\PROGRAM FILES (X86)\WINDOWS KITS\10\LIB\10.0.17763.0\UM\X64\UUID.LIB
C:\PROGRAM FILES (X86)\WINDOWS KITS\10\LIB\10.0.17763.0\UM\X64\ODBC32.LIB
C:\PROGRAM FILES (X86)\WINDOWS KITS\10\LIB\10.0.17763.0\UM\X64\ODBCCP32.LIB
C:\USERS\STATSUSER\DESKTOP\SG_START_FRM_CNN\CODE\FRAMEEXTRACTOR\X64\RELEASE\MAIN.OBJ
C:\WINDOWS\GLOBALIZATION\SORTING\SORTDEFAULT.NLS
C:\PROGRAM FILES (X86)\MICROSOFT VISUAL STUDIO\2019\PROFESSIONAL\VC\TOOLS\MSVC\14.20.27508\BIN\HOSTX86\X64\C2.DLL
C:\PROGRAM FILES (X86)\MICROSOFT VISUAL STUDIO\2019\PROFESSIONAL\VC\TOOLS\MSVC\14.20.27508\LIB\X64\MSVCPRT.LIB
T:\TOOLKITS\BOOST-1.70.0\STAGE\LIB\LIBBOOST_FILESYSTEM-VC142-MT-X64-1_70.LIB
C:\PROGRAM FILES (X86)\MICROSOFT VISUAL STUDIO\2019\PROFESSIONAL\VC\TOOLS\MSVC\14.20.27508\LIB\X64\MSVCRT.LIB
C:\PROGRAM FILES (X86)\MICROSOFT VISUAL STUDIO\2019\PROFESSIONAL\VC\TOOLS\MSVC\14.20.27508\LIB\X64\OLDNAMES.LIB
C:\PROGRAM FILES (X86)\MICROSOFT VISUAL STUDIO\2019\PROFESSIONAL\VC\TOOLS\MSVC\14.20.27508\LIB\X64\VCOMP.LIB
C:\PROGRAM FILES (X86)\MICROSOFT VISUAL STUDIO\2019\PROFESSIONAL\VC\TOOLS\MSVC\14.20.27508\LIB\X64\VCRUNTIME.LIB
C:\PROGRAM FILES (X86)\WINDOWS KITS\10\LIB\10.0.17763.0\UCRT\X64\UCRT.LIB
C:\PROGRAM FILES (X86)\MICROSOFT VISUAL STUDIO\2019\PROFESSIONAL\VC\TOOLS\MSVC\14.20.27508\BIN\HOSTX86\X64\1033\LINKUI.DLL
C:\PROGRAM FILES (X86)\WINDOWS KITS\10\BIN\10.0.17763.0\X86\RC.EXE
C:\PROGRAM FILES (X86)\MICROSOFT VISUAL STUDIO\2019\PROFESSIONAL\VC\TOOLS\MSVC\14.20.27508\BIN\HOSTX86\X86\CVTRES.EXE
C:\WINDOWS\SYSTEM32\TZRES.DLL
